expt2025/半導体レーザ/data/3-1_5_10kHz.CSV

Model,TBS1052C
Firmware Version,v2015-08-04-prequal4ch70_v1.3

Point Format,Y
Horizontal Units,S
Horizontal Scale,4e-05
Sample Interval,3.2e-08
Filter Frequency,2e+08
Record Length,20000
Gating,0.0% to 100.0%
Probe Attenuation,10
Vertical Units,V
Vertical Offset,0
Vertical Scale,1.5
Label,
TIME,CH1
-3.2000e-04,-0.045
-3.1997e-04,-0.045
-3.1994e-04,-0.045
-3.1990e-04,0.015
-3.1987e-04,-0.045
-3.1984e-04,0.015
-3.1981e-04,-0.045
-3.1978e-04,0.015
-3.1974e-04,-0.045
-3.1971e-04,-0.045
-3.1968e-04,-0.045
-3.1965e-04,0.015
-3.1962e-04,0.015
-3.1958e-04,0.015
-3.1955e-04,-0.045
-3.1952e-04,-0.045
-3.1949e-04,-0.045
-3.1946e-04,0.015
-3.1942e-04,-0.045
-3.1939e-04,0.015
-3.1936e-04,0.015
-3.1933e-04,-0.045
-3.1930e-04,-0.045
-3.1926e-04,-0.045
-3.1923e-04,-0.045
-3.1920e-04,-0.045
-3.1917e-04,0.015
-3.1914e-04,-0.045
-3.1910e-04,0.015
-3.1907e-04,-0.045
-3.1904e-04,0.015
-3.1901e-04,-0.045
-3.1898e-04,0.015
-3.1894e-04,0.015
-3.1891e-04,0.015
-3.1888e-04,-0.045
-3.1885e-04,0.015
-3.1882e-04,0.015
-3.1878e-04,-0.045
-3.1875e-04,0.015
-3.1872e-04,-0.045
-3.1869e-04,-0.045
-3.1866e-04,-0.045
-3.1862e-04,0.015
-3.1859e-04,-0.045
-3.1856e-04,0.015
-3.1853e-04,0.015
-3.1850e-04,-0.045
-3.1846e-04,-0.045
-3.1843e-04,-0.045
-3.1840e-04,-0.045
-3.1837e-04,0.015
-3.1834e-04,0.015
-3.1830e-04,0.795
-3.1827e-04,1.755
-3.1824e-04,2.835
-3.1821e-04,3.795
-3.1818e-04,4.935
-3.1814e-04,5.055
-3.1811e-04,5.055
-3.1808e-04,5.055
-3.1805e-04,5.055
-3.1802e-04,5.055
-3.1798e-04,5.055
-3.1795e-04,5.055
-3.1792e-04,5.055
-3.1789e-04,5.055
-3.1786e-04,5.055
-3.1782e-04,5.055
-3.1779e-04,5.055
-3.1776e-04,5.055
-3.1773e-04,5.055
-3.1770e-04,5.055
-3.1766e-04,5.055
-3.1763e-04,5.055
-3.1760e-04,5.055
-3.1757e-04,5.055
-3.1754e-04,5.055
-3.1750e-04,5.055
-3.1747e-04,5.055
-3.1744e-04,5.055
-3.1741e-04,5.055
-3.1738e-04,5.055
-3.1734e-04,5.055
-3.1731e-04,5.055
-3.1728e-04,5.055
-3.1725e-04,5.055
-3.1722e-04,5.055
-3.1718e-04,5.055
-3.1715e-04,5.055
-3.1712e-04,5.055
-3.1709e-04,5.055
-3.1706e-04,5.055
-3.1702e-04,5.055
-3.1699e-04,5.055
-3.1696e-04,5.055
-3.1693e-04,5.055
-3.1690e-04,5.055
-3.1686e-04,5.055
-3.1683e-04,5.055
-3.1680e-04,5.055
-3.1677e-04,5.055
-3.1674e-04,5.055
-3.1670e-04,5.055
-3.1667e-04,5.055
-3.1664e-04,5.055
-3.1661e-04,5.055
-3.1658e-04,5.055
-3.1654e-04,5.055
-3.1651e-04,5.055
-3.1648e-04,5.055
-3.1645e-04,5.055
-3.1642e-04,5.055
-3.1638e-04,5.055
-3.1635e-04,5.055
-3.1632e-04,5.055
-3.1629e-04,5.055
-3.1626e-04,5.055
-3.1622e-04,5.055
-3.1619e-04,5.055
-3.1616e-04,5.055
-3.1613e-04,5.055
-3.1610e-04,5.055
-3.1606e-04,5.055
-3.1603e-04,4.995
-3.1600e-04,5.055
-3.1597e-04,5.055
-3.1594e-04,5.055
-3.1590e-04,5.055
-3.1587e-04,5.055
-3.1584e-04,5.055
-3.1581e-04,5.055
-3.1578e-04,5.055
-3.1574e-04,5.055
-3.1571e-04,5.055
-3.1568e-04,5.055
-3.1565e-04,5.055
-3.1562e-04,5.055
-3.1558e-04,5.055
-3.1555e-04,5.055
-3.1552e-04,5.055
-3.1549e-04,5.055
-3.1546e-04,5.055
-3.1542e-04,5.055
-3.1539e-04,5.055
-3.1536e-04,5.055
-3.1533e-04,5.055
-3.1530e-04,5.055
-3.1526e-04,5.055
-3.1523e-04,5.055
-3.1520e-04,5.055
-3.1517e-04,5.055
-3.1514e-04,4.395
-3.1510e-04,3.435
-3.1507e-04,2.295
-3.1504e-04,1.335
-3.1501e-04,0.255
-3.1498e-04,-0.045
-3.1494e-04,-0.045
-3.1491e-04,-0.045
-3.1488e-04,-0.045
-3.1485e-04,-0.045
-3.1482e-04,-0.045
-3.1478e-04,-0.045
-3.1475e-04,-0.045
-3.1472e-04,-0.045
-3.1469e-04,0.015
-3.1466e-04,-0.045
-3.1462e-04,-0.045
-3.1459e-04,-0.045
-3.1456e-04,-0.045
-3.1453e-04,-0.045
-3.1450e-04,-0.045
-3.1446e-04,-0.045
-3.1443e-04,-0.045
-3.1440e-04,-0.045
-3.1437e-04,-0.045
-3.1434e-04,-0.045
-3.1430e-04,-0.045
-3.1427e-04,-0.045
-3.1424e-04,-0.045
-3.1421e-04,-0.045
-3.1418e-04,-0.045
-3.1414e-04,-0.045
-3.1411e-04,-0.045
-3.1408e-04,-0.045
-3.1405e-04,-0.045
-3.1402e-04,-0.045
-3.1398e-04,-0.045
-3.1395e-04,-0.045
-3.1392e-04,0.015
-3.1389e-04,-0.045
-3.1386e-04,-0.045
-3.1382e-04,-0.045
-3.1379e-04,-0.045
-3.1376e-04,-0.045
-3.1373e-04,-0.045
-3.1370e-04,-0.045
-3.1366e-04,-0.045
-3.1363e-04,-0.045
-3.1360e-04,-0.045
-3.1357e-04,-0.045
-3.1354e-04,-0.045
-3.1350e-04,-0.045
-3.1347e-04,0.015
-3.1344e-04,-0.045
-3.1341e-04,-0.045
-3.1338e-04,-0.045
-3.1334e-04,-0.045
-3.1331e-04,-0.045
-3.1328e-04,-0.045
-3.1325e-04,0.015
-3.1322e-04,-0.045
-3.1318e-04,-0.045
-3.1315e-04,-0.045
-3.1312e-04,-0.045
-3.1309e-04,-0.045
-3.1306e-04,-0.045
-3.1302e-04,-0.045
-3.1299e-04,-0.045
-3.1296e-04,-0.045
-3.1293e-04,-0.045
-3.1290e-04,0.015
-3.1286e-04,-0.045
-3.1283e-04,-0.045
-3.1280e-04,0.015
-3.1277e-04,-0.045
-3.1274e-04,-0.045
-3.1270e-04,0.015
-3.1267e-04,0.015
-3.1264e-04,-0.045
-3.1261e-04,0.015
-3.1258e-04,-0.045
-3.1254e-04,-0.045
-3.1251e-04,-0.045
-3.1248e-04,0.015
-3.1245e-04,-0.045
-3.1242e-04,-0.045
-3.1238e-04,-0.045
-3.1235e-04,0.015
-3.1232e-04,0.015
-3.1229e-04,-0.045
-3.1226e-04,-0.045
-3.1222e-04,-0.045
-3.1219e-04,-0.045
-3.1216e-04,-0.045
-3.1213e-04,-0.045
-3.1210e-04,0.015
-3.1206e-04,-0.045
-3.1203e-04,0.015
-3.1200e-04,0.015
-3.1197e-04,-0.045
-3.1194e-04,-0.045
-3.1190e-04,-0.045
-3.1187e-04,0.015
-3.1184e-04,0.015
-3.1181e-04,-0.045
-3.1178e-04,0.015
-3.1174e-04,0.015
-3.1171e-04,-0.045
-3.1168e-04,-0.045
-3.1165e-04,0.015
-3.1162e-04,-0.045
-3.1158e-04,0.015
-3.1155e-04,-0.045
-3.1152e-04,-0.045
-3.1149e-04,-0.045
-3.1146e-04,-0.045
-3.1142e-04,0.015
-3.1139e-04,0.015
-3.1136e-04,-0.045
-3.1133e-04,0.015
-3.1130e-04,-0.045
-3.1126e-04,0.015
-3.1123e-04,0.015
-3.1120e-04,-0.045
-3.1117e-04,-0.045
-3.1114e-04,-0.045
-3.1110e-04,0.015
-3.1107e-04,0.015
-3.1104e-04,-0.045
-3.1101e-04,-0.045
-3.1098e-04,0.015
-3.1094e-04,0.015
-3.1091e-04,0.015
-3.1088e-04,0.015
-3.1085e-04,-0.045
-3.1082e-04,-0.045
-3.1078e-04,0.015
-3.1075e-04,-0.045
-3.1072e-04,-0.045
-3.1069e-04,-0.045
-3.1066e-04,-0.045
-3.1062e-04,-0.045
-3.1059e-04,0.015
-3.1056e-04,-0.045
-3.1053e-04,0.015
-3.1050e-04,0.015
-3.1046e-04,0.015
-3.1043e-04,0.015
-3.1040e-04,0.015
-3.1037e-04,-0.045
-3.1034e-04,0.015
-3.1030e-04,-0.045
-3.1027e-04,-0.045
-3.1024e-04,-0.045
-3.1021e-04,0.015
-3.1018e-04,0.015
-3.1014e-04,0.015
-3.1011e-04,-0.045
-3.1008e-04,0.015
-3.1005e-04,-0.045
-3.1002e-04,-0.045
-3.0998e-04,-0.045
-3.0995e-04,0.015
-3.0992e-04,0.015
-3.0989e-04,0.015
-3.0986e-04,-0.045
-3.0982e-04,-0.045
-3.0979e-04,-0.045
-3.0976e-04,-0.045
-3.0973e-04,0.015
-3.0970e-04,-0.045
-3.0966e-04,0.015
-3.0963e-04,-0.045
-3.0960e-04,-0.045
-3.0957e-04,0.015
-3.0954e-04,-0.045
-3.0950e-04,-0.045
-3.0947e-04,-0.045
-3.0944e-04,-0.045
-3.0941e-04,0.015
-3.0938e-04,0.015
-3.0934e-04,-0.045
-3.0931e-04,-0.045
-3.0928e-04,0.015
-3.0925e-04,0.015
-3.0922e-04,0.015
-3.0918e-04,-0.045
-3.0915e-04,-0.045
-3.0912e-04,0.015
-3.0909e-04,0.015
-3.0906e-04,-0.045
-3.0902e-04,-0.045
-3.0899e-04,-0.045
-3.0896e-04,-0.045
-3.0893e-04,0.015
-3.0890e-04,0.015
-3.0886e-04,0.015
-3.0883e-04,0.015
-3.0880e-04,0.255
-3.0877e-04,1.275
-3.0874e-04,2.175
-3.0870e-04,3.375
-3.0867e-04,4.275
-3.0864e-04,5.055
-3.0861e-04,5.055
-3.0858e-04,5.055
-3.0854e-04,5.055
-3.0851e-04,5.055
-3.0848e-04,5.055
-3.0845e-04,5.055
-3.0842e-04,5.055
-3.0838e-04,5.055
-3.0835e-04,5.055
-3.0832e-04,5.055
-3.0829e-04,5.055
-3.0826e-04,5.055
-3.0822e-04,5.055
-3.0819e-04,5.055
-3.0816e-04,5.055
-3.0813e-04,5.055
-3.0810e-04,5.055
-3.0806e-04,5.055
-3.0803e-04,5.055
-3.0800e-04,5.055
-3.0797e-04,5.055
-3.0794e-04,5.055
-3.0790e-04,5.055
-3.0787e-04,5.055
-3.0784e-04,5.055
-3.0781e-04,5.055
-3.0778e-04,5.055
-3.0774e-04,5.055
-3.0771e-04,5.055
-3.0768e-04,5.055
-3.0765e-04,5.055
-3.0762e-04,5.055
-3.0758e-04,5.055
-3.0755e-04,5.055
-3.0752e-04,5.055
-3.0749e-04,5.055
-3.0746e-04,4.995
-3.0742e-04,5.055
-3.0739e-04,5.055
-3.0736e-04,5.055
-3.0733e-04,5.055
-3.0730e-04,5.055
-3.0726e-04,5.055
-3.0723e-04,5.055
-3.0720e-04,4.335
-3.0717e-04,3.375
-3.0714e-04,2.235
-3.0710e-04,1.275
-3.0707e-04,0.315
-3.0704e-04,-0.045
-3.0701e-04,-0.045
-3.0698e-04,-0.045
-3.0694e-04,-0.045
-3.0691e-04,-0.045
-3.0688e-04,-0.045
-3.0685e-04,-0.045
-3.0682e-04,-0.045
-3.0678e-04,-0.045
-3.0675e-04,-0.045
-3.0672e-04,-0.045
-3.0669e-04,-0.045
-3.0666e-04,0.015
-3.0662e-04,-0.045
-3.0659e-04,-0.045
-3.0656e-04,-0.045
-3.0653e-04,-0.045
-3.0650e-04,-0.045
-3.0646e-04,-0.045
-3.0643e-04,-0.045
-3.0640e-04,-0.045
-3.0637e-04,-0.045
-3.0634e-04,-0.045
-3.0630e-04,0.015
-3.0627e-04,-0.045
-3.0624e-04,-0.045
-3.0621e-04,-0.045
-3.0618e-04,-0.045
-3.0614e-04,-0.045
-3.0611e-04,0.015
-3.0608e-04,-0.045
-3.0605e-04,0.015
-3.0602e-04,-0.045
-3.0598e-04,-0.045
-3.0595e-04,-0.045
-3.0592e-04,0.015
-3.0589e-04,0.015
-3.0586e-04,-0.045
-3.0582e-04,0.015
-3.0579e-04,0.015
-3.0576e-04,0.015
-3.0573e-04,-0.045
-3.0570e-04,0.015
-3.0566e-04,-0.045
-3.0563e-04,-0.045
-3.0560e-04,-0.045
-3.0557e-04,-0.045
-3.0554e-04,-0.045
-3.0550e-04,-0.045
-3.0547e-04,-0.045
-3.0544e-04,-0.045
-3.0541e-04,-0.045
-3.0538e-04,-0.045
-3.0534e-04,-0.045
-3.0531e-04,-0.045
-3.0528e-04,-0.045
-3.0525e-04,0.015
-3.0522e-04,-0.045
-3.0518e-04,-0.045
-3.0515e-04,0.015
-3.0512e-04,0.015
-3.0509e-04,-0.045
-3.0506e-04,-0.045
-3.0502e-04,-0.045
-3.0499e-04,-0.045
-3.0496e-04,0.015
-3.0493e-04,0.015
-3.0490e-04,-0.045
-3.0486e-04,0.015
-3.0483e-04,0.015
-3.0480e-04,0.015
-3.0477e-04,0.015
-3.0474e-04,-0.045
-3.0470e-04,-0.045
-3.0467e-04,-0.045
-3.0464e-04,0.015
-3.0461e-04,-0.045
-3.0458e-04,-0.045
-3.0454e-04,-0.045
-3.0451e-04,-0.045
-3.0448e-04,-0.045
-3.0445e-04,-0.045
-3.0442e-04,-0.045
-3.0438e-04,0.015
-3.0435e-04,-0.045
-3.0432e-04,0.015
-3.0429e-04,-0.045
-3.0426e-04,-0.045
-3.0422e-04,-0.045
-3.0419e-04,-0.045
-3.0416e-04,-0.045
-3.0413e-04,-0.045
-3.0410e-04,0.015
-3.0406e-04,0.015
-3.0403e-04,-0.045
-3.0400e-04,0.015
-3.0397e-04,-0.045
-3.0394e-04,0.015
-3.0390e-04,-0.045
-3.0387e-04,0.015
-3.0384e-04,-0.045
-3.0381e-04,0.015
-3.0378e-04,0.015
-3.0374e-04,0.015
-3.0371e-04,-0.045
-3.0368e-04,-0.045
-3.0365e-04,0.015
-3.0362e-04,0.015
-3.0358e-04,-0.045
-3.0355e-04,-0.045
-3.0352e-04,0.015
-3.0349e-04,-0.045
-3.0346e-04,0.015
-3.0342e-04,0.015
-3.0339e-04,-0.045
-3.0336e-04,-0.045
-3.0333e-04,0.015
-3.0330e-04,-0.045
-3.0326e-04,-0.045
-3.0323e-04,-0.045
-3.0320e-04,0.015
-3.0317e-04,-0.045
-3.0314e-04,0.015
-3.0310e-04,0.015
-3.0307e-04,0.015
-3.0304e-04,0.015
-3.0301e-04,-0.045
-3.0298e-04,0.015
-3.0294e-04,-0.045
-3.0291e-04,-0.045
-3.0288e-04,0.015
-3.0285e-04,0.015
-3.0282e-04,0.015
-3.0278e-04,-0.045
-3.0275e-04,0.015
-3.0272e-04,0.015
-3.0269e-04,0.015
-3.0266e-04,0.015
-3.0262e-04,-0.045
-3.0259e-04,0.015
-3.0256e-04,0.015
-3.0253e-04,-0.045
-3.0250e-04,-0.045
-3.0246e-04,-0.045
-3.0243e-04,-0.045
-3.0240e-04,-0.045
-3.0237e-04,0.015
-3.0234e-04,0.015
-3.0230e-04,-0.045
-3.0227e-04,-0.045
-3.0224e-04,-0.045
-3.0221e-04,0.015
-3.0218e-04,0.015
-3.0214e-04,0.015
-3.0211e-04,0.015
-3.0208e-04,-0.045
-3.0205e-04,0.015
-3.0202e-04,0.015
-3.0198e-04,0.015
-3.0195e-04,0.015
-3.0192e-04,0.015
-3.0189e-04,0.015
-3.0186e-04,0.015
-3.0182e-04,-0.045
-3.0179e-04,0.015
-3.0176e-04,0.015
-3.0173e-04,0.015
-3.0170e-04,-0.045
-3.0166e-04,-0.045
-3.0163e-04,0.015
-3.0160e-04,0.015
-3.0157e-04,0.015
-3.0154e-04,0.015
-3.0150e-04,0.015
-3.0147e-04,0.015
-3.0144e-04,0.015
-3.0141e-04,0.015
-3.0138e-04,0.015
-3.0134e-04,0.015
-3.0131e-04,0.015
-3.0128e-04,-0.045
-3.0125e-04,0.015
-3.0122e-04,-0.045
-3.0118e-04,0.015
-3.0115e-04,-0.045
-3.0112e-04,0.015
-3.0109e-04,0.015
-3.0106e-04,-0.045
-3.0102e-04,0.015
-3.0099e-04,-0.045
-3.0096e-04,0.015
-3.0093e-04,-0.045
-3.0090e-04,-0.045
-3.0086e-04,0.015
-3.0083e-04,-0.045
-3.0080e-04,-0.045
-3.0077e-04,-0.045
-3.0074e-04,-0.045
-3.0070e-04,-0.045
-3.0067e-04,-0.045
-3.0064e-04,0.015
-3.0061e-04,0.015
-3.0058e-04,-0.045
-3.0054e-04,-0.045
-3.0051e-04,-0.045
-3.0048e-04,-0.045
-3.0045e-04,0.015
-3.0042e-04,0.015
-3.0038e-04,0.015
-3.0035e-04,0.015
-3.0032e-04,0.015
-3.0029e-04,0.015
-3.0026e-04,0.015
-3.0022e-04,0.015
-3.0019e-04,-0.045
-3.0016e-04,-0.045
-3.0013e-04,0.015
-3.0010e-04,0.015
-3.0006e-04,0.015
-3.0003e-04,-0.045
-3.0000e-04,0.015
-2.9997e-04,0.015
-2.9994e-04,0.015
-2.9990e-04,-0.045
-2.9987e-04,-0.045
-2.9984e-04,0.015
-2.9981e-04,-0.045
-2.9978e-04,0.015
-2.9974e-04,-0.045
-2.9971e-04,0.015
-2.9968e-04,-0.045
-2.9965e-04,0.015
-2.9962e-04,0.015
-2.9958e-04,0.015
-2.9955e-04,0.015
-2.9952e-04,-0.045
-2.9949e-04,-0.045
-2.9946e-04,-0.045
-2.9942e-04,0.015
-2.9939e-04,0.015
-2.9936e-04,-0.045
-2.9933e-04,-0.045
-2.9930e-04,0.015
-2.9926e-04,0.795
-2.9923e-04,1.695
-2.9920e-04,2.655
-2.9917e-04,3.795
-2.9914e-04,4.755
-2.9910e-04,5.055
-2.9907e-04,5.055
-2.9904e-04,5.055
-2.9901e-04,5.055
-2.9898e-04,5.055
-2.9894e-04,5.055
-2.9891e-04,5.055
-2.9888e-04,5.055
-2.9885e-04,5.055
-2.9882e-04,5.055
-2.9878e-04,5.055
-2.9875e-04,5.055
-2.9872e-04,5.055
-2.9869e-04,5.055
-2.9866e-04,5.055
-2.9862e-04,5.055
-2.9859e-04,5.055
-2.9856e-04,5.055
-2.9853e-04,5.055
-2.9850e-04,5.055
-2.9846e-04,5.055
-2.9843e-04,5.055
-2.9840e-04,5.055
-2.9837e-04,5.055
-2.9834e-04,5.055
-2.9830e-04,5.055
-2.9827e-04,5.055
-2.9824e-04,5.055
-2.9821e-04,5.055
-2.9818e-04,5.055
-2.9814e-04,5.055
-2.9811e-04,5.055
-2.9808e-04,5.055
-2.9805e-04,5.055
-2.9802e-04,5.055
-2.9798e-04,5.055
-2.9795e-04,5.055
-2.9792e-04,5.055
-2.9789e-04,5.055
-2.9786e-04,5.055
-2.9782e-04,5.055
-2.9779e-04,5.055
-2.9776e-04,5.055
-2.9773e-04,5.055
-2.9770e-04,5.055
-2.9766e-04,5.055
-2.9763e-04,5.055
-2.9760e-04,5.055
-2.9757e-04,5.055
-2.9754e-04,5.055
-2.9750e-04,5.055
-2.9747e-04,5.055
-2.9744e-04,5.055
-2.9741e-04,5.055
-2.9738e-04,5.055
-2.9734e-04,5.055
-2.9731e-04,5.055
-2.9728e-04,5.055
-2.9725e-04,5.055
-2.9722e-04,5.055
-2.9718e-04,5.055
-2.9715e-04,5.055
-2.9712e-04,5.055
-2.9709e-04,5.055
-2.9706e-04,5.055
-2.9702e-04,5.055
-2.9699e-04,5.055
-2.9696e-04,5.055
-2.9693e-04,5.055
-2.9690e-04,5.055
-2.9686e-04,5.055
-2.9683e-04,5.055
-2.9680e-04,5.055
-2.9677e-04,5.055
-2.9674e-04,5.055
-2.9670e-04,5.055
-2.9667e-04,5.055
-2.9664e-04,5.055
-2.9661e-04,5.055
-2.9658e-04,5.055
-2.9654e-04,5.055
-2.9651e-04,5.055
-2.9648e-04,5.055
-2.9645e-04,5.055
-2.9642e-04,5.055
-2.9638e-04,5.055
-2.9635e-04,5.055
-2.9632e-04,5.055
-2.9629e-04,5.055
-2.9626e-04,5.055
-2.9622e-04,5.055
-2.9619e-04,5.055
-2.9616e-04,5.055
-2.9613e-04,5.055
-2.9610e-04,5.055
-2.9606e-04,5.055
-2.9603e-04,5.055
-2.9600e-04,5.055
-2.9597e-04,5.055
-2.9594e-04,4.995
-2.9590e-04,5.055
-2.9587e-04,5.055
-2.9584e-04,5.055
-2.9581e-04,5.055
-2.9578e-04,5.055
-2.9574e-04,5.055
-2.9571e-04,5.055
-2.9568e-04,5.055
-2.9565e-04,5.055
-2.9562e-04,5.055
-2.9558e-04,5.055
-2.9555e-04,5.055
-2.9552e-04,5.055
-2.9549e-04,5.055
-2.9546e-04,5.055
-2.9542e-04,5.055
-2.9539e-04,5.055
-2.9536e-04,5.055
-2.9533e-04,5.055
-2.9530e-04,5.055
-2.9526e-04,5.055
-2.9523e-04,5.055
-2.9520e-04,5.055
-2.9517e-04,5.055
-2.9514e-04,5.055
-2.9510e-04,5.055
-2.9507e-04,5.055
-2.9504e-04,5.055
-2.9501e-04,5.055
-2.9498e-04,5.055
-2.9494e-04,4.995
-2.9491e-04,5.055
-2.9488e-04,5.055
-2.9485e-04,5.055
-2.9482e-04,5.055
-2.9478e-04,5.055
-2.9475e-04,5.055
-2.9472e-04,5.055
-2.9469e-04,5.055
-2.9466e-04,5.055
-2.9462e-04,5.055
-2.9459e-04,5.055
-2.9456e-04,5.055
-2.9453e-04,5.055
-2.9450e-04,5.055
-2.9446e-04,5.055
-2.9443e-04,5.055
-2.9440e-04,5.055
-2.9437e-04,4.995
-2.9434e-04,5.055
-2.9430e-04,5.055
-2.9427e-04,5.055
-2.9424e-04,5.055
-2.9421e-04,5.055
-2.9418e-04,5.055
-2.9414e-04,5.055
-2.9411e-04,5.055
-2.9408e-04,5.055
-2.9405e-04,5.055
-2.9402e-04,4.995
-2.9398e-04,5.055
-2.9395e-04,5.055
-2.9392e-04,5.055
-2.9389e-04,5.055
-2.9386e-04,5.055
-2.9382e-04,5.055
-2.9379e-04,5.055
-2.9376e-04,5.055
-2.9373e-04,5.055
-2.9370e-04,4.995
-2.9366e-04,5.055
-2.9363e-04,5.055
-2.9360e-04,5.055
-2.9357e-04,5.055
-2.9354e-04,5.055
-2.9350e-04,4.995
-2.9347e-04,4.995
-2.9344e-04,5.055
-2.9341e-04,5.055
-2.9338e-04,5.055
-2.9334e-04,5.055
-2.9331e-04,5.055
-2.9328e-04,5.055
-2.9325e-04,5.055
-2.9322e-04,5.055
-2.9318e-04,5.055
-2.9315e-04,5.055
-2.9312e-04,5.055
-2.9309e-04,5.055
-2.9306e-04,5.055
-2.9302e-04,5.055
-2.9299e-04,5.055
-2.9296e-04,5.055
-2.9293e-04,5.055
-2.9290e-04,5.055
-2.9286e-04,5.055
-2.9283e-04,5.055
-2.9280e-04,5.055
-2.9277e-04,5.055
-2.9274e-04,5.055
-2.9270e-04,5.055
-2.9267e-04,5.055
-2.9264e-04,5.055
-2.9261e-04,5.055
-2.9258e-04,5.055
-2.9254e-04,5.055
-2.9251e-04,5.055
-2.9248e-04,5.055
-2.9245e-04,5.055
-2.9242e-04,5.055
-2.9238e-04,5.055
-2.9235e-04,5.055
-2.9232e-04,5.055
-2.9229e-04,4.995
-2.9226e-04,4.995
-2.9222e-04,5.055
-2.9219e-04,5.055
-2.9216e-04,5.055
-2.9213e-04,5.055
-2.9210e-04,5.055
-2.9206e-04,4.995
-2.9203e-04,4.995
-2.9200e-04,4.995
-2.9197e-04,5.055
-2.9194e-04,5.055
-2.9190e-04,5.055
-2.9187e-04,5.055
-2.9184e-04,5.055
-2.9181e-04,5.055
-2.9178e-04,5.055
-2.9174e-04,5.055
-2.9171e-04,5.055
-2.9168e-04,5.055
-2.9165e-04,5.055
-2.9162e-04,4.995
-2.9158e-04,5.055
-2.9155e-04,5.055
-2.9152e-04,5.055
-2.9149e-04,5.055
-2.9146e-04,5.055
-2.9142e-04,5.055
-2.9139e-04,5.055
-2.9136e-04,5.055
-2.9133e-04,5.055
-2.9130e-04,5.055
-2.9126e-04,4.995
-2.9123e-04,5.055
-2.9120e-04,5.055
-2.9117e-04,5.055
-2.9114e-04,5.055
-2.9110e-04,5.055
-2.9107e-04,5.055
-2.9104e-04,4.995
-2.9101e-04,5.055
-2.9098e-04,4.995
-2.9094e-04,4.995
-2.9091e-04,5.055
-2.9088e-04,5.055
-2.9085e-04,5.055
-2.9082e-04,4.995
-2.9078e-04,5.055
-2.9075e-04,4.995
-2.9072e-04,5.055
-2.9069e-04,5.055
-2.9066e-04,4.995
-2.9062e-04,5.055
-2.9059e-04,5.055
-2.9056e-04,5.055
-2.9053e-04,5.055
-2.9050e-04,5.055
-2.9046e-04,5.055
-2.9043e-04,5.055
-2.9040e-04,5.055
-2.9037e-04,5.055
-2.9034e-04,5.055
-2.9030e-04,5.055
-2.9027e-04,5.055
-2.9024e-04,5.055
-2.9021e-04,5.055
-2.9018e-04,5.055
-2.9014e-04,5.055
-2.9011e-04,5.055
-2.9008e-04,5.055
-2.9005e-04,5.055
-2.9002e-04,5.055
-2.8998e-04,5.055
-2.8995e-04,4.995
-2.8992e-04,5.055
-2.8989e-04,5.055
-2.8986e-04,4.995
-2.8982e-04,5.055
-2.8979e-04,5.055
-2.8976e-04,4.995
-2.8973e-04,3.975
-2.8970e-04,2.955
-2.8966e-04,1.995
-2.8963e-04,0.915
-2.8960e-04,-0.045
-2.8957e-04,-0.045
-2.8954e-04,-0.045
-2.8950e-04,-0.045
-2.8947e-04,-0.045
-2.8944e-04,-0.045
-2.8941e-04,-0.045
-2.8938e-04,-0.045
-2.8934e-04,-0.105
-2.8931e-04,-0.045
-2.8928e-04,-0.045
-2.8925e-04,-0.045
-2.8922e-04,-0.045
-2.8918e-04,-0.045
-2.8915e-04,-0.045
-2.8912e-04,-0.045
-2.8909e-04,-0.045
-2.8906e-04,-0.045
-2.8902e-04,-0.045
-2.8899e-04,-0.045
-2.8896e-04,-0.045
-2.8893e-04,-0.045
-2.8890e-04,-0.045
-2.8886e-04,-0.045
-2.8883e-04,-0.045
-2.8880e-04,-0.045
-2.8877e-04,-0.045
-2.8874e-04,-0.045
-2.8870e-04,-0.045
-2.8867e-04,-0.045
-2.8864e-04,-0.045
-2.8861e-04,-0.045
-2.8858e-04,-0.045
-2.8854e-04,-0.045
-2.8851e-04,-0.045
-2.8848e-04,-0.045
-2.8845e-04,-0.045
-2.8842e-04,-0.045
-2.8838e-04,-0.045
-2.8835e-04,-0.045
-2.8832e-04,-0.045
-2.8829e-04,-0.045
-2.8826e-04,-0.045
-2.8822e-04,-0.045
-2.8819e-04,-0.045
-2.8816e-04,0.315
-2.8813e-04,1.455
-2.8810e-04,2.355
-2.8806e-04,3.495
-2.8803e-04,4.515
-2.8800e-04,5.055
-2.8797e-04,5.055
-2.8794e-04,5.055
-2.8790e-04,5.055
-2.8787e-04,5.055
-2.8784e-04,5.055
-2.8781e-04,5.055
-2.8778e-04,5.055
-2.8774e-04,5.055
-2.8771e-04,5.055
-2.8768e-04,5.055
-2.8765e-04,5.055
-2.8762e-04,5.055
-2.8758e-04,5.055
-2.8755e-04,5.055
-2.8752e-04,5.055
-2.8749e-04,5.055
-2.8746e-04,5.055
-2.8742e-04,5.055
-2.8739e-04,5.055
-2.8736e-04,5.055
-2.8733e-04,5.055
-2.8730e-04,5.055
-2.8726e-04,5.055
-2.8723e-04,5.055
-2.8720e-04,5.055
-2.8717e-04,5.055
-2.8714e-04,5.055
-2.8710e-04,5.055
-2.8707e-04,5.055
-2.8704e-04,5.055
-2.8701e-04,5.055
-2.8698e-04,5.055
-2.8694e-04,5.055
-2.8691e-04,5.055
-2.8688e-04,5.055
-2.8685e-04,5.055
-2.8682e-04,5.055
-2.8678e-04,5.055
-2.8675e-04,5.055
-2.8672e-04,5.055
-2.8669e-04,5.055
-2.8666e-04,5.055
-2.8662e-04,5.055
-2.8659e-04,5.055
-2.8656e-04,4.275
-2.8653e-04,3.135
-2.8650e-04,2.175
-2.8646e-04,1.035
-2.8643e-04,0.135
-2.8640e-04,-0.045
-2.8637e-04,-0.045
-2.8634e-04,-0.045
-2.8630e-04,-0.045
-2.8627e-04,-0.045
-2.8624e-04,-0.045
-2.8621e-04,-0.045
-2.8618e-04,-0.045
-2.8614e-04,-0.045
-2.8611e-04,-0.045
-2.8608e-04,-0.045
-2.8605e-04,-0.045
-2.8602e-04,-0.045
-2.8598e-04,-0.045
-2.8595e-04,-0.045
-2.8592e-04,-0.045
-2.8589e-04,-0.045
-2.8586e-04,-0.045
-2.8582e-04,-0.045
-2.8579e-04,-0.045
-2.8576e-04,-0.045
-2.8573e-04,-0.045
-2.8570e-04,-0.045
-2.8566e-04,0.015
