expt2025/半導体レーザ/data/3-1_1_100Hz.CSV

Model,TBS1052C
Firmware Version,v2015-08-04-prequal4ch70_v1.3
,
Point Format,Y
Horizontal Units,S
Horizontal Scale,0.004
Sample Interval,3.20E-06
Filter Frequency,2.00E+08
Record Length,20000
Gating,0.0% to 100.0%
Probe Attenuation,10
Vertical Units,V
Vertical Offset,0
Vertical Scale,1.5
Label,
TIME,CH1
-3.20E-02,0.015
-3.20E-02,-0.045
-3.20E-02,-0.045
-3.20E-02,0.015
-3.20E-02,0.015
-3.20E-02,-0.045
-3.20E-02,-0.045
-3.20E-02,-0.045
-3.20E-02,-0.045
-3.20E-02,-0.045
-3.20E-02,-0.045
-3.20E-02,-0.045
-3.20E-02,-0.045
-3.20E-02,-0.045
-3.20E-02,-0.045
-3.20E-02,0.015
-3.19E-02,0.015
-3.19E-02,0.015
-3.19E-02,-0.045
-3.19E-02,-0.045
-3.19E-02,0.015
-3.19E-02,0.015
-3.19E-02,-0.045
-3.19E-02,-0.045
-3.19E-02,-0.045
-3.19E-02,0.015
-3.19E-02,0.015
-3.19E-02,0.015
-3.19E-02,-0.045
-3.19E-02,-0.045
-3.19E-02,-0.045
-3.19E-02,0.015
-3.19E-02,0.015
-3.19E-02,0.015
-3.19E-02,0.015
-3.19E-02,0.015
-3.19E-02,0.015
-3.19E-02,-0.045
-3.19E-02,0.015
-3.19E-02,0.015
-3.19E-02,-0.045
-3.19E-02,0.015
-3.19E-02,0.015
-3.19E-02,0.015
-3.19E-02,-0.045
-3.19E-02,-0.045
-3.19E-02,0.015
-3.19E-02,0.015
-3.18E-02,-0.045
-3.18E-02,-0.045
-3.18E-02,0.015
-3.18E-02,-0.045
-3.18E-02,-0.045
-3.18E-02,-0.045
-3.18E-02,0.015
-3.18E-02,0.735
-3.18E-02,1.755
-3.18E-02,2.715
-3.18E-02,3.855
-3.18E-02,4.875
-3.18E-02,5.055
-3.18E-02,5.055
-3.18E-02,5.055
-3.18E-02,5.055
-3.18E-02,5.055
-3.18E-02,5.055
-3.18E-02,5.055
-3.18E-02,5.055
-3.18E-02,5.055
-3.18E-02,5.055
-3.18E-02,5.055
-3.18E-02,5.055
-3.18E-02,5.055
-3.18E-02,5.055
-3.18E-02,5.055
-3.18E-02,5.055
-3.18E-02,5.055
-3.18E-02,5.055
-3.18E-02,5.055
-3.17E-02,5.055
-3.17E-02,5.055
-3.17E-02,5.055
-3.17E-02,5.055
-3.17E-02,5.055
-3.17E-02,5.055
-3.17E-02,5.055
-3.17E-02,5.055
-3.17E-02,5.055
-3.17E-02,5.055
-3.17E-02,5.055
-3.17E-02,5.055
-3.17E-02,5.055
-3.17E-02,5.055
-3.17E-02,5.055
-3.17E-02,5.055
-3.17E-02,4.995
-3.17E-02,5.055
-3.17E-02,5.055
-3.17E-02,5.055
-3.17E-02,5.055
-3.17E-02,5.055
-3.17E-02,5.055
-3.17E-02,5.055
-3.17E-02,5.055
-3.17E-02,5.055
-3.17E-02,5.055
-3.17E-02,5.055
-3.17E-02,5.055
-3.17E-02,5.055
-3.17E-02,5.055
-3.16E-02,5.055
-3.16E-02,5.055
-3.16E-02,5.055
-3.16E-02,5.055
-3.16E-02,5.055
-3.16E-02,5.055
-3.16E-02,5.055
-3.16E-02,5.055
-3.16E-02,5.055
-3.16E-02,5.055
-3.16E-02,5.055
-3.16E-02,5.055
-3.16E-02,5.055
-3.16E-02,5.055
-3.16E-02,5.055
-3.16E-02,5.055
-3.16E-02,5.055
-3.16E-02,5.055
-3.16E-02,5.055
-3.16E-02,5.055
-3.16E-02,5.055
-3.16E-02,5.055
-3.16E-02,5.055
-3.16E-02,5.055
-3.16E-02,5.055
-3.16E-02,5.055
-3.16E-02,5.055
-3.16E-02,5.055
-3.16E-02,5.055
-3.16E-02,5.055
-3.16E-02,5.055
-3.15E-02,5.055
-3.15E-02,5.055
-3.15E-02,5.055
-3.15E-02,5.055
-3.15E-02,5.055
-3.15E-02,5.055
-3.15E-02,5.055
-3.15E-02,5.055
-3.15E-02,5.055
-3.15E-02,5.055
-3.15E-02,5.055
-3.15E-02,5.055
-3.15E-02,5.055
-3.15E-02,4.455
-3.15E-02,3.495
-3.15E-02,2.295
-3.15E-02,1.335
-3.15E-02,0.375
-3.15E-02,0.015
-3.15E-02,0.015
-3.15E-02,0.015
-3.15E-02,0.015
-3.15E-02,0.015
-3.15E-02,0.015
-3.15E-02,-0.045
-3.15E-02,0.015
-3.15E-02,0.015
-3.15E-02,0.015
-3.15E-02,0.015
-3.15E-02,0.015
-3.15E-02,-0.045
-3.15E-02,-0.045
-3.14E-02,0.015
-3.14E-02,0.015
-3.14E-02,-0.045
-3.14E-02,0.015
-3.14E-02,0.015
-3.14E-02,-0.045
-3.14E-02,-0.045
-3.14E-02,-0.045
-3.14E-02,0.015
-3.14E-02,-0.045
-3.14E-02,0.015
-3.14E-02,-0.045
-3.14E-02,-0.045
-3.14E-02,-0.045
-3.14E-02,0.015
-3.14E-02,0.015
-3.14E-02,-0.045
-3.14E-02,0.015
-3.14E-02,-0.045
-3.14E-02,-0.045
-3.14E-02,-0.045
-3.14E-02,0.015
-3.14E-02,0.015
-3.14E-02,0.015
-3.14E-02,0.015
-3.14E-02,0.015
-3.14E-02,0.015
-3.14E-02,-0.045
-3.14E-02,-0.045
-3.14E-02,0.015
-3.14E-02,-0.045
-3.13E-02,-0.045
-3.13E-02,0.015
-3.13E-02,-0.045
-3.13E-02,-0.045
-3.13E-02,0.015
-3.13E-02,-0.045
-3.13E-02,-0.045
-3.13E-02,-0.045
-3.13E-02,0.015
-3.13E-02,-0.045
-3.13E-02,0.015
-3.13E-02,0.015
-3.13E-02,0.015
-3.13E-02,-0.045
-3.13E-02,0.015
-3.13E-02,0.015
-3.13E-02,-0.045
-3.13E-02,0.015
-3.13E-02,-0.045
-3.13E-02,-0.045
-3.13E-02,-0.045
-3.13E-02,-0.045
-3.13E-02,0.015
-3.13E-02,0.015
-3.13E-02,0.015
-3.13E-02,0.015
-3.13E-02,-0.045
-3.13E-02,0.015
-3.13E-02,-0.045
-3.13E-02,-0.045
-3.13E-02,-0.045
-3.12E-02,-0.045
-3.12E-02,0.015
-3.12E-02,-0.045
-3.12E-02,-0.045
-3.12E-02,0.015
-3.12E-02,-0.045
-3.12E-02,-0.045
-3.12E-02,0.015
-3.12E-02,-0.045
-3.12E-02,0.015
-3.12E-02,0.015
-3.12E-02,0.015
-3.12E-02,0.015
-3.12E-02,0.015
-3.12E-02,0.015
-3.12E-02,-0.045
-3.12E-02,-0.045
-3.12E-02,-0.045
-3.12E-02,-0.045
-3.12E-02,-0.045
-3.12E-02,0.015
-3.12E-02,0.015
-3.12E-02,-0.045
-3.12E-02,0.015
-3.12E-02,0.015
-3.12E-02,-0.045
-3.12E-02,-0.045
-3.12E-02,-0.045
-3.12E-02,-0.045
-3.12E-02,-0.045
-3.12E-02,0.015
-3.11E-02,-0.045
-3.11E-02,0.015
-3.11E-02,0.015
-3.11E-02,-0.045
-3.11E-02,0.015
-3.11E-02,-0.045
-3.11E-02,-0.045
-3.11E-02,-0.045
-3.11E-02,0.015
-3.11E-02,0.015
-3.11E-02,-0.045
-3.11E-02,0.015
-3.11E-02,-0.045
-3.11E-02,0.015
-3.11E-02,0.015
-3.11E-02,-0.045
-3.11E-02,-0.045
-3.11E-02,-0.045
-3.11E-02,0.015
-3.11E-02,-0.045
-3.11E-02,-0.045
-3.11E-02,-0.045
-3.11E-02,-0.045
-3.11E-02,0.015
-3.11E-02,-0.045
-3.11E-02,-0.045
-3.11E-02,-0.045
-3.11E-02,-0.045
-3.11E-02,-0.045
-3.11E-02,0.015
-3.11E-02,-0.045
-3.11E-02,-0.045
-3.10E-02,0.015
-3.10E-02,-0.045
-3.10E-02,-0.045
-3.10E-02,-0.045
-3.10E-02,-0.045
-3.10E-02,-0.045
-3.10E-02,-0.045
-3.10E-02,-0.045
-3.10E-02,-0.045
-3.10E-02,-0.045
-3.10E-02,-0.045
-3.10E-02,0.015
-3.10E-02,0.015
-3.10E-02,-0.045
-3.10E-02,0.015
-3.10E-02,-0.045
-3.10E-02,-0.045
-3.10E-02,-0.045
-3.10E-02,-0.045
-3.10E-02,-0.045
-3.10E-02,0.015
-3.10E-02,-0.045
-3.10E-02,0.015
-3.10E-02,0.015
-3.10E-02,0.015
-3.10E-02,-0.045
-3.10E-02,-0.045
-3.10E-02,-0.045
-3.10E-02,-0.045
-3.10E-02,-0.045
-3.10E-02,-0.045
-3.09E-02,0.015
-3.09E-02,0.015
-3.09E-02,0.015
-3.09E-02,0.015
-3.09E-02,-0.045
-3.09E-02,0.015
-3.09E-02,-0.045
-3.09E-02,0.015
-3.09E-02,-0.045
-3.09E-02,-0.045
-3.09E-02,-0.045
-3.09E-02,0.015
-3.09E-02,0.015
-3.09E-02,-0.045
-3.09E-02,-0.045
-3.09E-02,-0.045
-3.09E-02,0.015
-3.09E-02,-0.045
-3.09E-02,0.015
-3.09E-02,-0.045
-3.09E-02,-0.045
-3.09E-02,-0.045
-3.09E-02,0.015
-3.09E-02,0.195
-3.09E-02,1.155
-3.09E-02,2.295
-3.09E-02,3.255
-3.09E-02,4.275
-3.09E-02,5.055
-3.09E-02,5.055
-3.09E-02,5.055
-3.08E-02,5.055
-3.08E-02,5.055
-3.08E-02,5.055
-3.08E-02,5.055
-3.08E-02,5.055
-3.08E-02,5.055
-3.08E-02,5.055
-3.08E-02,5.055
-3.08E-02,5.055
-3.08E-02,5.055
-3.08E-02,5.055
-3.08E-02,5.055
-3.08E-02,5.055
-3.08E-02,5.055
-3.08E-02,5.055
-3.08E-02,5.055
-3.08E-02,5.055
-3.08E-02,5.055
-3.08E-02,5.055
-3.08E-02,5.055
-3.08E-02,5.055
-3.08E-02,5.055
-3.08E-02,5.055
-3.08E-02,5.055
-3.08E-02,5.055
-3.08E-02,5.055
-3.08E-02,5.055
-3.08E-02,5.055
-3.08E-02,5.055
-3.08E-02,4.995
-3.08E-02,5.055
-3.07E-02,5.055
-3.07E-02,5.055
-3.07E-02,5.055
-3.07E-02,5.055
-3.07E-02,5.055
-3.07E-02,5.055
-3.07E-02,5.055
-3.07E-02,5.055
-3.07E-02,5.055
-3.07E-02,5.055
-3.07E-02,5.055
-3.07E-02,4.455
-3.07E-02,3.255
-3.07E-02,2.295
-3.07E-02,1.335
-3.07E-02,0.375
-3.07E-02,0.015
-3.07E-02,0.015
-3.07E-02,0.015
-3.07E-02,0.015
-3.07E-02,-0.045
-3.07E-02,-0.045
-3.07E-02,-0.045
-3.07E-02,0.015
-3.07E-02,-0.045
-3.07E-02,-0.045
-3.07E-02,-0.045
-3.07E-02,-0.045
-3.07E-02,0.015
-3.07E-02,-0.045
-3.07E-02,-0.045
-3.07E-02,-0.045
-3.06E-02,0.015
-3.06E-02,-0.045
-3.06E-02,-0.045
-3.06E-02,-0.045
-3.06E-02,-0.045
-3.06E-02,0.015
-3.06E-02,-0.045
-3.06E-02,-0.045
-3.06E-02,-0.045
-3.06E-02,-0.045
-3.06E-02,-0.045
-3.06E-02,-0.045
-3.06E-02,0.015
-3.06E-02,-0.045
-3.06E-02,-0.045
-3.06E-02,-0.045
-3.06E-02,-0.045
-3.06E-02,0.015
-3.06E-02,0.015
-3.06E-02,-0.045
-3.06E-02,-0.045
-3.06E-02,-0.045
-3.06E-02,-0.045
-3.06E-02,-0.045
-3.06E-02,-0.045
-3.06E-02,0.015
-3.06E-02,-0.045
-3.06E-02,-0.045
-3.06E-02,-0.045
-3.06E-02,-0.045
-3.06E-02,0.015
-3.05E-02,-0.045
-3.05E-02,-0.045
-3.05E-02,0.015
-3.05E-02,0.015
-3.05E-02,0.015
-3.05E-02,0.015
-3.05E-02,-0.045
-3.05E-02,-0.045
-3.05E-02,-0.045
-3.05E-02,0.015
-3.05E-02,-0.045
-3.05E-02,-0.045
-3.05E-02,-0.045
-3.05E-02,-0.045
-3.05E-02,-0.045
-3.05E-02,-0.045
-3.05E-02,0.015
-3.05E-02,0.015
-3.05E-02,-0.045
-3.05E-02,0.015
-3.05E-02,-0.045
-3.05E-02,-0.045
-3.05E-02,0.015
-3.05E-02,0.015
-3.05E-02,-0.045
-3.05E-02,0.015
-3.05E-02,0.015
-3.05E-02,-0.045
-3.05E-02,0.015
-3.05E-02,-0.045
-3.05E-02,0.015
-3.04E-02,-0.045
-3.04E-02,-0.045
-3.04E-02,0.015
-3.04E-02,0.015
-3.04E-02,-0.045
-3.04E-02,-0.045
-3.04E-02,-0.045
-3.04E-02,-0.045
-3.04E-02,0.015
-3.04E-02,-0.045
-3.04E-02,-0.045
-3.04E-02,-0.045
-3.04E-02,0.015
-3.04E-02,0.015
-3.04E-02,-0.045
-3.04E-02,-0.045
-3.04E-02,-0.045
-3.04E-02,0.015
-3.04E-02,-0.045
-3.04E-02,-0.045
-3.04E-02,0.015
-3.04E-02,-0.045
-3.04E-02,-0.045
-3.04E-02,-0.045
-3.04E-02,-0.045
-3.04E-02,-0.045
-3.04E-02,-0.045
-3.04E-02,-0.045
-3.04E-02,-0.045
-3.04E-02,-0.045
-3.04E-02,-0.045
-3.03E-02,0.015
-3.03E-02,-0.045
-3.03E-02,0.015
-3.03E-02,0.015
-3.03E-02,-0.045
-3.03E-02,0.015
-3.03E-02,-0.045
-3.03E-02,0.015
-3.03E-02,0.015
-3.03E-02,0.015
-3.03E-02,-0.045
-3.03E-02,-0.045
-3.03E-02,0.015
-3.03E-02,0.015
-3.03E-02,-0.045
-3.03E-02,-0.045
-3.03E-02,-0.045
-3.03E-02,0.015
-3.03E-02,0.015
-3.03E-02,0.015
-3.03E-02,0.015
-3.03E-02,-0.045
-3.03E-02,0.015
-3.03E-02,-0.045
-3.03E-02,-0.045
-3.03E-02,-0.045
-3.03E-02,-0.045
-3.03E-02,0.015
-3.03E-02,-0.045
-3.03E-02,0.015
-3.03E-02,-0.045
-3.03E-02,0.015
-3.02E-02,-0.045
-3.02E-02,-0.045
-3.02E-02,-0.045
-3.02E-02,-0.045
-3.02E-02,-0.045
-3.02E-02,-0.045
-3.02E-02,-0.045
-3.02E-02,-0.045
-3.02E-02,0.015
-3.02E-02,-0.045
-3.02E-02,-0.045
-3.02E-02,0.015
-3.02E-02,0.015
-3.02E-02,0.015
-3.02E-02,0.015
-3.02E-02,0.015
-3.02E-02,0.015
-3.02E-02,0.015
-3.02E-02,0.015
-3.02E-02,-0.045
-3.02E-02,-0.045
-3.02E-02,-0.045
-3.02E-02,-0.045
-3.02E-02,-0.045
-3.02E-02,-0.045
-3.02E-02,0.015
-3.02E-02,0.015
-3.02E-02,-0.045
-3.02E-02,0.015
-3.02E-02,-0.045
-3.02E-02,-0.045
-3.01E-02,-0.045
-3.01E-02,0.015
-3.01E-02,-0.045
-3.01E-02,-0.045
-3.01E-02,-0.045
-3.01E-02,-0.045
-3.01E-02,-0.045
-3.01E-02,-0.045
-3.01E-02,0.015
-3.01E-02,-0.045
-3.01E-02,-0.045
-3.01E-02,-0.045
-3.01E-02,0.015
-3.01E-02,-0.045
-3.01E-02,-0.045
-3.01E-02,0.015
-3.01E-02,0.015
-3.01E-02,-0.045
-3.01E-02,0.015
-3.01E-02,0.015
-3.01E-02,-0.045
-3.01E-02,0.015
-3.01E-02,-0.045
-3.01E-02,-0.045
-3.01E-02,-0.045
-3.01E-02,-0.045
-3.01E-02,-0.045
-3.01E-02,-0.045
-3.01E-02,0.015
-3.01E-02,0.015
-3.01E-02,0.015
-3.00E-02,-0.045
-3.00E-02,-0.045
-3.00E-02,0.015
-3.00E-02,-0.045
-3.00E-02,-0.045
-3.00E-02,0.015
-3.00E-02,0.015
-3.00E-02,-0.045
-3.00E-02,0.015
-3.00E-02,-0.045
-3.00E-02,0.015
-3.00E-02,0.015
-3.00E-02,-0.045
-3.00E-02,-0.045
-3.00E-02,-0.045
-3.00E-02,0.015
-3.00E-02,-0.045
-3.00E-02,0.015
-3.00E-02,-0.045
-3.00E-02,-0.045
-3.00E-02,0.015
-3.00E-02,-0.045
-3.00E-02,-0.045
-3.00E-02,0.015
-3.00E-02,0.015
-3.00E-02,0.015
-3.00E-02,-0.045
-3.00E-02,-0.045
-3.00E-02,-0.045
-3.00E-02,-0.045
-3.00E-02,-0.045
-2.99E-02,-0.045
-2.99E-02,0.015
-2.99E-02,-0.045
-2.99E-02,-0.045
-2.99E-02,-0.045
-2.99E-02,-0.045
-2.99E-02,-0.045
-2.99E-02,-0.045
-2.99E-02,0.015
-2.99E-02,0.735
-2.99E-02,1.695
-2.99E-02,2.655
-2.99E-02,3.675
-2.99E-02,4.815
-2.99E-02,5.055
-2.99E-02,5.055
-2.99E-02,5.055
-2.99E-02,5.055
-2.99E-02,5.055
-2.99E-02,5.055
-2.99E-02,5.055
-2.99E-02,5.055
-2.99E-02,5.055
-2.99E-02,5.055
-2.99E-02,5.055
-2.99E-02,5.055
-2.99E-02,5.055
-2.99E-02,5.055
-2.99E-02,5.055
-2.99E-02,5.055
-2.99E-02,5.055
-2.99E-02,5.055
-2.98E-02,5.055
-2.98E-02,5.055
-2.98E-02,5.055
-2.98E-02,5.055
-2.98E-02,5.055
-2.98E-02,5.055
-2.98E-02,5.055
-2.98E-02,5.055
-2.98E-02,5.055
-2.98E-02,5.055
-2.98E-02,5.055
-2.98E-02,5.055
-2.98E-02,5.055
-2.98E-02,5.055
-2.98E-02,5.055
-2.98E-02,5.055
-2.98E-02,5.055
-2.98E-02,5.055
-2.98E-02,5.055
-2.98E-02,4.995
-2.98E-02,5.055
-2.98E-02,5.055
-2.98E-02,5.055
-2.98E-02,5.055
-2.98E-02,5.055
-2.98E-02,5.055
-2.98E-02,5.055
-2.98E-02,5.055
-2.98E-02,5.055
-2.98E-02,5.055
-2.98E-02,5.055
-2.97E-02,5.055
-2.97E-02,5.055
-2.97E-02,5.055
-2.97E-02,5.055
-2.97E-02,5.055
-2.97E-02,5.055
-2.97E-02,5.055
-2.97E-02,5.055
-2.97E-02,5.055
-2.97E-02,5.055
-2.97E-02,5.055
-2.97E-02,5.055
-2.97E-02,4.995
-2.97E-02,5.055
-2.97E-02,5.055
-2.97E-02,5.055
-2.97E-02,5.055
-2.97E-02,5.055
-2.97E-02,5.055
-2.97E-02,5.055
-2.97E-02,5.055
-2.97E-02,5.055
-2.97E-02,5.055
-2.97E-02,5.055
-2.97E-02,5.055
-2.97E-02,5.055
-2.97E-02,5.055
-2.97E-02,5.055
-2.97E-02,5.055
-2.97E-02,5.055
-2.97E-02,5.055
-2.96E-02,5.055
-2.96E-02,5.055
-2.96E-02,5.055
-2.96E-02,5.055
-2.96E-02,5.055
-2.96E-02,5.055
-2.96E-02,5.055
-2.96E-02,5.055
-2.96E-02,5.055
-2.96E-02,5.055
-2.96E-02,5.055
-2.96E-02,5.055
-2.96E-02,5.055
-2.96E-02,5.055
-2.96E-02,5.055
-2.96E-02,5.055
-2.96E-02,5.055
-2.96E-02,5.055
-2.96E-02,5.055
-2.96E-02,5.055
-2.96E-02,5.055
-2.96E-02,5.055
-2.96E-02,5.055
-2.96E-02,5.055
-2.96E-02,5.055
-2.96E-02,5.055
-2.96E-02,5.055
-2.96E-02,5.055
-2.96E-02,5.055
-2.96E-02,5.055
-2.96E-02,5.055
-2.95E-02,5.055
-2.95E-02,5.055
-2.95E-02,5.055
-2.95E-02,5.055
-2.95E-02,5.055
-2.95E-02,5.055
-2.95E-02,5.055
-2.95E-02,5.055
-2.95E-02,5.055
-2.95E-02,5.055
-2.95E-02,5.055
-2.95E-02,5.055
-2.95E-02,5.055
-2.95E-02,5.055
-2.95E-02,5.055
-2.95E-02,5.055
-2.95E-02,5.055
-2.95E-02,5.055
-2.95E-02,5.055
-2.95E-02,5.055
-2.95E-02,5.055
-2.95E-02,5.055
-2.95E-02,5.055
-2.95E-02,5.055
-2.95E-02,5.055
-2.95E-02,5.055
-2.95E-02,5.055
-2.95E-02,5.055
-2.95E-02,5.055
-2.95E-02,5.055
-2.95E-02,5.055
-2.95E-02,5.055
-2.94E-02,5.055
-2.94E-02,5.055
-2.94E-02,5.055
-2.94E-02,5.055
-2.94E-02,5.055
-2.94E-02,5.055
-2.94E-02,5.055
-2.94E-02,5.055
-2.94E-02,5.055
-2.94E-02,5.055
-2.94E-02,5.055
-2.94E-02,5.055
-2.94E-02,5.055
-2.94E-02,5.055
-2.94E-02,5.055
-2.94E-02,5.055
-2.94E-02,5.055
-2.94E-02,5.055
-2.94E-02,5.055
-2.94E-02,5.055
-2.94E-02,5.055
-2.94E-02,5.055
-2.94E-02,5.055
-2.94E-02,5.055
-2.94E-02,5.055
-2.94E-02,5.055
-2.94E-02,5.055
-2.94E-02,5.055
-2.94E-02,5.055
-2.94E-02,5.055
-2.94E-02,5.055
-2.93E-02,5.055
-2.93E-02,5.055
-2.93E-02,5.055
-2.93E-02,5.055
-2.93E-02,5.055
-2.93E-02,5.055
-2.93E-02,5.055
-2.93E-02,5.055
-2.93E-02,5.055
-2.93E-02,5.055
-2.93E-02,5.055
-2.93E-02,5.055
-2.93E-02,5.055
-2.93E-02,5.055
-2.93E-02,5.055
-2.93E-02,5.055
-2.93E-02,5.055
-2.93E-02,5.055
-2.93E-02,4.995
-2.93E-02,5.055
-2.93E-02,5.055
-2.93E-02,5.055
-2.93E-02,4.995
-2.93E-02,5.055
-2.93E-02,5.055
-2.93E-02,5.055
-2.93E-02,5.055
-2.93E-02,5.055
-2.93E-02,5.055
-2.93E-02,5.055
-2.93E-02,5.055
-2.92E-02,5.055
-2.92E-02,5.055
-2.92E-02,5.055
-2.92E-02,5.055
-2.92E-02,5.055
-2.92E-02,5.055
-2.92E-02,4.995
-2.92E-02,5.055
-2.92E-02,5.055
-2.92E-02,5.055
-2.92E-02,5.055
-2.92E-02,5.055
-2.92E-02,5.055
-2.92E-02,5.055
-2.92E-02,5.055
-2.92E-02,5.055
-2.92E-02,5.055
-2.92E-02,5.055
-2.92E-02,5.055
-2.92E-02,5.055
-2.92E-02,5.055
-2.92E-02,5.055
-2.92E-02,5.055
-2.92E-02,5.055
-2.92E-02,5.055
-2.92E-02,5.055
-2.92E-02,5.055
-2.92E-02,5.055
-2.92E-02,5.055
-2.92E-02,5.055
-2.92E-02,5.055
-2.91E-02,5.055
-2.91E-02,4.995
-2.91E-02,4.995
-2.91E-02,5.055
-2.91E-02,5.055
-2.91E-02,5.055
-2.91E-02,5.055
-2.91E-02,5.055
-2.91E-02,5.055
-2.91E-02,5.055
-2.91E-02,5.055
-2.91E-02,5.055
-2.91E-02,5.055
-2.91E-02,5.055
-2.91E-02,5.055
-2.91E-02,5.055
-2.91E-02,5.055
-2.91E-02,5.055
-2.91E-02,5.055
-2.91E-02,5.055
-2.91E-02,4.995
-2.91E-02,5.055
-2.91E-02,5.055
-2.91E-02,5.055
-2.91E-02,5.055
-2.91E-02,5.055
-2.91E-02,5.055
-2.91E-02,5.055
-2.91E-02,5.055
-2.91E-02,5.055
-2.91E-02,5.055
-2.91E-02,5.055
-2.90E-02,5.055
-2.90E-02,5.055
-2.90E-02,5.055
-2.90E-02,5.055
-2.90E-02,5.055
-2.90E-02,5.055
-2.90E-02,5.055
-2.90E-02,5.055
-2.90E-02,5.055
-2.90E-02,5.055
-2.90E-02,4.995
-2.90E-02,5.055
-2.90E-02,5.055
-2.90E-02,5.055
-2.90E-02,5.055
-2.90E-02,5.055
-2.90E-02,5.055
-2.90E-02,5.055
-2.90E-02,5.055
-2.90E-02,5.055
-2.90E-02,5.055
-2.90E-02,5.055
-2.90E-02,5.055
-2.90E-02,5.055
-2.90E-02,4.995
-2.90E-02,4.095
-2.90E-02,3.075
-2.90E-02,2.115
-2.90E-02,0.975
-2.90E-02,-0.045
-2.90E-02,-0.045
-2.89E-02,-0.045
-2.89E-02,0.015
-2.89E-02,-0.045
-2.89E-02,0.015
-2.89E-02,-0.045
-2.89E-02,0.015
-2.89E-02,-0.045
-2.89E-02,-0.045
-2.89E-02,-0.045
-2.89E-02,-0.045
-2.89E-02,0.015
-2.89E-02,-0.045
-2.89E-02,0.015
-2.89E-02,0.015
-2.89E-02,-0.045
-2.89E-02,-0.045
-2.89E-02,-0.045
-2.89E-02,-0.045
-2.89E-02,-0.045
-2.89E-02,0.015
-2.89E-02,-0.045
-2.89E-02,-0.045
-2.89E-02,-0.045
-2.89E-02,-0.045
-2.89E-02,-0.045
-2.89E-02,-0.045
-2.89E-02,-0.045
-2.89E-02,-0.045
-2.89E-02,-0.045
-2.89E-02,-0.045
-2.89E-02,0.015
-2.88E-02,-0.045
-2.88E-02,0.015
-2.88E-02,-0.045
-2.88E-02,0.015
-2.88E-02,0.015
-2.88E-02,0.015
-2.88E-02,-0.045
-2.88E-02,0.015
-2.88E-02,0.015
-2.88E-02,-0.045
-2.88E-02,0.015
-2.88E-02,0.015
-2.88E-02,0.375
-2.88E-02,1.335
-2.88E-02,2.295
-2.88E-02,3.435
-2.88E-02,4.455
-2.88E-02,5.055
-2.88E-02,5.055
-2.88E-02,5.055
-2.88E-02,5.055
-2.88E-02,5.055
-2.88E-02,5.055
-2.88E-02,5.055
-2.88E-02,5.055
-2.88E-02,5.055
-2.88E-02,5.055
-2.88E-02,5.055
-2.88E-02,5.055
-2.88E-02,5.055
-2.88E-02,5.055
-2.87E-02,5.055
-2.87E-02,5.055
-2.87E-02,5.055
-2.87E-02,5.055
-2.87E-02,5.055
-2.87E-02,5.055
-2.87E-02,5.055
-2.87E-02,5.055
-2.87E-02,5.055
-2.87E-02,5.055
-2.87E-02,5.055
-2.87E-02,5.055
-2.87E-02,5.055
-2.87E-02,5.055
-2.87E-02,5.055
-2.87E-02,5.055
-2.87E-02,5.055
-2.87E-02,5.055
-2.87E-02,5.055
-2.87E-02,5.055
-2.87E-02,5.055
-2.87E-02,5.055
-2.87E-02,5.055
-2.87E-02,5.055
-2.87E-02,5.055
-2.87E-02,5.055
-2.87E-02,5.055
-2.87E-02,5.055
-2.87E-02,5.055
-2.87E-02,5.055
-2.87E-02,5.055
-2.87E-02,4.275
-2.86E-02,3.255
-2.86E-02,2.295
-2.86E-02,1.155
-2.86E-02,0.195
-2.86E-02,0.015
-2.86E-02,-0.045
-2.86E-02,0.015
-2.86E-02,0.015
-2.86E-02,-0.045
-2.86E-02,0.015
-2.86E-02,0.015
-2.86E-02,0.015
-2.86E-02,-0.045
-2.86E-02,-0.045
-2.86E-02,0.015
-2.86E-02,0.015
-2.86E-02,0.015
-2.86E-02,-0.045
-2.86E-02,0.015
-2.86E-02,-0.045
-2.86E-02,-0.045
-2.86E-02,-0.045
-2.86E-02,0.015
-2.86E-02,0.015
-2.86E-02,-0.045
-2.86E-02,-0.045
-2.86E-02,0.015
-2.86E-02,-0.045
-2.86E-02,-0.045
-2.86E-02,-0.045
-2.86E-02,-0.045
-2.85E-02,0.015
-2.85E-02,-0.045
-2.85E-02,-0.045
-2.85E-02,-0.045
-2.85E-02,-0.045
-2.85E-02,-0.045
-2.85E-02,-0.045
-2.85E-02,-0.045
-2.85E-02,0.015
-2.85E-02,-0.045
-2.85E-02,0.015
-2.85E-02,0.015
-2.85E-02,0.015
-2.85E-02,-0.045
-2.85E-02,-0.045
-2.85E-02,-0.045
-2.85E-02,-0.045
-2.85E-02,0.195
-2.85E-02,1.155
-2.85E-02,2.115
-2.85E-02,3.255
-2.85E-02,4.275
-2.85E-02,5.055
-2.85E-02,5.055
-2.85E-02,5.055
-2.85E-02,5.055
-2.85E-02,5.055
-2.85E-02,5.055
-2.85E-02,4.995
-2.85E-02,5.055
-2.85E-02,5.055
-2.84E-02,5.055
-2.84E-02,4.995
-2.84E-02,5.055
-2.84E-02,5.055
-2.84E-02,4.995
-2.84E-02,5.055
-2.84E-02,5.055
-2.84E-02,5.055
-2.84E-02,5.055
-2.84E-02,5.055
-2.84E-02,5.055
-2.84E-02,5.055
-2.84E-02,5.055
-2.84E-02,5.055
-2.84E-02,5.055
-2.84E-02,5.055
-2.84E-02,5.055
-2.84E-02,5.055
-2.84E-02,5.055
-2.84E-02,5.055
-2.84E-02,5.055
-2.84E-02,5.055
-2.84E-02,5.055
-2.84E-02,5.055
-2.84E-02,5.055
-2.84E-02,5.055
-2.84E-02,5.055
-2.84E-02,5.055
-2.84E-02,5.055
-2.84E-02,5.055
-2.84E-02,5.055
-2.83E-02,5.055
-2.83E-02,5.055
-2.83E-02,5.055
-2.83E-02,5.055
-2.83E-02,5.055
-2.83E-02,4.455
-2.83E-02,3.495
-2.83E-02,2.295
-2.83E-02,1.335
-2.83E-02,0.375
-2.83E-02,-0.045
-2.83E-02,0.015
-2.83E-02,0.015
-2.83E-02,-0.045
-2.83E-02,0.015
-2.83E-02,-0.045
-2.83E-02,-0.045
-2.83E-02,0.015
-2.83E-02,0.015
-2.83E-02,0.015
-2.83E-02,-0.045
-2.83E-02,0.015
-2.83E-02,-0.045
-2.83E-02,-0.045
-2.83E-02,-0.045
-2.83E-02,0.015
-2.83E-02,-0.045
-2.83E-02,-0.045
-2.83E-02,-0.045
-2.83E-02,-0.045
-2.83E-02,0.015
-2.83E-02,-0.045
-2.82E-02,0.015
-2.82E-02,0.015
-2.82E-02,-0.045
-2.82E-02,-0.045
-2.82E-02,-0.045
-2.82E-02,-0.045
-2.82E-02,0.015
-2.82E-02,0.015
-2.82E-02,0.015
-2.82E-02,-0.045
-2.82E-02,-0.045
-2.82E-02,-0.045
-2.82E-02,0.015
-2.82E-02,0.015
-2.82E-02,0.015
-2.82E-02,0.015
-2.82E-02,0.015
-2.82E-02,-0.045
-2.82E-02,-0.045
-2.82E-02,0.015
-2.82E-02,-0.045
-2.82E-02,0.015
-2.82E-02,-0.045
-2.82E-02,0.915
-2.82E-02,1.935
-2.82E-02,3.075
-2.82E-02,4.095
-2.82E-02,5.055
-2.82E-02,5.055
-2.82E-02,4.995
-2.82E-02,5.055
-2.81E-02,5.055
-2.81E-02,5.055
-2.81E-02,5.055
