expt2025/半導体レーザ/data/3-1_8_250kHz.CSV

Model,TBS1052C
Firmware Version,v2015-08-04-prequal4ch70_v1.3

Point Format,Y
Horizontal Units,S
Horizontal Scale,2e-06
Sample Interval,2e-09
Filter Frequency,2e+08
Record Length,20000
Gating,0.0% to 100.0%
Probe Attenuation,10
Vertical Units,V
Vertical Offset,0
Vertical Scale,1.5
Label,
TIME,CH1
-2.0000e-05,-0.045
-1.9998e-05,-0.045
-1.9996e-05,-0.045
-1.9994e-05,-0.045
-1.9992e-05,-0.045
-1.9990e-05,-0.045
-1.9988e-05,-0.045
-1.9986e-05,-0.045
-1.9984e-05,-0.045
-1.9982e-05,0.135
-1.9980e-05,0.555
-1.9978e-05,1.395
-1.9976e-05,2.475
-1.9974e-05,3.495
-1.9972e-05,4.335
-1.9970e-05,4.815
-1.9968e-05,4.995
-1.9966e-05,4.995
-1.9964e-05,5.055
-1.9962e-05,5.055
-1.9960e-05,5.055
-1.9958e-05,5.055
-1.9956e-05,5.055
-1.9954e-05,5.055
-1.9952e-05,5.055
-1.9950e-05,5.055
-1.9948e-05,5.055
-1.9946e-05,5.055
-1.9944e-05,5.055
-1.9942e-05,5.055
-1.9940e-05,5.055
-1.9938e-05,4.995
-1.9936e-05,4.995
-1.9934e-05,4.995
-1.9932e-05,4.995
-1.9930e-05,4.995
-1.9928e-05,5.055
-1.9926e-05,5.055
-1.9924e-05,5.055
-1.9922e-05,5.055
-1.9920e-05,5.055
-1.9918e-05,5.055
-1.9916e-05,5.055
-1.9914e-05,5.055
-1.9912e-05,5.055
-1.9910e-05,5.055
-1.9908e-05,5.055
-1.9906e-05,5.055
-1.9904e-05,5.055
-1.9902e-05,5.055
-1.9900e-05,5.055
-1.9898e-05,5.055
-1.9896e-05,5.055
-1.9894e-05,5.055
-1.9892e-05,5.055
-1.9890e-05,5.055
-1.9888e-05,5.055
-1.9886e-05,5.055
-1.9884e-05,5.055
-1.9882e-05,5.055
-1.9880e-05,5.055
-1.9878e-05,5.055
-1.9876e-05,5.055
-1.9874e-05,5.055
-1.9872e-05,5.055
-1.9870e-05,5.055
-1.9868e-05,5.055
-1.9866e-05,5.055
-1.9864e-05,5.055
-1.9862e-05,5.055
-1.9860e-05,5.055
-1.9858e-05,5.055
-1.9856e-05,5.055
-1.9854e-05,5.055
-1.9852e-05,5.055
-1.9850e-05,5.055
-1.9848e-05,5.055
-1.9846e-05,5.055
-1.9844e-05,5.055
-1.9842e-05,5.055
-1.9840e-05,5.055
-1.9838e-05,5.055
-1.9836e-05,5.055
-1.9834e-05,5.055
-1.9832e-05,5.055
-1.9830e-05,5.055
-1.9828e-05,5.055
-1.9826e-05,5.055
-1.9824e-05,5.055
-1.9822e-05,5.055
-1.9820e-05,5.055
-1.9818e-05,5.055
-1.9816e-05,5.055
-1.9814e-05,5.055
-1.9812e-05,5.055
-1.9810e-05,5.055
-1.9808e-05,5.055
-1.9806e-05,5.055
-1.9804e-05,5.055
-1.9802e-05,5.055
-1.9800e-05,5.055
-1.9798e-05,5.055
-1.9796e-05,5.055
-1.9794e-05,5.055
-1.9792e-05,5.055
-1.9790e-05,5.055
-1.9788e-05,5.055
-1.9786e-05,5.055
-1.9784e-05,5.055
-1.9782e-05,5.055
-1.9780e-05,5.055
-1.9778e-05,5.055
-1.9776e-05,5.055
-1.9774e-05,5.055
-1.9772e-05,5.055
-1.9770e-05,5.055
-1.9768e-05,5.055
-1.9766e-05,5.055
-1.9764e-05,5.055
-1.9762e-05,5.055
-1.9760e-05,5.055
-1.9758e-05,5.055
-1.9756e-05,5.055
-1.9754e-05,5.055
-1.9752e-05,5.055
-1.9750e-05,5.055
-1.9748e-05,5.055
-1.9746e-05,5.055
-1.9744e-05,5.055
-1.9742e-05,5.055
-1.9740e-05,5.055
-1.9738e-05,5.055
-1.9736e-05,5.055
-1.9734e-05,5.055
-1.9732e-05,5.055
-1.9730e-05,5.055
-1.9728e-05,5.055
-1.9726e-05,5.055
-1.9724e-05,5.055
-1.9722e-05,5.055
-1.9720e-05,5.055
-1.9718e-05,5.055
-1.9716e-05,5.055
-1.9714e-05,5.055
-1.9712e-05,5.055
-1.9710e-05,5.055
-1.9708e-05,5.055
-1.9706e-05,5.055
-1.9704e-05,5.055
-1.9702e-05,5.055
-1.9700e-05,5.055
-1.9698e-05,5.055
-1.9696e-05,5.055
-1.9694e-05,5.055
-1.9692e-05,5.055
-1.9690e-05,5.055
-1.9688e-05,5.055
-1.9686e-05,5.055
-1.9684e-05,5.055
-1.9682e-05,5.055
-1.9680e-05,5.055
-1.9678e-05,5.055
-1.9676e-05,5.055
-1.9674e-05,5.055
-1.9672e-05,5.055
-1.9670e-05,5.055
-1.9668e-05,5.055
-1.9666e-05,5.055
-1.9664e-05,5.055
-1.9662e-05,5.055
-1.9660e-05,5.055
-1.9658e-05,5.055
-1.9656e-05,5.055
-1.9654e-05,5.055
-1.9652e-05,5.055
-1.9650e-05,5.055
-1.9648e-05,5.055
-1.9646e-05,5.055
-1.9644e-05,5.055
-1.9642e-05,5.055
-1.9640e-05,5.055
-1.9638e-05,5.055
-1.9636e-05,5.055
-1.9634e-05,5.055
-1.9632e-05,5.055
-1.9630e-05,5.055
-1.9628e-05,5.055
-1.9626e-05,5.055
-1.9624e-05,5.055
-1.9622e-05,5.055
-1.9620e-05,5.055
-1.9618e-05,5.055
-1.9616e-05,5.055
-1.9614e-05,5.055
-1.9612e-05,5.055
-1.9610e-05,5.055
-1.9608e-05,5.055
-1.9606e-05,5.055
-1.9604e-05,5.055
-1.9602e-05,4.935
-1.9600e-05,4.515
-1.9598e-05,3.795
-1.9596e-05,2.835
-1.9594e-05,1.875
-1.9592e-05,1.095
-1.9590e-05,0.555
-1.9588e-05,0.255
-1.9586e-05,0.075
-1.9584e-05,0.015
-1.9582e-05,0.015
-1.9580e-05,-0.045
-1.9578e-05,-0.045
-1.9576e-05,-0.045
-1.9574e-05,-0.045
-1.9572e-05,-0.045
-1.9570e-05,-0.045
-1.9568e-05,-0.045
-1.9566e-05,-0.045
-1.9564e-05,-0.045
-1.9562e-05,-0.045
-1.9560e-05,-0.045
-1.9558e-05,-0.105
-1.9556e-05,-0.105
-1.9554e-05,-0.105
-1.9552e-05,-0.045
-1.9550e-05,-0.045
-1.9548e-05,-0.045
-1.9546e-05,-0.045
-1.9544e-05,-0.045
-1.9542e-05,0.015
-1.9540e-05,0.195
-1.9538e-05,0.435
-1.9536e-05,0.795
-1.9534e-05,1.335
-1.9532e-05,2.055
-1.9530e-05,2.955
-1.9528e-05,3.795
-1.9526e-05,4.455
-1.9524e-05,4.875
-1.9522e-05,4.995
-1.9520e-05,5.055
-1.9518e-05,5.055
-1.9516e-05,5.055
-1.9514e-05,5.055
-1.9512e-05,5.055
-1.9510e-05,5.055
-1.9508e-05,5.055
-1.9506e-05,5.055
-1.9504e-05,5.055
-1.9502e-05,5.055
-1.9500e-05,5.055
-1.9498e-05,5.055
-1.9496e-05,5.055
-1.9494e-05,5.055
-1.9492e-05,5.055
-1.9490e-05,5.055
-1.9488e-05,5.055
-1.9486e-05,5.055
-1.9484e-05,4.995
-1.9482e-05,4.995
-1.9480e-05,5.055
-1.9478e-05,5.055
-1.9476e-05,4.995
-1.9474e-05,4.695
-1.9472e-05,4.095
-1.9470e-05,3.255
-1.9468e-05,2.295
-1.9466e-05,1.455
-1.9464e-05,0.855
-1.9462e-05,0.435
-1.9460e-05,0.195
-1.9458e-05,0.075
-1.9456e-05,0.015
-1.9454e-05,-0.045
-1.9452e-05,-0.045
-1.9450e-05,-0.045
-1.9448e-05,-0.045
-1.9446e-05,-0.045
-1.9444e-05,-0.045
-1.9442e-05,-0.045
-1.9440e-05,-0.045
-1.9438e-05,-0.045
-1.9436e-05,-0.045
-1.9434e-05,-0.045
-1.9432e-05,-0.045
-1.9430e-05,-0.045
-1.9428e-05,-0.045
-1.9426e-05,-0.045
-1.9424e-05,-0.045
-1.9422e-05,-0.045
-1.9420e-05,-0.045
-1.9418e-05,0.015
-1.9416e-05,0.015
-1.9414e-05,0.075
-1.9412e-05,0.255
-1.9410e-05,0.555
-1.9408e-05,1.035
-1.9406e-05,1.695
-1.9404e-05,2.535
-1.9402e-05,3.435
-1.9400e-05,4.215
-1.9398e-05,4.695
-1.9396e-05,4.935
-1.9394e-05,5.055
-1.9392e-05,5.055
-1.9390e-05,5.055
-1.9388e-05,5.055
-1.9386e-05,5.055
-1.9384e-05,5.055
-1.9382e-05,5.055
-1.9380e-05,5.055
-1.9378e-05,5.055
-1.9376e-05,5.055
-1.9374e-05,5.055
-1.9372e-05,5.055
-1.9370e-05,5.055
-1.9368e-05,5.055
-1.9366e-05,5.055
-1.9364e-05,5.055
-1.9362e-05,5.055
-1.9360e-05,5.055
-1.9358e-05,5.055
-1.9356e-05,5.055
-1.9354e-05,5.055
-1.9352e-05,5.055
-1.9350e-05,4.995
-1.9348e-05,4.815
-1.9346e-05,4.395
-1.9344e-05,3.615
-1.9342e-05,2.715
-1.9340e-05,1.815
-1.9338e-05,1.155
-1.9336e-05,0.615
-1.9334e-05,0.315
-1.9332e-05,0.135
-1.9330e-05,0.015
-1.9328e-05,-0.045
-1.9326e-05,-0.045
-1.9324e-05,-0.045
-1.9322e-05,-0.045
-1.9320e-05,-0.045
-1.9318e-05,-0.045
-1.9316e-05,-0.045
-1.9314e-05,-0.045
-1.9312e-05,-0.045
-1.9310e-05,-0.045
-1.9308e-05,-0.105
-1.9306e-05,-0.105
-1.9304e-05,-0.105
-1.9302e-05,-0.045
-1.9300e-05,-0.045
-1.9298e-05,-0.045
-1.9296e-05,-0.045
-1.9294e-05,-0.045
-1.9292e-05,-0.045
-1.9290e-05,-0.045
-1.9288e-05,0.015
-1.9286e-05,0.135
-1.9284e-05,0.315
-1.9282e-05,0.675
-1.9280e-05,1.215
-1.9278e-05,2.055
-1.9276e-05,3.015
-1.9274e-05,3.855
-1.9272e-05,4.515
-1.9270e-05,4.875
-1.9268e-05,4.995
-1.9266e-05,5.055
-1.9264e-05,5.055
-1.9262e-05,5.055
-1.9260e-05,5.055
-1.9258e-05,5.055
-1.9256e-05,5.055
-1.9254e-05,5.055
-1.9252e-05,5.055
-1.9250e-05,5.055
-1.9248e-05,5.055
-1.9246e-05,5.055
-1.9244e-05,5.055
-1.9242e-05,5.055
-1.9240e-05,5.055
-1.9238e-05,5.055
-1.9236e-05,5.055
-1.9234e-05,5.055
-1.9232e-05,5.055
-1.9230e-05,5.055
-1.9228e-05,5.055
-1.9226e-05,5.055
-1.9224e-05,5.055
-1.9222e-05,5.055
-1.9220e-05,5.055
-1.9218e-05,5.055
-1.9216e-05,5.055
-1.9214e-05,5.055
-1.9212e-05,5.055
-1.9210e-05,5.055
-1.9208e-05,5.055
-1.9206e-05,5.055
-1.9204e-05,5.055
-1.9202e-05,5.055
-1.9200e-05,5.055
-1.9198e-05,5.055
-1.9196e-05,5.055
-1.9194e-05,5.055
-1.9192e-05,5.055
-1.9190e-05,5.055
-1.9188e-05,5.055
-1.9186e-05,5.055
-1.9184e-05,5.055
-1.9182e-05,5.055
-1.9180e-05,5.055
-1.9178e-05,5.055
-1.9176e-05,5.115
-1.9174e-05,5.115
-1.9172e-05,5.115
-1.9170e-05,5.055
-1.9168e-05,5.055
-1.9166e-05,5.055
-1.9164e-05,5.055
-1.9162e-05,4.995
-1.9160e-05,4.935
-1.9158e-05,4.815
-1.9156e-05,4.635
-1.9154e-05,4.155
-1.9152e-05,3.375
-1.9150e-05,2.415
-1.9148e-05,1.455
-1.9146e-05,0.675
-1.9144e-05,0.195
-1.9142e-05,0.015
-1.9140e-05,-0.045
-1.9138e-05,-0.045
-1.9136e-05,-0.045
-1.9134e-05,-0.045
-1.9132e-05,-0.045
-1.9130e-05,-0.045
-1.9128e-05,-0.045
-1.9126e-05,-0.045
-1.9124e-05,-0.045
-1.9122e-05,-0.045
-1.9120e-05,-0.045
-1.9118e-05,-0.045
-1.9116e-05,-0.045
-1.9114e-05,-0.045
-1.9112e-05,-0.045
-1.9110e-05,-0.045
-1.9108e-05,-0.045
-1.9106e-05,-0.045
-1.9104e-05,-0.045
-1.9102e-05,-0.045
-1.9100e-05,-0.045
-1.9098e-05,-0.045
-1.9096e-05,-0.045
-1.9094e-05,-0.045
-1.9092e-05,-0.045
-1.9090e-05,0.015
-1.9088e-05,0.015
-1.9086e-05,0.015
-1.9084e-05,-0.045
-1.9082e-05,-0.045
-1.9080e-05,-0.045
-1.9078e-05,-0.045
-1.9076e-05,-0.045
-1.9074e-05,-0.045
-1.9072e-05,-0.045
-1.9070e-05,-0.045
-1.9068e-05,-0.045
-1.9066e-05,-0.045
-1.9064e-05,-0.045
-1.9062e-05,-0.045
-1.9060e-05,-0.045
-1.9058e-05,-0.045
-1.9056e-05,-0.045
-1.9054e-05,-0.045
-1.9052e-05,-0.105
-1.9050e-05,-0.105
-1.9048e-05,-0.045
-1.9046e-05,-0.045
-1.9044e-05,-0.045
-1.9042e-05,-0.045
-1.9040e-05,-0.045
-1.9038e-05,-0.045
-1.9036e-05,0.015
-1.9034e-05,0.015
-1.9032e-05,0.075
-1.9030e-05,0.255
-1.9028e-05,0.555
-1.9026e-05,1.215
-1.9024e-05,2.115
-1.9022e-05,3.135
-1.9020e-05,4.035
-1.9018e-05,4.635
-1.9016e-05,4.935
-1.9014e-05,4.995
-1.9012e-05,4.995
-1.9010e-05,5.055
-1.9008e-05,5.055
-1.9006e-05,5.055
-1.9004e-05,5.055
-1.9002e-05,5.055
-1.9000e-05,5.055
-1.8998e-05,5.055
-1.8996e-05,5.055
-1.8994e-05,5.055
-1.8992e-05,5.055
-1.8990e-05,5.055
-1.8988e-05,5.055
-1.8986e-05,5.055
-1.8984e-05,5.055
-1.8982e-05,5.055
-1.8980e-05,5.055
-1.8978e-05,5.055
-1.8976e-05,5.055
-1.8974e-05,5.055
-1.8972e-05,5.055
-1.8970e-05,5.055
-1.8968e-05,5.055
-1.8966e-05,5.055
-1.8964e-05,5.055
-1.8962e-05,5.055
-1.8960e-05,5.055
-1.8958e-05,5.055
-1.8956e-05,5.055
-1.8954e-05,5.055
-1.8952e-05,5.055
-1.8950e-05,5.055
-1.8948e-05,5.055
-1.8946e-05,5.055
-1.8944e-05,5.055
-1.8942e-05,5.055
-1.8940e-05,5.055
-1.8938e-05,5.055
-1.8936e-05,5.055
-1.8934e-05,5.055
-1.8932e-05,5.055
-1.8930e-05,5.055
-1.8928e-05,5.055
-1.8926e-05,5.055
-1.8924e-05,5.055
-1.8922e-05,5.055
-1.8920e-05,5.055
-1.8918e-05,5.055
-1.8916e-05,5.055
-1.8914e-05,5.055
-1.8912e-05,5.055
-1.8910e-05,5.055
-1.8908e-05,4.995
-1.8906e-05,4.995
-1.8904e-05,4.995
-1.8902e-05,4.815
-1.8900e-05,4.275
-1.8898e-05,3.435
-1.8896e-05,2.355
-1.8894e-05,1.335
-1.8892e-05,0.555
-1.8890e-05,0.195
-1.8888e-05,0.015
-1.8886e-05,-0.045
-1.8884e-05,-0.045
-1.8882e-05,-0.045
-1.8880e-05,-0.045
-1.8878e-05,-0.045
-1.8876e-05,-0.045
-1.8874e-05,-0.045
-1.8872e-05,-0.045
-1.8870e-05,-0.045
-1.8868e-05,-0.045
-1.8866e-05,-0.045
-1.8864e-05,-0.045
-1.8862e-05,-0.045
-1.8860e-05,-0.105
-1.8858e-05,-0.105
-1.8856e-05,-0.105
-1.8854e-05,-0.045
-1.8852e-05,-0.045
-1.8850e-05,-0.045
-1.8848e-05,-0.045
-1.8846e-05,-0.045
-1.8844e-05,0.015
-1.8842e-05,0.075
-1.8840e-05,0.315
-1.8838e-05,0.735
-1.8836e-05,1.395
-1.8834e-05,2.115
-1.8832e-05,2.895
-1.8830e-05,3.615
-1.8828e-05,4.215
-1.8826e-05,4.635
-1.8824e-05,4.935
-1.8822e-05,4.995
-1.8820e-05,5.055
-1.8818e-05,5.055
-1.8816e-05,5.055
-1.8814e-05,5.055
-1.8812e-05,5.055
-1.8810e-05,5.055
-1.8808e-05,5.055
-1.8806e-05,5.055
-1.8804e-05,5.055
-1.8802e-05,5.055
-1.8800e-05,5.055
-1.8798e-05,5.055
-1.8796e-05,5.055
-1.8794e-05,5.055
-1.8792e-05,5.055
-1.8790e-05,5.055
-1.8788e-05,5.055
-1.8786e-05,5.055
-1.8784e-05,5.055
-1.8782e-05,5.055
-1.8780e-05,5.055
-1.8778e-05,5.055
-1.8776e-05,5.055
-1.8774e-05,5.055
-1.8772e-05,5.055
-1.8770e-05,5.055
-1.8768e-05,5.055
-1.8766e-05,5.055
-1.8764e-05,5.055
-1.8762e-05,5.055
-1.8760e-05,5.055
-1.8758e-05,5.055
-1.8756e-05,5.055
-1.8754e-05,5.055
-1.8752e-05,5.055
-1.8750e-05,5.055
-1.8748e-05,5.055
-1.8746e-05,5.055
-1.8744e-05,5.055
-1.8742e-05,5.055
-1.8740e-05,5.055
-1.8738e-05,5.055
-1.8736e-05,5.055
-1.8734e-05,5.055
-1.8732e-05,5.055
-1.8730e-05,5.055
-1.8728e-05,5.055
-1.8726e-05,5.055
-1.8724e-05,5.055
-1.8722e-05,5.055
-1.8720e-05,5.055
-1.8718e-05,5.055
-1.8716e-05,5.055
-1.8714e-05,5.055
-1.8712e-05,5.055
-1.8710e-05,5.055
-1.8708e-05,5.055
-1.8706e-05,5.055
-1.8704e-05,5.055
-1.8702e-05,5.055
-1.8700e-05,5.055
-1.8698e-05,5.055
-1.8696e-05,5.055
-1.8694e-05,5.055
-1.8692e-05,5.055
-1.8690e-05,5.055
-1.8688e-05,5.055
-1.8686e-05,5.055
-1.8684e-05,5.055
-1.8682e-05,5.055
-1.8680e-05,5.055
-1.8678e-05,5.055
-1.8676e-05,5.055
-1.8674e-05,5.055
-1.8672e-05,5.055
-1.8670e-05,5.055
-1.8668e-05,5.055
-1.8666e-05,5.055
-1.8664e-05,5.055
-1.8662e-05,5.055
-1.8660e-05,5.055
-1.8658e-05,5.055
-1.8656e-05,4.995
-1.8654e-05,4.995
-1.8652e-05,5.055
-1.8650e-05,5.055
-1.8648e-05,4.815
-1.8646e-05,4.215
-1.8644e-05,3.195
-1.8642e-05,2.055
-1.8640e-05,1.095
-1.8638e-05,0.435
-1.8636e-05,0.075
-1.8634e-05,0.015
-1.8632e-05,-0.045
-1.8630e-05,-0.045
-1.8628e-05,-0.045
-1.8626e-05,-0.045
-1.8624e-05,-0.045
-1.8622e-05,-0.045
-1.8620e-05,-0.045
-1.8618e-05,-0.045
-1.8616e-05,-0.045
-1.8614e-05,-0.045
-1.8612e-05,-0.045
-1.8610e-05,-0.045
-1.8608e-05,-0.105
-1.8606e-05,-0.105
-1.8604e-05,-0.105
-1.8602e-05,-0.045
-1.8600e-05,-0.045
-1.8598e-05,-0.045
-1.8596e-05,-0.045
-1.8594e-05,-0.045
-1.8592e-05,-0.045
-1.8590e-05,-0.045
-1.8588e-05,0.075
-1.8586e-05,0.375
-1.8584e-05,0.795
-1.8582e-05,1.395
-1.8580e-05,2.115
-1.8578e-05,2.895
-1.8576e-05,3.675
-1.8574e-05,4.275
-1.8572e-05,4.695
-1.8570e-05,4.935
-1.8568e-05,4.995
-1.8566e-05,4.995
-1.8564e-05,5.055
-1.8562e-05,5.055
-1.8560e-05,5.055
-1.8558e-05,5.055
-1.8556e-05,5.055
-1.8554e-05,5.055
-1.8552e-05,5.055
-1.8550e-05,5.055
-1.8548e-05,5.055
-1.8546e-05,5.055
-1.8544e-05,5.055
-1.8542e-05,5.055
-1.8540e-05,5.055
-1.8538e-05,5.055
-1.8536e-05,5.055
-1.8534e-05,5.055
-1.8532e-05,5.055
-1.8530e-05,5.055
-1.8528e-05,5.055
-1.8526e-05,5.055
-1.8524e-05,5.055
-1.8522e-05,5.055
-1.8520e-05,5.055
-1.8518e-05,5.055
-1.8516e-05,5.055
-1.8514e-05,5.055
-1.8512e-05,5.055
-1.8510e-05,5.055
-1.8508e-05,5.055
-1.8506e-05,5.055
-1.8504e-05,5.055
-1.8502e-05,5.055
-1.8500e-05,5.055
-1.8498e-05,5.055
-1.8496e-05,5.055
-1.8494e-05,5.055
-1.8492e-05,5.055
-1.8490e-05,5.055
-1.8488e-05,5.055
-1.8486e-05,5.055
-1.8484e-05,5.055
-1.8482e-05,5.055
-1.8480e-05,5.055
-1.8478e-05,5.115
-1.8476e-05,5.115
-1.8474e-05,5.115
-1.8472e-05,5.055
-1.8470e-05,5.055
-1.8468e-05,5.055
-1.8466e-05,5.055
-1.8464e-05,4.995
-1.8462e-05,4.935
-1.8460e-05,4.815
-1.8458e-05,4.515
-1.8456e-05,4.035
-1.8454e-05,3.375
-1.8452e-05,2.595
-1.8450e-05,1.815
-1.8448e-05,1.035
-1.8446e-05,0.495
-1.8444e-05,0.135
-1.8442e-05,0.015
-1.8440e-05,-0.045
-1.8438e-05,-0.045
-1.8436e-05,-0.045
-1.8434e-05,-0.045
-1.8432e-05,-0.045
-1.8430e-05,-0.045
-1.8428e-05,-0.045
-1.8426e-05,-0.045
-1.8424e-05,-0.045
-1.8422e-05,-0.045
-1.8420e-05,-0.045
-1.8418e-05,-0.105
-1.8416e-05,-0.105
-1.8414e-05,-0.105
-1.8412e-05,-0.105
-1.8410e-05,-0.105
-1.8408e-05,-0.105
-1.8406e-05,-0.045
-1.8404e-05,-0.045
-1.8402e-05,-0.045
-1.8400e-05,-0.045
-1.8398e-05,-0.045
-1.8396e-05,0.015
-1.8394e-05,0.315
-1.8392e-05,0.975
-1.8390e-05,1.875
-1.8388e-05,2.895
-1.8386e-05,3.795
-1.8384e-05,4.395
-1.8382e-05,4.755
-1.8380e-05,4.875
-1.8378e-05,4.935
-1.8376e-05,4.995
-1.8374e-05,5.055
-1.8372e-05,5.055
-1.8370e-05,5.055
-1.8368e-05,5.055
-1.8366e-05,5.055
-1.8364e-05,5.055
-1.8362e-05,5.055
-1.8360e-05,5.055
-1.8358e-05,5.055
-1.8356e-05,5.055
-1.8354e-05,5.055
-1.8352e-05,5.055
-1.8350e-05,5.055
-1.8348e-05,5.055
-1.8346e-05,5.055
-1.8344e-05,5.055
-1.8342e-05,5.055
-1.8340e-05,5.055
-1.8338e-05,4.995
-1.8336e-05,4.995
-1.8334e-05,4.875
-1.8332e-05,4.635
-1.8330e-05,4.275
-1.8328e-05,3.735
-1.8326e-05,3.015
-1.8324e-05,2.175
-1.8322e-05,1.335
-1.8320e-05,0.675
-1.8318e-05,0.255
-1.8316e-05,0.015
-1.8314e-05,-0.045
-1.8312e-05,-0.045
-1.8310e-05,-0.045
-1.8308e-05,-0.045
-1.8306e-05,-0.045
-1.8304e-05,-0.045
-1.8302e-05,-0.045
-1.8300e-05,-0.045
-1.8298e-05,-0.045
-1.8296e-05,-0.045
-1.8294e-05,-0.045
-1.8292e-05,-0.045
-1.8290e-05,-0.045
-1.8288e-05,-0.045
-1.8286e-05,-0.045
-1.8284e-05,-0.045
-1.8282e-05,-0.045
-1.8280e-05,-0.045
-1.8278e-05,-0.045
-1.8276e-05,-0.045
-1.8274e-05,-0.045
-1.8272e-05,-0.045
-1.8270e-05,-0.045
-1.8268e-05,-0.045
-1.8266e-05,-0.045
-1.8264e-05,-0.045
-1.8262e-05,-0.045
-1.8260e-05,-0.045
-1.8258e-05,-0.045
-1.8256e-05,-0.045
-1.8254e-05,-0.045
-1.8252e-05,-0.045
-1.8250e-05,-0.045
-1.8248e-05,-0.045
-1.8246e-05,-0.045
-1.8244e-05,-0.045
-1.8242e-05,-0.045
-1.8240e-05,-0.045
-1.8238e-05,-0.045
-1.8236e-05,-0.045
-1.8234e-05,-0.045
-1.8232e-05,-0.045
-1.8230e-05,-0.045
-1.8228e-05,-0.105
-1.8226e-05,-0.105
-1.8224e-05,-0.105
-1.8222e-05,-0.105
-1.8220e-05,-0.045
-1.8218e-05,-0.045
-1.8216e-05,-0.045
-1.8214e-05,-0.045
-1.8212e-05,-0.045
-1.8210e-05,-0.045
-1.8208e-05,0.015
-1.8206e-05,0.195
-1.8204e-05,0.495
-1.8202e-05,0.915
-1.8200e-05,1.575
-1.8198e-05,2.355
-1.8196e-05,3.255
-1.8194e-05,4.035
-1.8192e-05,4.635
-1.8190e-05,4.935
-1.8188e-05,5.055
-1.8186e-05,5.055
-1.8184e-05,5.055
-1.8182e-05,5.055
-1.8180e-05,5.055
-1.8178e-05,5.055
-1.8176e-05,5.055
-1.8174e-05,5.055
-1.8172e-05,5.055
-1.8170e-05,5.055
-1.8168e-05,5.055
-1.8166e-05,5.055
-1.8164e-05,5.055
-1.8162e-05,5.055
-1.8160e-05,5.055
-1.8158e-05,5.055
-1.8156e-05,5.055
-1.8154e-05,5.055
-1.8152e-05,5.055
-1.8150e-05,5.055
-1.8148e-05,5.055
-1.8146e-05,5.055
-1.8144e-05,5.055
-1.8142e-05,4.935
-1.8140e-05,4.575
-1.8138e-05,3.855
-1.8136e-05,2.955
-1.8134e-05,1.995
-1.8132e-05,1.215
-1.8130e-05,0.675
-1.8128e-05,0.315
-1.8126e-05,0.135
-1.8124e-05,0.075
-1.8122e-05,0.015
-1.8120e-05,-0.045
-1.8118e-05,-0.045
-1.8116e-05,-0.045
-1.8114e-05,-0.045
-1.8112e-05,-0.045
-1.8110e-05,-0.045
-1.8108e-05,-0.045
-1.8106e-05,0.015
-1.8104e-05,-0.045
-1.8102e-05,-0.045
-1.8100e-05,-0.045
-1.8098e-05,-0.045
-1.8096e-05,-0.045
-1.8094e-05,-0.045
-1.8092e-05,-0.045
-1.8090e-05,-0.045
-1.8088e-05,-0.045
-1.8086e-05,-0.045
-1.8084e-05,-0.045
-1.8082e-05,-0.045
-1.8080e-05,-0.045
-1.8078e-05,-0.045
-1.8076e-05,-0.045
-1.8074e-05,-0.045
-1.8072e-05,-0.045
-1.8070e-05,-0.045
-1.8068e-05,-0.045
-1.8066e-05,-0.045
-1.8064e-05,-0.045
-1.8062e-05,-0.045
-1.8060e-05,-0.045
-1.8058e-05,-0.045
-1.8056e-05,-0.045
-1.8054e-05,-0.045
-1.8052e-05,-0.045
-1.8050e-05,-0.045
-1.8048e-05,-0.045
-1.8046e-05,-0.045
-1.8044e-05,-0.045
-1.8042e-05,-0.045
-1.8040e-05,-0.045
-1.8038e-05,-0.105
-1.8036e-05,-0.105
-1.8034e-05,-0.105
-1.8032e-05,-0.105
-1.8030e-05,-0.045
-1.8028e-05,-0.045
-1.8026e-05,-0.045
-1.8024e-05,-0.045
-1.8022e-05,-0.045
-1.8020e-05,-0.045
-1.8018e-05,-0.045
-1.8016e-05,0.015
-1.8014e-05,0.315
-1.8012e-05,0.855
-1.8010e-05,1.635
-1.8008e-05,2.595
-1.8006e-05,3.435
-1.8004e-05,4.095
-1.8002e-05,4.515
-1.8000e-05,4.815
-1.7998e-05,4.935
-1.7996e-05,4.995
-1.7994e-05,5.055
-1.7992e-05,5.055
-1.7990e-05,5.055
-1.7988e-05,5.055
-1.7986e-05,5.055
-1.7984e-05,5.055
-1.7982e-05,5.055
-1.7980e-05,5.055
-1.7978e-05,5.055
-1.7976e-05,5.055
-1.7974e-05,5.055
-1.7972e-05,5.055
-1.7970e-05,5.055
-1.7968e-05,5.055
-1.7966e-05,5.055
-1.7964e-05,5.055
-1.7962e-05,5.055
-1.7960e-05,5.055
-1.7958e-05,5.055
-1.7956e-05,5.055
-1.7954e-05,5.055
-1.7952e-05,5.055
-1.7950e-05,5.055
-1.7948e-05,5.055
-1.7946e-05,5.055
-1.7944e-05,5.055
-1.7942e-05,5.055
-1.7940e-05,5.055
-1.7938e-05,5.055
-1.7936e-05,5.055
-1.7934e-05,5.055
-1.7932e-05,5.055
-1.7930e-05,5.055
-1.7928e-05,5.055
-1.7926e-05,5.055
-1.7924e-05,5.055
-1.7922e-05,5.055
-1.7920e-05,5.055
-1.7918e-05,5.055
-1.7916e-05,5.055
-1.7914e-05,5.055
-1.7912e-05,5.055
-1.7910e-05,5.055
-1.7908e-05,5.055
-1.7906e-05,5.055
-1.7904e-05,5.055
-1.7902e-05,5.055
-1.7900e-05,5.055
-1.7898e-05,5.055
-1.7896e-05,5.055
-1.7894e-05,5.055
-1.7892e-05,5.055
-1.7890e-05,5.055
-1.7888e-05,5.055
-1.7886e-05,5.055
-1.7884e-05,5.055
-1.7882e-05,5.055
-1.7880e-05,5.055
-1.7878e-05,5.055
-1.7876e-05,5.055
-1.7874e-05,5.055
-1.7872e-05,5.055
-1.7870e-05,5.055
-1.7868e-05,5.055
-1.7866e-05,5.055
-1.7864e-05,5.055
-1.7862e-05,5.055
-1.7860e-05,5.055
-1.7858e-05,5.055
-1.7856e-05,5.055
-1.7854e-05,5.055
-1.7852e-05,5.055
-1.7850e-05,5.055
-1.7848e-05,5.055
-1.7846e-05,5.055
