expt2025/半導体レーザ/data/3-1_6_25kHz.CSV

Model,TBS1052C
Firmware Version,v2015-08-04-prequal4ch70_v1.3

Point Format,Y
Horizontal Units,S
Horizontal Scale,2e-05
Sample Interval,1.6e-08
Filter Frequency,2e+08
Record Length,20000
Gating,0.0% to 100.0%
Probe Attenuation,10
Vertical Units,V
Vertical Offset,0
Vertical Scale,1.5
Label,
TIME,CH1
-1.6000e-04,-0.045
-1.5998e-04,-0.045
-1.5997e-04,-0.045
-1.5995e-04,-0.045
-1.5994e-04,-0.045
-1.5992e-04,-0.045
-1.5990e-04,-0.045
-1.5989e-04,-0.045
-1.5987e-04,-0.045
-1.5986e-04,-0.045
-1.5984e-04,-0.045
-1.5982e-04,-0.045
-1.5981e-04,-0.045
-1.5979e-04,-0.045
-1.5978e-04,-0.045
-1.5976e-04,-0.045
-1.5974e-04,0.015
-1.5973e-04,-0.045
-1.5971e-04,-0.045
-1.5970e-04,-0.045
-1.5968e-04,0.075
-1.5966e-04,1.155
-1.5965e-04,2.415
-1.5963e-04,3.675
-1.5962e-04,4.815
-1.5960e-04,5.055
-1.5958e-04,5.055
-1.5957e-04,5.055
-1.5955e-04,5.055
-1.5954e-04,5.055
-1.5952e-04,5.055
-1.5950e-04,5.055
-1.5949e-04,5.055
-1.5947e-04,5.055
-1.5946e-04,5.055
-1.5944e-04,5.055
-1.5942e-04,5.055
-1.5941e-04,5.055
-1.5939e-04,5.055
-1.5938e-04,5.055
-1.5936e-04,5.055
-1.5934e-04,5.055
-1.5933e-04,5.055
-1.5931e-04,5.055
-1.5930e-04,5.055
-1.5928e-04,5.055
-1.5926e-04,5.055
-1.5925e-04,5.055
-1.5923e-04,5.055
-1.5922e-04,5.055
-1.5920e-04,5.055
-1.5918e-04,5.055
-1.5917e-04,5.055
-1.5915e-04,5.055
-1.5914e-04,5.055
-1.5912e-04,5.055
-1.5910e-04,5.055
-1.5909e-04,5.055
-1.5907e-04,5.055
-1.5906e-04,5.055
-1.5904e-04,5.055
-1.5902e-04,5.055
-1.5901e-04,5.055
-1.5899e-04,5.055
-1.5898e-04,5.055
-1.5896e-04,5.055
-1.5894e-04,5.055
-1.5893e-04,5.055
-1.5891e-04,5.055
-1.5890e-04,5.055
-1.5888e-04,5.055
-1.5886e-04,5.055
-1.5885e-04,5.055
-1.5883e-04,5.055
-1.5882e-04,5.055
-1.5880e-04,5.055
-1.5878e-04,5.055
-1.5877e-04,5.055
-1.5875e-04,5.055
-1.5874e-04,5.055
-1.5872e-04,5.055
-1.5870e-04,5.055
-1.5869e-04,5.055
-1.5867e-04,5.055
-1.5866e-04,5.055
-1.5864e-04,5.055
-1.5862e-04,5.055
-1.5861e-04,5.055
-1.5859e-04,5.055
-1.5858e-04,5.055
-1.5856e-04,5.055
-1.5854e-04,5.055
-1.5853e-04,5.055
-1.5851e-04,5.055
-1.5850e-04,5.055
-1.5848e-04,5.055
-1.5846e-04,5.055
-1.5845e-04,5.055
-1.5843e-04,5.055
-1.5842e-04,5.055
-1.5840e-04,5.055
-1.5838e-04,5.055
-1.5837e-04,5.055
-1.5835e-04,5.055
-1.5834e-04,5.055
-1.5832e-04,5.055
-1.5830e-04,5.055
-1.5829e-04,5.055
-1.5827e-04,5.055
-1.5826e-04,5.055
-1.5824e-04,5.055
-1.5822e-04,4.995
-1.5821e-04,5.055
-1.5819e-04,5.055
-1.5818e-04,5.055
-1.5816e-04,5.055
-1.5814e-04,5.055
-1.5813e-04,5.055
-1.5811e-04,5.055
-1.5810e-04,5.055
-1.5808e-04,5.055
-1.5806e-04,5.055
-1.5805e-04,5.055
-1.5803e-04,5.055
-1.5802e-04,5.055
-1.5800e-04,5.055
-1.5798e-04,5.055
-1.5797e-04,5.055
-1.5795e-04,5.055
-1.5794e-04,5.055
-1.5792e-04,5.055
-1.5790e-04,5.055
-1.5789e-04,5.055
-1.5787e-04,5.055
-1.5786e-04,5.055
-1.5784e-04,5.055
-1.5782e-04,5.055
-1.5781e-04,5.055
-1.5779e-04,5.055
-1.5778e-04,5.055
-1.5776e-04,5.055
-1.5774e-04,5.055
-1.5773e-04,5.055
-1.5771e-04,5.055
-1.5770e-04,5.055
-1.5768e-04,5.055
-1.5766e-04,5.055
-1.5765e-04,5.055
-1.5763e-04,5.055
-1.5762e-04,5.055
-1.5760e-04,5.055
-1.5758e-04,5.055
-1.5757e-04,5.055
-1.5755e-04,5.055
-1.5754e-04,5.055
-1.5752e-04,5.055
-1.5750e-04,5.055
-1.5749e-04,5.055
-1.5747e-04,5.055
-1.5746e-04,5.055
-1.5744e-04,5.055
-1.5742e-04,5.055
-1.5741e-04,5.055
-1.5739e-04,5.055
-1.5738e-04,5.055
-1.5736e-04,5.055
-1.5734e-04,5.055
-1.5733e-04,5.055
-1.5731e-04,5.055
-1.5730e-04,5.055
-1.5728e-04,5.055
-1.5726e-04,5.055
-1.5725e-04,5.055
-1.5723e-04,5.055
-1.5722e-04,5.055
-1.5720e-04,5.055
-1.5718e-04,5.055
-1.5717e-04,5.055
-1.5715e-04,5.055
-1.5714e-04,5.055
-1.5712e-04,5.055
-1.5710e-04,5.055
-1.5709e-04,5.055
-1.5707e-04,5.055
-1.5706e-04,5.055
-1.5704e-04,5.055
-1.5702e-04,5.055
-1.5701e-04,5.055
-1.5699e-04,5.055
-1.5698e-04,5.055
-1.5696e-04,5.055
-1.5694e-04,5.055
-1.5693e-04,5.055
-1.5691e-04,5.055
-1.5690e-04,5.055
-1.5688e-04,5.055
-1.5686e-04,5.055
-1.5685e-04,5.055
-1.5683e-04,5.055
-1.5682e-04,5.055
-1.5680e-04,4.995
-1.5678e-04,5.055
-1.5677e-04,4.995
-1.5675e-04,5.055
-1.5674e-04,5.055
-1.5672e-04,5.055
-1.5670e-04,5.055
-1.5669e-04,5.055
-1.5667e-04,5.055
-1.5666e-04,5.055
-1.5664e-04,5.055
-1.5662e-04,5.055
-1.5661e-04,5.055
-1.5659e-04,5.055
-1.5658e-04,5.055
-1.5656e-04,5.055
-1.5654e-04,5.055
-1.5653e-04,4.995
-1.5651e-04,5.055
-1.5650e-04,5.055
-1.5648e-04,5.055
-1.5646e-04,5.055
-1.5645e-04,5.055
-1.5643e-04,5.055
-1.5642e-04,4.995
-1.5640e-04,5.055
-1.5638e-04,5.055
-1.5637e-04,5.055
-1.5635e-04,4.995
-1.5634e-04,5.055
-1.5632e-04,5.055
-1.5630e-04,5.055
-1.5629e-04,5.055
-1.5627e-04,4.995
-1.5626e-04,5.055
-1.5624e-04,5.055
-1.5622e-04,5.055
-1.5621e-04,5.055
-1.5619e-04,5.055
-1.5618e-04,5.055
-1.5616e-04,5.055
-1.5614e-04,5.055
-1.5613e-04,5.055
-1.5611e-04,5.055
-1.5610e-04,5.055
-1.5608e-04,5.055
-1.5606e-04,5.055
-1.5605e-04,5.055
-1.5603e-04,5.055
-1.5602e-04,5.055
-1.5600e-04,5.055
-1.5598e-04,5.055
-1.5597e-04,5.055
-1.5595e-04,5.055
-1.5594e-04,5.055
-1.5592e-04,5.055
-1.5590e-04,4.995
-1.5589e-04,5.055
-1.5587e-04,4.995
-1.5586e-04,4.035
-1.5584e-04,2.775
-1.5582e-04,1.575
-1.5581e-04,0.255
-1.5579e-04,-0.045
-1.5578e-04,-0.045
-1.5576e-04,-0.045
-1.5574e-04,-0.045
-1.5573e-04,-0.045
-1.5571e-04,-0.045
-1.5570e-04,-0.045
-1.5568e-04,-0.045
-1.5566e-04,-0.045
-1.5565e-04,-0.045
-1.5563e-04,-0.045
-1.5562e-04,-0.045
-1.5560e-04,-0.045
-1.5558e-04,-0.045
-1.5557e-04,-0.045
-1.5555e-04,-0.045
-1.5554e-04,-0.045
-1.5552e-04,-0.045
-1.5550e-04,-0.045
-1.5549e-04,-0.045
-1.5547e-04,-0.045
-1.5546e-04,-0.045
-1.5544e-04,-0.045
-1.5542e-04,-0.045
-1.5541e-04,-0.045
-1.5539e-04,-0.045
-1.5538e-04,-0.045
-1.5536e-04,-0.045
-1.5534e-04,-0.045
-1.5533e-04,-0.045
-1.5531e-04,-0.045
-1.5530e-04,-0.045
-1.5528e-04,-0.045
-1.5526e-04,-0.045
-1.5525e-04,-0.045
-1.5523e-04,0.135
-1.5522e-04,1.335
-1.5520e-04,2.535
-1.5518e-04,3.855
-1.5517e-04,4.995
-1.5515e-04,5.055
-1.5514e-04,5.055
-1.5512e-04,5.055
-1.5510e-04,5.055
-1.5509e-04,5.055
-1.5507e-04,5.055
-1.5506e-04,4.995
-1.5504e-04,5.055
-1.5502e-04,5.055
-1.5501e-04,5.055
-1.5499e-04,5.055
-1.5498e-04,5.055
-1.5496e-04,5.055
-1.5494e-04,5.055
-1.5493e-04,5.055
-1.5491e-04,5.055
-1.5490e-04,5.055
-1.5488e-04,5.055
-1.5486e-04,5.055
-1.5485e-04,5.055
-1.5483e-04,5.055
-1.5482e-04,5.055
-1.5480e-04,5.055
-1.5478e-04,5.055
-1.5477e-04,5.055
-1.5475e-04,5.055
-1.5474e-04,5.055
-1.5472e-04,5.055
-1.5470e-04,5.055
-1.5469e-04,5.055
-1.5467e-04,5.055
-1.5466e-04,5.055
-1.5464e-04,5.055
-1.5462e-04,5.055
-1.5461e-04,5.055
-1.5459e-04,4.515
-1.5458e-04,3.195
-1.5456e-04,1.995
-1.5454e-04,0.735
-1.5453e-04,-0.045
-1.5451e-04,-0.045
-1.5450e-04,-0.045
-1.5448e-04,-0.045
-1.5446e-04,-0.045
-1.5445e-04,-0.045
-1.5443e-04,-0.045
-1.5442e-04,-0.045
-1.5440e-04,-0.045
-1.5438e-04,-0.045
-1.5437e-04,-0.045
-1.5435e-04,-0.045
-1.5434e-04,-0.045
-1.5432e-04,-0.045
-1.5430e-04,-0.045
-1.5429e-04,-0.045
-1.5427e-04,-0.045
-1.5426e-04,-0.045
-1.5424e-04,-0.045
-1.5422e-04,-0.045
-1.5421e-04,-0.045
-1.5419e-04,-0.045
-1.5418e-04,-0.045
-1.5416e-04,-0.045
-1.5414e-04,-0.045
-1.5413e-04,-0.045
-1.5411e-04,-0.045
-1.5410e-04,-0.045
-1.5408e-04,-0.045
-1.5406e-04,-0.045
-1.5405e-04,-0.045
-1.5403e-04,-0.045
-1.5402e-04,-0.045
-1.5400e-04,-0.045
-1.5398e-04,-0.045
-1.5397e-04,-0.045
-1.5395e-04,0.915
-1.5394e-04,2.115
-1.5392e-04,3.375
-1.5390e-04,4.755
-1.5389e-04,5.055
-1.5387e-04,5.055
-1.5386e-04,5.055
-1.5384e-04,5.055
-1.5382e-04,5.055
-1.5381e-04,5.055
-1.5379e-04,5.055
-1.5378e-04,5.055
-1.5376e-04,5.055
-1.5374e-04,5.055
-1.5373e-04,5.055
-1.5371e-04,5.055
-1.5370e-04,5.055
-1.5368e-04,5.055
-1.5366e-04,5.055
-1.5365e-04,5.055
-1.5363e-04,5.055
-1.5362e-04,5.055
-1.5360e-04,5.055
-1.5358e-04,5.055
-1.5357e-04,4.995
-1.5355e-04,5.055
-1.5354e-04,5.055
-1.5352e-04,5.055
-1.5350e-04,5.055
-1.5349e-04,5.055
-1.5347e-04,5.055
-1.5346e-04,5.055
-1.5344e-04,4.995
-1.5342e-04,5.055
-1.5341e-04,5.055
-1.5339e-04,4.995
-1.5338e-04,5.055
-1.5336e-04,5.055
-1.5334e-04,5.055
-1.5333e-04,4.995
-1.5331e-04,3.675
-1.5330e-04,2.415
-1.5328e-04,1.035
-1.5326e-04,0.075
-1.5325e-04,-0.045
-1.5323e-04,-0.045
-1.5322e-04,-0.045
-1.5320e-04,-0.045
-1.5318e-04,-0.045
-1.5317e-04,-0.045
-1.5315e-04,-0.045
-1.5314e-04,-0.045
-1.5312e-04,-0.045
-1.5310e-04,-0.045
-1.5309e-04,-0.045
-1.5307e-04,-0.045
-1.5306e-04,-0.045
-1.5304e-04,-0.045
-1.5302e-04,-0.045
-1.5301e-04,-0.045
-1.5299e-04,-0.045
-1.5298e-04,-0.045
-1.5296e-04,-0.045
-1.5294e-04,-0.045
-1.5293e-04,-0.045
-1.5291e-04,-0.045
-1.5290e-04,-0.045
-1.5288e-04,-0.045
-1.5286e-04,-0.045
-1.5285e-04,-0.045
-1.5283e-04,-0.045
-1.5282e-04,-0.045
-1.5280e-04,-0.045
-1.5278e-04,-0.045
-1.5277e-04,-0.045
-1.5275e-04,-0.045
-1.5274e-04,-0.045
-1.5272e-04,-0.045
-1.5270e-04,-0.045
-1.5269e-04,0.495
-1.5267e-04,1.695
-1.5266e-04,3.015
-1.5264e-04,4.275
-1.5262e-04,4.995
-1.5261e-04,5.055
-1.5259e-04,5.055
-1.5258e-04,5.055
-1.5256e-04,5.055
-1.5254e-04,5.055
-1.5253e-04,5.055
-1.5251e-04,5.055
-1.5250e-04,5.055
-1.5248e-04,5.055
-1.5246e-04,5.055
-1.5245e-04,5.055
-1.5243e-04,5.055
-1.5242e-04,5.055
-1.5240e-04,5.055
-1.5238e-04,5.055
-1.5237e-04,5.055
-1.5235e-04,5.055
-1.5234e-04,5.055
-1.5232e-04,5.055
-1.5230e-04,5.055
-1.5229e-04,5.055
-1.5227e-04,5.055
-1.5226e-04,5.055
-1.5224e-04,5.055
-1.5222e-04,5.055
-1.5221e-04,5.055
-1.5219e-04,5.055
-1.5218e-04,5.055
-1.5216e-04,5.055
-1.5214e-04,5.055
-1.5213e-04,5.055
-1.5211e-04,5.055
-1.5210e-04,5.055
-1.5208e-04,5.055
-1.5206e-04,5.055
-1.5205e-04,5.055
-1.5203e-04,5.055
-1.5202e-04,5.055
-1.5200e-04,5.055
-1.5198e-04,5.055
-1.5197e-04,5.055
-1.5195e-04,5.055
-1.5194e-04,5.055
-1.5192e-04,5.055
-1.5190e-04,5.055
-1.5189e-04,5.055
-1.5187e-04,5.055
-1.5186e-04,5.055
-1.5184e-04,5.055
-1.5182e-04,5.055
-1.5181e-04,5.055
-1.5179e-04,5.055
-1.5178e-04,5.055
-1.5176e-04,5.055
-1.5174e-04,5.055
-1.5173e-04,5.055
-1.5171e-04,4.995
-1.5170e-04,5.055
-1.5168e-04,5.055
-1.5166e-04,5.055
-1.5165e-04,5.055
-1.5163e-04,5.055
-1.5162e-04,5.055
-1.5160e-04,5.055
-1.5158e-04,5.055
-1.5157e-04,4.995
-1.5155e-04,5.055
-1.5154e-04,4.995
-1.5152e-04,5.055
-1.5150e-04,5.055
-1.5149e-04,5.055
-1.5147e-04,5.055
-1.5146e-04,5.055
-1.5144e-04,5.055
-1.5142e-04,4.935
-1.5141e-04,3.675
-1.5139e-04,2.415
-1.5138e-04,1.095
-1.5136e-04,0.015
-1.5134e-04,-0.045
-1.5133e-04,-0.045
-1.5131e-04,-0.045
-1.5130e-04,-0.045
-1.5128e-04,-0.045
-1.5126e-04,-0.045
-1.5125e-04,-0.045
-1.5123e-04,-0.045
-1.5122e-04,-0.045
-1.5120e-04,-0.045
-1.5118e-04,-0.045
-1.5117e-04,-0.045
-1.5115e-04,-0.045
-1.5114e-04,-0.045
-1.5112e-04,-0.045
-1.5110e-04,-0.045
-1.5109e-04,-0.045
-1.5107e-04,-0.045
-1.5106e-04,-0.045
-1.5104e-04,-0.045
-1.5102e-04,-0.045
-1.5101e-04,-0.045
-1.5099e-04,-0.045
-1.5098e-04,-0.045
-1.5096e-04,-0.045
-1.5094e-04,-0.045
-1.5093e-04,-0.045
-1.5091e-04,-0.045
-1.5090e-04,-0.045
-1.5088e-04,-0.045
-1.5086e-04,-0.045
-1.5085e-04,-0.045
-1.5083e-04,-0.045
-1.5082e-04,-0.045
-1.5080e-04,-0.045
-1.5078e-04,-0.045
-1.5077e-04,-0.045
-1.5075e-04,-0.045
-1.5074e-04,-0.045
-1.5072e-04,-0.045
-1.5070e-04,-0.045
-1.5069e-04,-0.045
-1.5067e-04,-0.045
-1.5066e-04,-0.045
-1.5064e-04,-0.045
-1.5062e-04,-0.045
-1.5061e-04,-0.045
-1.5059e-04,-0.045
-1.5058e-04,-0.045
-1.5056e-04,-0.045
-1.5054e-04,-0.045
-1.5053e-04,-0.045
-1.5051e-04,-0.045
-1.5050e-04,-0.045
-1.5048e-04,-0.045
-1.5046e-04,-0.045
-1.5045e-04,-0.045
-1.5043e-04,-0.045
-1.5042e-04,-0.045
-1.5040e-04,-0.045
-1.5038e-04,-0.045
-1.5037e-04,-0.045
-1.5035e-04,-0.045
-1.5034e-04,-0.045
-1.5032e-04,-0.045
-1.5030e-04,-0.045
-1.5029e-04,-0.045
-1.5027e-04,-0.045
-1.5026e-04,-0.045
-1.5024e-04,-0.045
-1.5022e-04,-0.045
-1.5021e-04,-0.045
-1.5019e-04,-0.045
-1.5018e-04,-0.045
-1.5016e-04,-0.045
-1.5014e-04,0.855
-1.5013e-04,2.055
-1.5011e-04,3.435
-1.5010e-04,4.695
-1.5008e-04,5.055
-1.5006e-04,5.055
-1.5005e-04,5.055
-1.5003e-04,5.055
-1.5002e-04,5.055
-1.5000e-04,5.055
-1.4998e-04,5.055
-1.4997e-04,5.055
-1.4995e-04,5.055
-1.4994e-04,5.055
-1.4992e-04,5.055
-1.4990e-04,5.055
-1.4989e-04,5.055
-1.4987e-04,5.055
-1.4986e-04,5.055
-1.4984e-04,5.055
-1.4982e-04,5.055
-1.4981e-04,5.055
-1.4979e-04,5.055
-1.4978e-04,5.055
-1.4976e-04,5.055
-1.4974e-04,5.055
-1.4973e-04,5.055
-1.4971e-04,5.055
-1.4970e-04,5.055
-1.4968e-04,5.055
-1.4966e-04,5.055
-1.4965e-04,5.055
-1.4963e-04,5.055
-1.4962e-04,5.055
-1.4960e-04,5.055
-1.4958e-04,5.055
-1.4957e-04,5.055
-1.4955e-04,5.055
-1.4954e-04,5.055
-1.4952e-04,5.055
-1.4950e-04,5.055
-1.4949e-04,5.055
-1.4947e-04,5.055
-1.4946e-04,5.055
-1.4944e-04,5.055
-1.4942e-04,5.055
-1.4941e-04,5.055
-1.4939e-04,5.055
-1.4938e-04,5.055
-1.4936e-04,5.055
-1.4934e-04,5.055
-1.4933e-04,5.055
-1.4931e-04,5.055
-1.4930e-04,5.055
-1.4928e-04,5.055
-1.4926e-04,5.055
-1.4925e-04,5.055
-1.4923e-04,5.055
-1.4922e-04,5.055
-1.4920e-04,5.055
-1.4918e-04,5.055
-1.4917e-04,5.055
-1.4915e-04,5.055
-1.4914e-04,4.995
-1.4912e-04,5.055
-1.4910e-04,5.055
-1.4909e-04,5.055
-1.4907e-04,5.055
-1.4906e-04,5.055
-1.4904e-04,5.055
-1.4902e-04,4.995
-1.4901e-04,5.055
-1.4899e-04,5.055
-1.4898e-04,5.055
-1.4896e-04,4.995
-1.4894e-04,5.055
-1.4893e-04,5.055
-1.4891e-04,5.055
-1.4890e-04,5.055
-1.4888e-04,4.755
-1.4886e-04,3.555
-1.4885e-04,2.235
-1.4883e-04,0.915
-1.4882e-04,0.015
-1.4880e-04,-0.045
-1.4878e-04,-0.045
-1.4877e-04,-0.045
-1.4875e-04,-0.045
-1.4874e-04,-0.045
-1.4872e-04,-0.045
-1.4870e-04,-0.045
-1.4869e-04,-0.045
-1.4867e-04,-0.045
-1.4866e-04,-0.045
-1.4864e-04,-0.045
-1.4862e-04,-0.045
-1.4861e-04,-0.045
-1.4859e-04,-0.045
-1.4858e-04,-0.045
-1.4856e-04,-0.045
-1.4854e-04,-0.045
-1.4853e-04,-0.045
-1.4851e-04,-0.045
-1.4850e-04,-0.045
-1.4848e-04,-0.045
-1.4846e-04,-0.045
-1.4845e-04,-0.045
-1.4843e-04,-0.045
-1.4842e-04,-0.045
-1.4840e-04,-0.045
-1.4838e-04,-0.045
-1.4837e-04,-0.045
-1.4835e-04,-0.045
-1.4834e-04,-0.045
-1.4832e-04,-0.045
-1.4830e-04,-0.045
-1.4829e-04,-0.045
-1.4827e-04,-0.045
-1.4826e-04,-0.045
-1.4824e-04,0.615
-1.4822e-04,1.815
-1.4821e-04,3.195
-1.4819e-04,4.455
-1.4818e-04,4.995
-1.4816e-04,5.055
-1.4814e-04,5.055
-1.4813e-04,5.055
-1.4811e-04,5.055
-1.4810e-04,5.055
-1.4808e-04,5.055
-1.4806e-04,5.055
-1.4805e-04,5.055
-1.4803e-04,5.055
-1.4802e-04,5.055
-1.4800e-04,5.055
-1.4798e-04,5.055
-1.4797e-04,5.055
-1.4795e-04,5.055
-1.4794e-04,5.055
-1.4792e-04,5.055
-1.4790e-04,5.055
-1.4789e-04,5.055
-1.4787e-04,5.055
-1.4786e-04,5.055
-1.4784e-04,5.055
-1.4782e-04,5.055
-1.4781e-04,5.055
-1.4779e-04,5.055
-1.4778e-04,5.055
-1.4776e-04,5.055
-1.4774e-04,5.055
-1.4773e-04,5.055
-1.4771e-04,5.055
-1.4770e-04,5.055
-1.4768e-04,5.055
-1.4766e-04,5.055
-1.4765e-04,5.055
-1.4763e-04,5.055
-1.4762e-04,5.055
-1.4760e-04,5.055
-1.4758e-04,5.055
-1.4757e-04,5.055
-1.4755e-04,5.055
-1.4754e-04,5.055
-1.4752e-04,5.055
-1.4750e-04,5.055
-1.4749e-04,5.055
-1.4747e-04,5.055
-1.4746e-04,5.055
-1.4744e-04,5.055
-1.4742e-04,5.055
-1.4741e-04,5.055
-1.4739e-04,5.055
-1.4738e-04,5.055
-1.4736e-04,5.055
-1.4734e-04,5.055
-1.4733e-04,5.055
-1.4731e-04,5.055
-1.4730e-04,5.055
-1.4728e-04,5.055
-1.4726e-04,5.055
-1.4725e-04,5.055
-1.4723e-04,5.055
-1.4722e-04,5.055
-1.4720e-04,5.055
-1.4718e-04,5.055
-1.4717e-04,5.055
-1.4715e-04,5.055
-1.4714e-04,5.055
-1.4712e-04,5.055
-1.4710e-04,5.055
-1.4709e-04,5.055
-1.4707e-04,5.055
-1.4706e-04,5.055
-1.4704e-04,5.055
-1.4702e-04,5.055
-1.4701e-04,5.055
-1.4699e-04,5.055
-1.4698e-04,5.055
-1.4696e-04,5.055
-1.4694e-04,5.055
-1.4693e-04,5.055
-1.4691e-04,5.055
-1.4690e-04,5.055
-1.4688e-04,5.055
-1.4686e-04,5.055
-1.4685e-04,5.055
-1.4683e-04,5.055
-1.4682e-04,4.995
-1.4680e-04,5.055
-1.4678e-04,5.055
-1.4677e-04,5.055
-1.4675e-04,5.055
-1.4674e-04,5.055
-1.4672e-04,5.055
-1.4670e-04,5.055
-1.4669e-04,5.055
-1.4667e-04,5.055
-1.4666e-04,5.055
-1.4664e-04,5.055
-1.4662e-04,4.995
-1.4661e-04,5.055
-1.4659e-04,5.055
-1.4658e-04,5.055
-1.4656e-04,5.055
-1.4654e-04,5.055
-1.4653e-04,5.055
-1.4651e-04,5.055
-1.4650e-04,5.055
-1.4648e-04,5.055
-1.4646e-04,5.055
-1.4645e-04,5.055
-1.4643e-04,5.055
-1.4642e-04,5.055
-1.4640e-04,5.055
-1.4638e-04,5.055
-1.4637e-04,5.055
-1.4635e-04,5.055
-1.4634e-04,4.395
-1.4632e-04,3.135
-1.4630e-04,1.755
-1.4629e-04,0.555
-1.4627e-04,-0.045
-1.4626e-04,-0.045
-1.4624e-04,-0.045
-1.4622e-04,-0.045
-1.4621e-04,-0.045
-1.4619e-04,-0.045
-1.4618e-04,-0.045
-1.4616e-04,-0.045
-1.4614e-04,-0.045
-1.4613e-04,-0.045
-1.4611e-04,-0.045
-1.4610e-04,-0.045
-1.4608e-04,-0.045
-1.4606e-04,-0.045
-1.4605e-04,-0.045
-1.4603e-04,-0.045
-1.4602e-04,-0.045
-1.4600e-04,-0.045
-1.4598e-04,-0.045
-1.4597e-04,-0.045
-1.4595e-04,-0.045
-1.4594e-04,-0.045
-1.4592e-04,-0.045
-1.4590e-04,-0.045
-1.4589e-04,-0.045
-1.4587e-04,-0.045
-1.4586e-04,-0.045
-1.4584e-04,-0.045
-1.4582e-04,-0.045
-1.4581e-04,-0.045
-1.4579e-04,-0.045
-1.4578e-04,-0.045
-1.4576e-04,-0.045
-1.4574e-04,-0.045
-1.4573e-04,-0.045
-1.4571e-04,0.015
-1.4570e-04,0.975
-1.4568e-04,2.295
-1.4566e-04,3.615
-1.4565e-04,4.755
-1.4563e-04,5.055
-1.4562e-04,5.055
-1.4560e-04,5.055
-1.4558e-04,5.055
-1.4557e-04,5.055
-1.4555e-04,5.055
-1.4554e-04,5.055
-1.4552e-04,5.055
-1.4550e-04,5.055
-1.4549e-04,5.055
-1.4547e-04,5.055
-1.4546e-04,5.055
-1.4544e-04,5.055
-1.4542e-04,5.055
-1.4541e-04,5.055
-1.4539e-04,5.055
-1.4538e-04,5.055
-1.4536e-04,5.055
-1.4534e-04,5.055
-1.4533e-04,5.055
-1.4531e-04,5.055
-1.4530e-04,5.055
-1.4528e-04,5.055
-1.4526e-04,5.055
-1.4525e-04,5.055
-1.4523e-04,5.055
-1.4522e-04,5.055
-1.4520e-04,5.055
-1.4518e-04,5.055
-1.4517e-04,5.055
-1.4515e-04,5.055
-1.4514e-04,5.055
-1.4512e-04,5.055
-1.4510e-04,5.055
-1.4509e-04,5.055
-1.4507e-04,5.055
-1.4506e-04,5.055
-1.4504e-04,5.055
-1.4502e-04,5.055
-1.4501e-04,5.055
-1.4499e-04,5.055
-1.4498e-04,5.055
-1.4496e-04,5.055
-1.4494e-04,5.055
-1.4493e-04,5.055
-1.4491e-04,5.055
-1.4490e-04,5.055
-1.4488e-04,5.055
-1.4486e-04,5.055
-1.4485e-04,5.055
-1.4483e-04,5.055
-1.4482e-04,5.055
-1.4480e-04,5.055
-1.4478e-04,5.055
-1.4477e-04,5.055
-1.4475e-04,5.055
-1.4474e-04,5.055
-1.4472e-04,5.055
-1.4470e-04,5.055
-1.4469e-04,5.055
-1.4467e-04,5.055
-1.4466e-04,5.055
-1.4464e-04,5.055
-1.4462e-04,4.995
-1.4461e-04,5.055
-1.4459e-04,5.055
-1.4458e-04,5.055
-1.4456e-04,5.055
-1.4454e-04,5.055
-1.4453e-04,5.055
-1.4451e-04,5.055
-1.4450e-04,5.055
-1.4448e-04,5.055
-1.4446e-04,5.055
-1.4445e-04,5.055
-1.4443e-04,4.455
-1.4442e-04,3.135
-1.4440e-04,1.815
-1.4438e-04,0.615
-1.4437e-04,-0.045
-1.4435e-04,-0.045
-1.4434e-04,-0.045
-1.4432e-04,-0.045
-1.4430e-04,-0.045
-1.4429e-04,-0.045
-1.4427e-04,-0.045
-1.4426e-04,-0.045
-1.4424e-04,-0.045
-1.4422e-04,-0.045
-1.4421e-04,-0.045
-1.4419e-04,-0.045
-1.4418e-04,-0.045
-1.4416e-04,-0.045
-1.4414e-04,-0.045
-1.4413e-04,-0.045
-1.4411e-04,-0.045
-1.4410e-04,-0.045
-1.4408e-04,-0.045
-1.4406e-04,-0.045
-1.4405e-04,-0.045
-1.4403e-04,-0.045
-1.4402e-04,-0.045
-1.4400e-04,-0.045
-1.4398e-04,-0.045
-1.4397e-04,-0.045
-1.4395e-04,-0.045
-1.4394e-04,-0.045
-1.4392e-04,-0.045
-1.4390e-04,-0.045
-1.4389e-04,-0.045
-1.4387e-04,-0.045
-1.4386e-04,-0.045
-1.4384e-04,0.015
-1.4382e-04,-0.045
-1.4381e-04,0.015
-1.4379e-04,0.975
-1.4378e-04,2.295
-1.4376e-04,3.555
-1.4374e-04,4.755
-1.4373e-04,5.055
-1.4371e-04,4.995
-1.4370e-04,5.055
-1.4368e-04,4.995
-1.4366e-04,5.055
-1.4365e-04,5.055
-1.4363e-04,5.055
-1.4362e-04,5.055
-1.4360e-04,5.055
-1.4358e-04,5.055
-1.4357e-04,5.055
-1.4355e-04,5.055
-1.4354e-04,5.055
-1.4352e-04,5.055
-1.4350e-04,5.055
-1.4349e-04,5.055
-1.4347e-04,4.995
-1.4346e-04,5.055
-1.4344e-04,5.055
-1.4342e-04,5.055
-1.4341e-04,5.055
-1.4339e-04,5.055
-1.4338e-04,5.055
-1.4336e-04,5.055
-1.4334e-04,5.055
-1.4333e-04,5.055
-1.4331e-04,5.055
-1.4330e-04,5.055
-1.4328e-04,5.055
-1.4326e-04,4.995
-1.4325e-04,5.055
-1.4323e-04,5.055
-1.4322e-04,5.055
-1.4320e-04,5.055
-1.4318e-04,5.055
-1.4317e-04,4.815
-1.4315e-04,3.675
-1.4314e-04,2.235
-1.4312e-04,1.035
-1.4310e-04,-0.045
-1.4309e-04,-0.045
-1.4307e-04,-0.045
-1.4306e-04,-0.045
-1.4304e-04,-0.045
-1.4302e-04,-0.045
-1.4301e-04,-0.045
-1.4299e-04,-0.045
-1.4298e-04,-0.045
-1.4296e-04,-0.045
-1.4294e-04,-0.045
-1.4293e-04,-0.045
-1.4291e-04,-0.045
-1.4290e-04,-0.045
-1.4288e-04,-0.045
-1.4286e-04,-0.045
-1.4285e-04,-0.045
-1.4283e-04,-0.045
-1.4282e-04,-0.045
-1.4280e-04,-0.045
