expt2025/半導体レーザ/data/3-2_3_50kHz.CSV

Model,TBS1052C
Firmware Version,v2015-08-04-prequal4ch70_v1.3

Point Format,Y
Horizontal Units,S
Horizontal Scale,1e-05
Sample Interval,8e-09
Filter Frequency,2e+08
Record Length,20000
Gating,0.0% to 100.0%
Probe Attenuation,10
Vertical Units,V
Vertical Offset,0
Vertical Scale,4.98
Label,
TIME,CH1
-8.0000e-05,5.1792
-7.9992e-05,5.1792
-7.9984e-05,5.1792
-7.9976e-05,5.1792
-7.9968e-05,4.98
-7.9960e-05,4.98
-7.9952e-05,4.98
-7.9944e-05,4.98
-7.9936e-05,4.98
-7.9928e-05,4.98
-7.9920e-05,4.98
-7.9912e-05,4.7808
-7.9904e-05,4.7808
-7.9896e-05,4.98
-7.9888e-05,4.7808
-7.9880e-05,4.7808
-7.9872e-05,4.7808
-7.9864e-05,4.7808
-7.9856e-05,4.7808
-7.9848e-05,4.7808
-7.9840e-05,4.7808
-7.9832e-05,4.7808
-7.9824e-05,4.7808
-7.9816e-05,4.7808
-7.9808e-05,4.7808
-7.9800e-05,4.7808
-7.9792e-05,4.7808
-7.9784e-05,4.5816
-7.9776e-05,4.5816
-7.9768e-05,4.7808
-7.9760e-05,4.7808
-7.9752e-05,4.5816
-7.9744e-05,4.5816
-7.9736e-05,4.5816
-7.9728e-05,4.5816
-7.9720e-05,4.5816
-7.9712e-05,4.5816
-7.9704e-05,4.5816
-7.9696e-05,4.5816
-7.9688e-05,4.5816
-7.9680e-05,4.5816
-7.9672e-05,4.5816
-7.9664e-05,4.5816
-7.9656e-05,4.5816
-7.9648e-05,4.5816
-7.9640e-05,4.5816
-7.9632e-05,4.5816
-7.9624e-05,4.5816
-7.9616e-05,4.5816
-7.9608e-05,4.5816
-7.9600e-05,4.5816
-7.9592e-05,4.5816
-7.9584e-05,4.5816
-7.9576e-05,4.5816
-7.9568e-05,4.5816
-7.9560e-05,4.5816
-7.9552e-05,4.5816
-7.9544e-05,4.5816
-7.9536e-05,4.5816
-7.9528e-05,4.5816
-7.9520e-05,4.5816
-7.9512e-05,4.5816
-7.9504e-05,4.5816
-7.9496e-05,4.5816
-7.9488e-05,4.5816
-7.9480e-05,4.5816
-7.9472e-05,4.5816
-7.9464e-05,4.5816
-7.9456e-05,4.5816
-7.9448e-05,4.5816
-7.9440e-05,4.5816
-7.9432e-05,4.5816
-7.9424e-05,4.5816
-7.9416e-05,4.5816
-7.9408e-05,4.5816
-7.9400e-05,4.5816
-7.9392e-05,4.5816
-7.9384e-05,4.7808
-7.9376e-05,4.7808
-7.9368e-05,4.5816
-7.9360e-05,4.5816
-7.9352e-05,4.5816
-7.9344e-05,4.5816
-7.9336e-05,4.5816
-7.9328e-05,4.5816
-7.9320e-05,4.5816
-7.9312e-05,4.5816
-7.9304e-05,4.5816
-7.9296e-05,4.5816
-7.9288e-05,4.5816
-7.9280e-05,4.5816
-7.9272e-05,4.5816
-7.9264e-05,4.3824
-7.9256e-05,4.3824
-7.9248e-05,4.3824
-7.9240e-05,4.3824
-7.9232e-05,4.3824
-7.9224e-05,4.3824
-7.9216e-05,4.3824
-7.9208e-05,4.3824
-7.9200e-05,4.3824
-7.9192e-05,4.3824
-7.9184e-05,4.3824
-7.9176e-05,4.3824
-7.9168e-05,4.3824
-7.9160e-05,4.3824
-7.9152e-05,4.1832
-7.9144e-05,4.1832
-7.9136e-05,4.3824
-7.9128e-05,4.3824
-7.9120e-05,4.1832
-7.9112e-05,4.1832
-7.9104e-05,4.1832
-7.9096e-05,4.1832
-7.9088e-05,4.1832
-7.9080e-05,4.1832
-7.9072e-05,4.1832
-7.9064e-05,4.1832
-7.9056e-05,4.1832
-7.9048e-05,4.1832
-7.9040e-05,4.1832
-7.9032e-05,4.1832
-7.9024e-05,4.1832
-7.9016e-05,4.1832
-7.9008e-05,4.1832
-7.9000e-05,4.1832
-7.8992e-05,4.1832
-7.8984e-05,3.984
-7.8976e-05,3.984
-7.8968e-05,3.984
-7.8960e-05,3.984
-7.8952e-05,3.984
-7.8944e-05,3.984
-7.8936e-05,3.984
-7.8928e-05,3.984
-7.8920e-05,3.984
-7.8912e-05,3.984
-7.8904e-05,3.984
-7.8896e-05,3.984
-7.8888e-05,3.984
-7.8880e-05,3.984
-7.8872e-05,3.984
-7.8864e-05,3.984
-7.8856e-05,3.984
-7.8848e-05,3.984
-7.8840e-05,3.984
-7.8832e-05,3.984
-7.8824e-05,3.984
-7.8816e-05,3.984
-7.8808e-05,3.984
-7.8800e-05,3.984
-7.8792e-05,3.984
-7.8784e-05,3.984
-7.8776e-05,3.984
-7.8768e-05,3.984
-7.8760e-05,3.984
-7.8752e-05,3.984
-7.8744e-05,3.984
-7.8736e-05,3.984
-7.8728e-05,3.984
-7.8720e-05,3.984
-7.8712e-05,3.984
-7.8704e-05,3.984
-7.8696e-05,3.984
-7.8688e-05,4.1832
-7.8680e-05,4.1832
-7.8672e-05,4.1832
-7.8664e-05,4.1832
-7.8656e-05,4.1832
-7.8648e-05,4.1832
-7.8640e-05,3.984
-7.8632e-05,3.984
-7.8624e-05,3.984
-7.8616e-05,3.984
-7.8608e-05,4.1832
-7.8600e-05,4.1832
-7.8592e-05,4.1832
-7.8584e-05,4.1832
-7.8576e-05,3.984
-7.8568e-05,3.984
-7.8560e-05,3.984
-7.8552e-05,3.984
-7.8544e-05,3.984
-7.8536e-05,3.984
-7.8528e-05,3.984
-7.8520e-05,3.984
-7.8512e-05,4.1832
-7.8504e-05,4.1832
-7.8496e-05,3.984
-7.8488e-05,3.984
-7.8480e-05,3.984
-7.8472e-05,3.984
-7.8464e-05,3.984
-7.8456e-05,3.984
-7.8448e-05,3.984
-7.8440e-05,3.984
-7.8432e-05,3.984
-7.8424e-05,3.984
-7.8416e-05,3.984
-7.8408e-05,3.984
-7.8400e-05,3.984
-7.8392e-05,3.984
-7.8384e-05,3.984
-7.8376e-05,3.984
-7.8368e-05,3.984
-7.8360e-05,3.984
-7.8352e-05,3.984
-7.8344e-05,3.984
-7.8336e-05,3.7848
-7.8328e-05,3.7848
-7.8320e-05,3.7848
-7.8312e-05,3.7848
-7.8304e-05,3.7848
-7.8296e-05,3.7848
-7.8288e-05,3.7848
-7.8280e-05,3.7848
-7.8272e-05,3.7848
-7.8264e-05,3.7848
-7.8256e-05,3.7848
-7.8248e-05,3.7848
-7.8240e-05,3.7848
-7.8232e-05,3.7848
-7.8224e-05,3.7848
-7.8216e-05,3.7848
-7.8208e-05,3.7848
-7.8200e-05,3.7848
-7.8192e-05,3.7848
-7.8184e-05,3.7848
-7.8176e-05,3.7848
-7.8168e-05,3.7848
-7.8160e-05,3.7848
-7.8152e-05,3.7848
-7.8144e-05,3.7848
-7.8136e-05,3.7848
-7.8128e-05,3.7848
-7.8120e-05,3.7848
-7.8112e-05,3.7848
-7.8104e-05,3.7848
-7.8096e-05,3.7848
-7.8088e-05,3.7848
-7.8080e-05,3.7848
-7.8072e-05,3.7848
-7.8064e-05,3.7848
-7.8056e-05,3.7848
-7.8048e-05,3.7848
-7.8040e-05,3.7848
-7.8032e-05,3.7848
-7.8024e-05,3.7848
-7.8016e-05,3.7848
-7.8008e-05,3.7848
-7.8000e-05,3.7848
-7.7992e-05,3.7848
-7.7984e-05,3.7848
-7.7976e-05,3.7848
-7.7968e-05,3.7848
-7.7960e-05,3.7848
-7.7952e-05,3.7848
-7.7944e-05,3.7848
-7.7936e-05,3.7848
-7.7928e-05,3.7848
-7.7920e-05,3.7848
-7.7912e-05,3.7848
-7.7904e-05,3.7848
-7.7896e-05,3.7848
-7.7888e-05,3.7848
-7.7880e-05,3.7848
-7.7872e-05,3.7848
-7.7864e-05,3.7848
-7.7856e-05,3.7848
-7.7848e-05,3.7848
-7.7840e-05,3.7848
-7.7832e-05,3.7848
-7.7824e-05,3.7848
-7.7816e-05,3.7848
-7.7808e-05,3.7848
-7.7800e-05,3.7848
-7.7792e-05,3.7848
-7.7784e-05,3.7848
-7.7776e-05,3.7848
-7.7768e-05,3.7848
-7.7760e-05,3.7848
-7.7752e-05,3.7848
-7.7744e-05,3.7848
-7.7736e-05,3.7848
-7.7728e-05,3.5856
-7.7720e-05,3.5856
-7.7712e-05,3.7848
-7.7704e-05,3.5856
-7.7696e-05,3.5856
-7.7688e-05,3.7848
-7.7680e-05,3.7848
-7.7672e-05,3.5856
-7.7664e-05,3.5856
-7.7656e-05,3.5856
-7.7648e-05,3.5856
-7.7640e-05,3.5856
-7.7632e-05,3.5856
-7.7624e-05,3.5856
-7.7616e-05,3.5856
-7.7608e-05,3.5856
-7.7600e-05,3.5856
-7.7592e-05,3.5856
-7.7584e-05,3.5856
-7.7576e-05,3.5856
-7.7568e-05,3.5856
-7.7560e-05,3.5856
-7.7552e-05,3.5856
-7.7544e-05,3.5856
-7.7536e-05,3.5856
-7.7528e-05,3.5856
-7.7520e-05,3.5856
-7.7512e-05,3.5856
-7.7504e-05,3.5856
-7.7496e-05,3.5856
-7.7488e-05,3.5856
-7.7480e-05,3.5856
-7.7472e-05,3.5856
-7.7464e-05,3.3864
-7.7456e-05,3.3864
-7.7448e-05,3.3864
-7.7440e-05,3.5856
-7.7432e-05,3.5856
-7.7424e-05,3.3864
-7.7416e-05,3.3864
-7.7408e-05,3.3864
-7.7400e-05,3.3864
-7.7392e-05,3.3864
-7.7384e-05,3.3864
-7.7376e-05,3.3864
-7.7368e-05,3.3864
-7.7360e-05,3.3864
-7.7352e-05,3.3864
-7.7344e-05,3.3864
-7.7336e-05,3.3864
-7.7328e-05,3.3864
-7.7320e-05,3.3864
-7.7312e-05,3.3864
-7.7304e-05,3.3864
-7.7296e-05,3.3864
-7.7288e-05,3.3864
-7.7280e-05,3.3864
-7.7272e-05,3.3864
-7.7264e-05,3.3864
-7.7256e-05,3.3864
-7.7248e-05,3.3864
-7.7240e-05,3.3864
-7.7232e-05,3.3864
-7.7224e-05,3.3864
-7.7216e-05,3.3864
-7.7208e-05,3.3864
-7.7200e-05,3.3864
-7.7192e-05,3.3864
-7.7184e-05,3.3864
-7.7176e-05,3.3864
-7.7168e-05,3.3864
-7.7160e-05,3.3864
-7.7152e-05,3.3864
-7.7144e-05,3.5856
-7.7136e-05,3.5856
-7.7128e-05,3.3864
-7.7120e-05,3.3864
-7.7112e-05,3.3864
-7.7104e-05,3.3864
-7.7096e-05,3.3864
-7.7088e-05,3.5856
-7.7080e-05,3.5856
-7.7072e-05,3.3864
-7.7064e-05,3.3864
-7.7056e-05,3.3864
-7.7048e-05,3.5856
-7.7040e-05,3.5856
-7.7032e-05,3.3864
-7.7024e-05,3.3864
-7.7016e-05,3.5856
-7.7008e-05,3.3864
-7.7000e-05,3.5856
-7.6992e-05,3.5856
-7.6984e-05,3.5856
-7.6976e-05,3.5856
-7.6968e-05,3.5856
-7.6960e-05,3.5856
-7.6952e-05,3.5856
-7.6944e-05,3.5856
-7.6936e-05,3.5856
-7.6928e-05,3.5856
-7.6920e-05,3.5856
-7.6912e-05,3.5856
-7.6904e-05,3.5856
-7.6896e-05,3.3864
-7.6888e-05,3.5856
-7.6880e-05,3.5856
-7.6872e-05,3.5856
-7.6864e-05,3.5856
-7.6856e-05,3.5856
-7.6848e-05,3.5856
-7.6840e-05,3.5856
-7.6832e-05,3.3864
-7.6824e-05,3.5856
-7.6816e-05,3.5856
-7.6808e-05,3.5856
-7.6800e-05,3.5856
-7.6792e-05,3.5856
-7.6784e-05,3.3864
-7.6776e-05,3.3864
-7.6768e-05,3.5856
-7.6760e-05,3.3864
-7.6752e-05,3.5856
-7.6744e-05,3.5856
-7.6736e-05,3.3864
-7.6728e-05,3.5856
-7.6720e-05,3.5856
-7.6712e-05,3.5856
-7.6704e-05,3.5856
-7.6696e-05,3.5856
-7.6688e-05,3.5856
-7.6680e-05,3.5856
-7.6672e-05,3.5856
-7.6664e-05,3.5856
-7.6656e-05,3.3864
-7.6648e-05,3.3864
-7.6640e-05,3.3864
-7.6632e-05,3.3864
-7.6624e-05,3.5856
-7.6616e-05,3.3864
-7.6608e-05,3.5856
-7.6600e-05,3.5856
-7.6592e-05,3.5856
-7.6584e-05,3.5856
-7.6576e-05,3.5856
-7.6568e-05,3.5856
-7.6560e-05,3.5856
-7.6552e-05,3.3864
-7.6544e-05,3.3864
-7.6536e-05,3.5856
-7.6528e-05,3.5856
-7.6520e-05,3.5856
-7.6512e-05,3.5856
-7.6504e-05,3.5856
-7.6496e-05,3.5856
-7.6488e-05,3.5856
-7.6480e-05,3.5856
-7.6472e-05,3.5856
-7.6464e-05,3.5856
-7.6456e-05,3.5856
-7.6448e-05,3.5856
-7.6440e-05,3.5856
-7.6432e-05,3.5856
-7.6424e-05,3.5856
-7.6416e-05,3.5856
-7.6408e-05,3.5856
-7.6400e-05,3.5856
-7.6392e-05,3.5856
-7.6384e-05,3.5856
-7.6376e-05,3.5856
-7.6368e-05,3.5856
-7.6360e-05,3.5856
-7.6352e-05,3.5856
-7.6344e-05,3.5856
-7.6336e-05,3.5856
-7.6328e-05,3.5856
-7.6320e-05,3.5856
-7.6312e-05,3.5856
-7.6304e-05,3.7848
-7.6296e-05,3.5856
-7.6288e-05,3.5856
-7.6280e-05,3.5856
-7.6272e-05,3.5856
-7.6264e-05,3.7848
-7.6256e-05,3.7848
-7.6248e-05,3.7848
-7.6240e-05,3.7848
-7.6232e-05,3.7848
-7.6224e-05,3.7848
-7.6216e-05,3.7848
-7.6208e-05,3.7848
-7.6200e-05,3.7848
-7.6192e-05,3.7848
-7.6184e-05,3.7848
-7.6176e-05,3.7848
-7.6168e-05,3.7848
-7.6160e-05,3.7848
-7.6152e-05,3.5856
-7.6144e-05,3.7848
-7.6136e-05,3.5856
-7.6128e-05,3.5856
-7.6120e-05,3.7848
-7.6112e-05,3.7848
-7.6104e-05,3.7848
-7.6096e-05,3.7848
-7.6088e-05,3.7848
-7.6080e-05,3.5856
-7.6072e-05,3.5856
-7.6064e-05,3.7848
-7.6056e-05,3.5856
-7.6048e-05,3.7848
-7.6040e-05,3.5856
-7.6032e-05,3.7848
-7.6024e-05,3.5856
-7.6016e-05,3.5856
-7.6008e-05,3.7848
-7.6000e-05,3.5856
-7.5992e-05,3.5856
-7.5984e-05,3.5856
-7.5976e-05,3.5856
-7.5968e-05,3.5856
-7.5960e-05,3.5856
-7.5952e-05,3.5856
-7.5944e-05,3.5856
-7.5936e-05,3.5856
-7.5928e-05,3.5856
-7.5920e-05,3.5856
-7.5912e-05,3.5856
-7.5904e-05,3.5856
-7.5896e-05,3.5856
-7.5888e-05,3.5856
-7.5880e-05,3.5856
-7.5872e-05,3.5856
-7.5864e-05,3.7848
-7.5856e-05,3.5856
-7.5848e-05,3.5856
-7.5840e-05,3.5856
-7.5832e-05,3.5856
-7.5824e-05,3.5856
-7.5816e-05,3.5856
-7.5808e-05,3.5856
-7.5800e-05,3.5856
-7.5792e-05,3.5856
-7.5784e-05,3.7848
-7.5776e-05,3.5856
-7.5768e-05,3.5856
-7.5760e-05,3.5856
-7.5752e-05,3.5856
-7.5744e-05,3.5856
-7.5736e-05,3.5856
-7.5728e-05,3.5856
-7.5720e-05,3.5856
-7.5712e-05,3.5856
-7.5704e-05,3.5856
-7.5696e-05,3.5856
-7.5688e-05,3.5856
-7.5680e-05,3.7848
-7.5672e-05,3.5856
-7.5664e-05,3.5856
-7.5656e-05,3.5856
-7.5648e-05,3.5856
-7.5640e-05,3.5856
-7.5632e-05,3.5856
-7.5624e-05,3.5856
-7.5616e-05,3.5856
-7.5608e-05,3.7848
-7.5600e-05,3.7848
-7.5592e-05,3.5856
-7.5584e-05,3.5856
-7.5576e-05,3.5856
-7.5568e-05,3.7848
-7.5560e-05,3.7848
-7.5552e-05,3.7848
-7.5544e-05,3.7848
-7.5536e-05,3.5856
-7.5528e-05,3.7848
-7.5520e-05,3.7848
-7.5512e-05,3.7848
-7.5504e-05,3.7848
-7.5496e-05,3.5856
-7.5488e-05,3.7848
-7.5480e-05,3.7848
-7.5472e-05,3.7848
-7.5464e-05,3.7848
-7.5456e-05,3.7848
-7.5448e-05,3.7848
-7.5440e-05,3.7848
-7.5432e-05,3.7848
-7.5424e-05,3.7848
-7.5416e-05,3.7848
-7.5408e-05,3.7848
-7.5400e-05,3.7848
-7.5392e-05,3.7848
-7.5384e-05,3.7848
-7.5376e-05,3.7848
-7.5368e-05,3.7848
-7.5360e-05,3.7848
-7.5352e-05,3.7848
-7.5344e-05,3.7848
-7.5336e-05,3.7848
-7.5328e-05,3.7848
-7.5320e-05,3.7848
-7.5312e-05,3.7848
-7.5304e-05,3.7848
-7.5296e-05,3.7848
-7.5288e-05,3.7848
-7.5280e-05,3.7848
-7.5272e-05,3.7848
-7.5264e-05,3.7848
-7.5256e-05,3.7848
-7.5248e-05,3.7848
-7.5240e-05,3.7848
-7.5232e-05,3.7848
-7.5224e-05,3.7848
-7.5216e-05,3.7848
-7.5208e-05,3.7848
-7.5200e-05,3.7848
-7.5192e-05,3.7848
-7.5184e-05,3.7848
-7.5176e-05,3.7848
-7.5168e-05,3.7848
-7.5160e-05,3.7848
-7.5152e-05,3.7848
-7.5144e-05,3.7848
-7.5136e-05,3.7848
-7.5128e-05,3.7848
-7.5120e-05,3.7848
-7.5112e-05,3.7848
-7.5104e-05,3.7848
-7.5096e-05,3.7848
-7.5088e-05,3.7848
-7.5080e-05,3.7848
-7.5072e-05,3.7848
-7.5064e-05,3.7848
-7.5056e-05,3.7848
-7.5048e-05,3.7848
-7.5040e-05,3.7848
-7.5032e-05,3.984
-7.5024e-05,3.984
-7.5016e-05,3.984
-7.5008e-05,3.984
-7.5000e-05,3.984
-7.4992e-05,3.984
-7.4984e-05,3.984
-7.4976e-05,3.984
-7.4968e-05,3.984
-7.4960e-05,3.984
-7.4952e-05,3.984
-7.4944e-05,3.984
-7.4936e-05,3.984
-7.4928e-05,3.984
-7.4920e-05,3.984
-7.4912e-05,3.984
-7.4904e-05,3.984
-7.4896e-05,3.984
-7.4888e-05,4.1832
-7.4880e-05,4.1832
-7.4872e-05,4.1832
-7.4864e-05,3.984
-7.4856e-05,3.984
-7.4848e-05,4.1832
-7.4840e-05,4.1832
-7.4832e-05,4.1832
-7.4824e-05,4.1832
-7.4816e-05,4.1832
-7.4808e-05,4.1832
-7.4800e-05,4.1832
-7.4792e-05,4.1832
-7.4784e-05,4.1832
-7.4776e-05,4.1832
-7.4768e-05,4.1832
-7.4760e-05,4.1832
-7.4752e-05,4.1832
-7.4744e-05,4.1832
-7.4736e-05,4.1832
-7.4728e-05,4.1832
-7.4720e-05,4.1832
-7.4712e-05,4.1832
-7.4704e-05,4.1832
-7.4696e-05,4.1832
-7.4688e-05,4.1832
-7.4680e-05,4.1832
-7.4672e-05,4.1832
-7.4664e-05,4.1832
-7.4656e-05,4.1832
-7.4648e-05,4.1832
-7.4640e-05,4.1832
-7.4632e-05,4.3824
-7.4624e-05,4.3824
-7.4616e-05,4.3824
-7.4608e-05,4.3824
-7.4600e-05,4.3824
-7.4592e-05,4.3824
-7.4584e-05,4.3824
-7.4576e-05,4.3824
-7.4568e-05,4.3824
-7.4560e-05,4.3824
-7.4552e-05,4.3824
-7.4544e-05,4.3824
-7.4536e-05,4.3824
-7.4528e-05,4.3824
-7.4520e-05,4.3824
-7.4512e-05,4.3824
-7.4504e-05,4.3824
-7.4496e-05,4.3824
-7.4488e-05,4.3824
-7.4480e-05,4.3824
-7.4472e-05,4.5816
-7.4464e-05,4.5816
-7.4456e-05,4.5816
-7.4448e-05,4.5816
-7.4440e-05,4.5816
-7.4432e-05,4.5816
-7.4424e-05,4.5816
-7.4416e-05,4.5816
-7.4408e-05,4.5816
-7.4400e-05,4.5816
-7.4392e-05,4.3824
-7.4384e-05,4.3824
-7.4376e-05,4.3824
-7.4368e-05,4.3824
-7.4360e-05,4.3824
-7.4352e-05,4.3824
-7.4344e-05,4.5816
-7.4336e-05,4.5816
-7.4328e-05,4.5816
-7.4320e-05,4.7808
-7.4312e-05,4.5816
-7.4304e-05,4.7808
-7.4296e-05,4.7808
-7.4288e-05,4.7808
-7.4280e-05,4.5816
-7.4272e-05,4.5816
-7.4264e-05,4.5816
-7.4256e-05,4.5816
-7.4248e-05,4.3824
-7.4240e-05,4.3824
-7.4232e-05,4.1832
-7.4224e-05,4.3824
-7.4216e-05,4.3824
-7.4208e-05,4.3824
-7.4200e-05,4.5816
-7.4192e-05,4.5816
-7.4184e-05,4.5816
-7.4176e-05,4.5816
-7.4168e-05,4.5816
-7.4160e-05,4.5816
-7.4152e-05,4.5816
-7.4144e-05,4.5816
-7.4136e-05,4.5816
-7.4128e-05,4.5816
-7.4120e-05,4.5816
-7.4112e-05,4.3824
-7.4104e-05,4.3824
-7.4096e-05,4.3824
-7.4088e-05,4.3824
-7.4080e-05,4.3824
-7.4072e-05,4.3824
-7.4064e-05,4.3824
-7.4056e-05,4.5816
-7.4048e-05,4.5816
-7.4040e-05,4.5816
-7.4032e-05,4.5816
-7.4024e-05,4.5816
-7.4016e-05,4.5816
-7.4008e-05,4.5816
-7.4000e-05,4.5816
-7.3992e-05,4.5816
-7.3984e-05,4.5816
-7.3976e-05,4.5816
-7.3968e-05,4.5816
-7.3960e-05,4.5816
-7.3952e-05,4.5816
-7.3944e-05,4.5816
-7.3936e-05,4.5816
-7.3928e-05,4.5816
-7.3920e-05,4.5816
-7.3912e-05,4.5816
-7.3904e-05,4.5816
-7.3896e-05,4.5816
-7.3888e-05,4.7808
-7.3880e-05,4.7808
-7.3872e-05,4.7808
-7.3864e-05,4.7808
-7.3856e-05,4.7808
-7.3848e-05,4.7808
-7.3840e-05,4.5816
-7.3832e-05,4.7808
-7.3824e-05,4.7808
-7.3816e-05,4.5816
-7.3808e-05,4.5816
-7.3800e-05,4.7808
-7.3792e-05,4.7808
-7.3784e-05,4.7808
-7.3776e-05,4.7808
-7.3768e-05,4.7808
-7.3760e-05,4.7808
-7.3752e-05,4.7808
-7.3744e-05,4.98
-7.3736e-05,4.98
-7.3728e-05,4.98
-7.3720e-05,4.7808
-7.3712e-05,4.7808
-7.3704e-05,4.7808
-7.3696e-05,4.7808
-7.3688e-05,4.7808
-7.3680e-05,4.7808
-7.3672e-05,4.7808
-7.3664e-05,4.7808
-7.3656e-05,4.98
-7.3648e-05,4.98
-7.3640e-05,4.98
-7.3632e-05,4.98
-7.3624e-05,4.98
-7.3616e-05,4.98
-7.3608e-05,4.98
-7.3600e-05,4.98
-7.3592e-05,4.98
-7.3584e-05,4.98
-7.3576e-05,4.98
-7.3568e-05,4.98
-7.3560e-05,4.98
-7.3552e-05,4.98
-7.3544e-05,4.98
-7.3536e-05,4.98
-7.3528e-05,4.98
-7.3520e-05,4.98
-7.3512e-05,4.98
-7.3504e-05,4.98
-7.3496e-05,4.98
-7.3488e-05,4.98
-7.3480e-05,4.98
-7.3472e-05,4.98
-7.3464e-05,4.98
-7.3456e-05,4.98
-7.3448e-05,4.98
-7.3440e-05,4.98
-7.3432e-05,4.98
-7.3424e-05,4.98
-7.3416e-05,4.98
-7.3408e-05,4.98
-7.3400e-05,4.98
-7.3392e-05,4.98
-7.3384e-05,4.98
-7.3376e-05,4.98
-7.3368e-05,4.98
-7.3360e-05,4.98
-7.3352e-05,4.98
-7.3344e-05,4.98
-7.3336e-05,4.98
-7.3328e-05,4.98
-7.3320e-05,4.98
-7.3312e-05,5.1792
-7.3304e-05,5.1792
-7.3296e-05,5.1792
-7.3288e-05,5.1792
-7.3280e-05,5.1792
-7.3272e-05,5.1792
-7.3264e-05,4.98
-7.3256e-05,4.98
-7.3248e-05,5.1792
-7.3240e-05,5.1792
-7.3232e-05,5.1792
-7.3224e-05,5.1792
-7.3216e-05,5.1792
-7.3208e-05,5.1792
-7.3200e-05,5.1792
-7.3192e-05,5.1792
-7.3184e-05,5.1792
-7.3176e-05,5.1792
-7.3168e-05,5.1792
-7.3160e-05,5.1792
-7.3152e-05,5.1792
-7.3144e-05,5.3784
-7.3136e-05,5.1792
-7.3128e-05,5.1792
-7.3120e-05,5.3784
-7.3112e-05,5.3784
-7.3104e-05,5.3784
-7.3096e-05,5.3784
-7.3088e-05,5.1792
-7.3080e-05,5.1792
-7.3072e-05,5.3784
-7.3064e-05,5.3784
-7.3056e-05,5.3784
-7.3048e-05,5.1792
-7.3040e-05,5.1792
-7.3032e-05,5.3784
-7.3024e-05,5.3784
-7.3016e-05,5.3784
-7.3008e-05,5.3784
-7.3000e-05,5.3784
-7.2992e-05,5.3784
-7.2984e-05,5.3784
-7.2976e-05,5.3784
-7.2968e-05,5.3784
-7.2960e-05,5.3784
-7.2952e-05,5.3784
-7.2944e-05,5.3784
-7.2936e-05,5.1792
-7.2928e-05,5.1792
-7.2920e-05,5.1792
-7.2912e-05,5.1792
-7.2904e-05,5.3784
-7.2896e-05,5.1792
-7.2888e-05,5.3784
-7.2880e-05,5.3784
-7.2872e-05,5.3784
-7.2864e-05,5.3784
-7.2856e-05,5.3784
-7.2848e-05,5.3784
-7.2840e-05,5.3784
-7.2832e-05,5.5776
-7.2824e-05,5.5776
-7.2816e-05,5.5776
-7.2808e-05,5.5776
-7.2800e-05,5.7768
-7.2792e-05,5.5776
-7.2784e-05,5.5776
-7.2776e-05,5.7768
-7.2768e-05,5.7768
-7.2760e-05,5.7768
-7.2752e-05,5.7768
-7.2744e-05,5.7768
-7.2736e-05,5.976
-7.2728e-05,5.976
-7.2720e-05,5.976
-7.2712e-05,5.976
-7.2704e-05,5.976
-7.2696e-05,5.976
-7.2688e-05,5.976
-7.2680e-05,5.976
-7.2672e-05,5.976
-7.2664e-05,5.976
-7.2656e-05,5.976
-7.2648e-05,6.1752
-7.2640e-05,5.976
-7.2632e-05,5.976
-7.2624e-05,5.976
-7.2616e-05,5.976
-7.2608e-05,6.1752
-7.2600e-05,6.1752
-7.2592e-05,6.1752
-7.2584e-05,6.1752
-7.2576e-05,6.1752
-7.2568e-05,5.976
-7.2560e-05,5.976
-7.2552e-05,6.1752
-7.2544e-05,6.1752
-7.2536e-05,6.1752
-7.2528e-05,6.1752
-7.2520e-05,6.1752
-7.2512e-05,6.1752
-7.2504e-05,6.1752
-7.2496e-05,5.976
-7.2488e-05,5.976
-7.2480e-05,5.976
-7.2472e-05,5.976
-7.2464e-05,5.976
-7.2456e-05,5.976
-7.2448e-05,5.976
-7.2440e-05,5.976
-7.2432e-05,5.976
-7.2424e-05,5.976
-7.2416e-05,5.976
-7.2408e-05,5.976
-7.2400e-05,5.976
-7.2392e-05,5.976
-7.2384e-05,5.976
-7.2376e-05,5.976
-7.2368e-05,5.976
-7.2360e-05,5.976
-7.2352e-05,5.976
-7.2344e-05,5.976
-7.2336e-05,5.976
-7.2328e-05,5.976
-7.2320e-05,5.976
-7.2312e-05,6.1752
-7.2304e-05,5.976
-7.2296e-05,5.976
-7.2288e-05,5.976
-7.2280e-05,5.976
-7.2272e-05,6.1752
-7.2264e-05,5.976
-7.2256e-05,5.976
-7.2248e-05,6.1752
-7.2240e-05,6.1752
-7.2232e-05,6.1752
-7.2224e-05,6.1752
-7.2216e-05,6.1752
-7.2208e-05,6.1752
-7.2200e-05,6.1752
-7.2192e-05,6.1752
-7.2184e-05,6.1752
-7.2176e-05,6.1752
-7.2168e-05,6.1752
-7.2160e-05,6.1752
-7.2152e-05,6.1752
-7.2144e-05,6.1752
-7.2136e-05,6.1752
-7.2128e-05,6.1752
-7.2120e-05,6.3744
-7.2112e-05,6.1752
-7.2104e-05,6.3744
-7.2096e-05,6.3744
-7.2088e-05,6.3744
-7.2080e-05,6.3744
-7.2072e-05,6.3744
-7.2064e-05,6.3744
-7.2056e-05,6.3744
-7.2048e-05,6.3744
-7.2040e-05,6.3744
-7.2032e-05,6.3744
-7.2024e-05,6.3744
-7.2016e-05,6.3744
-7.2008e-05,6.5736
-7.2000e-05,6.5736
-7.1992e-05,6.5736
-7.1984e-05,6.5736
-7.1976e-05,6.5736
-7.1968e-05,6.5736
-7.1960e-05,6.5736
-7.1952e-05,6.5736
-7.1944e-05,6.5736
-7.1936e-05,6.5736
-7.1928e-05,6.5736
-7.1920e-05,6.5736
-7.1912e-05,6.5736
-7.1904e-05,6.5736
-7.1896e-05,6.5736
-7.1888e-05,6.5736
-7.1880e-05,6.5736
-7.1872e-05,6.7728
-7.1864e-05,6.7728
-7.1856e-05,6.5736
-7.1848e-05,6.5736
-7.1840e-05,6.5736
-7.1832e-05,6.7728
-7.1824e-05,6.7728
-7.1816e-05,6.7728
-7.1808e-05,6.5736
-7.1800e-05,6.5736
-7.1792e-05,6.5736
-7.1784e-05,6.5736
-7.1776e-05,6.5736
-7.1768e-05,6.5736
-7.1760e-05,6.5736
-7.1752e-05,6.5736
-7.1744e-05,6.7728
-7.1736e-05,6.5736
-7.1728e-05,6.7728
-7.1720e-05,6.7728
-7.1712e-05,6.7728
-7.1704e-05,6.5736
-7.1696e-05,6.5736
-7.1688e-05,6.5736
-7.1680e-05,6.5736
-7.1672e-05,6.5736
-7.1664e-05,6.5736
-7.1656e-05,6.7728
-7.1648e-05,6.7728
-7.1640e-05,6.7728
-7.1632e-05,6.5736
-7.1624e-05,6.5736
-7.1616e-05,6.5736
