expt2025/半導体レーザ/data/3-2_1_5kHz.CSV

Model,TBS1052C
Firmware Version,v2015-08-04-prequal4ch70_v1.3

Point Format,Y
Horizontal Units,S
Horizontal Scale,0.0002
Sample Interval,1.6e-07
Filter Frequency,2e+08
Record Length,20000
Gating,0.0% to 100.0%
Probe Attenuation,10
Vertical Units,V
Vertical Offset,0
Vertical Scale,4.98
Label,
TIME,CH1
-1.6000e-03,6.1752
-1.5998e-03,6.1752
-1.5997e-03,5.976
-1.5995e-03,5.976
-1.5994e-03,6.1752
-1.5992e-03,6.1752
-1.5990e-03,6.1752
-1.5989e-03,6.1752
-1.5987e-03,6.1752
-1.5986e-03,6.1752
-1.5984e-03,6.1752
-1.5982e-03,6.1752
-1.5981e-03,5.976
-1.5979e-03,5.976
-1.5978e-03,6.1752
-1.5976e-03,6.1752
-1.5974e-03,5.976
-1.5973e-03,6.1752
-1.5971e-03,6.1752
-1.5970e-03,6.1752
-1.5968e-03,6.1752
-1.5966e-03,6.1752
-1.5965e-03,6.1752
-1.5963e-03,6.1752
-1.5962e-03,6.1752
-1.5960e-03,6.1752
-1.5958e-03,6.1752
-1.5957e-03,5.976
-1.5955e-03,6.1752
-1.5954e-03,6.1752
-1.5952e-03,6.1752
-1.5950e-03,6.3744
-1.5949e-03,6.3744
-1.5947e-03,6.1752
-1.5946e-03,5.976
-1.5944e-03,5.976
-1.5942e-03,6.1752
-1.5941e-03,5.976
-1.5939e-03,5.976
-1.5938e-03,6.1752
-1.5936e-03,6.1752
-1.5934e-03,5.976
-1.5933e-03,6.3744
-1.5931e-03,6.1752
-1.5930e-03,6.1752
-1.5928e-03,5.976
-1.5926e-03,6.1752
-1.5925e-03,6.1752
-1.5923e-03,5.976
-1.5922e-03,5.976
-1.5920e-03,5.976
-1.5918e-03,6.1752
-1.5917e-03,6.1752
-1.5915e-03,6.1752
-1.5914e-03,5.976
-1.5912e-03,6.1752
-1.5910e-03,6.1752
-1.5909e-03,6.1752
-1.5907e-03,6.1752
-1.5906e-03,5.976
-1.5904e-03,5.976
-1.5902e-03,6.1752
-1.5901e-03,6.1752
-1.5899e-03,6.1752
-1.5898e-03,6.1752
-1.5896e-03,6.1752
-1.5894e-03,6.1752
-1.5893e-03,6.1752
-1.5891e-03,6.1752
-1.5890e-03,6.1752
-1.5888e-03,6.1752
-1.5886e-03,6.1752
-1.5885e-03,6.1752
-1.5883e-03,5.976
-1.5882e-03,5.976
-1.5880e-03,5.976
-1.5878e-03,6.1752
-1.5877e-03,6.1752
-1.5875e-03,6.1752
-1.5874e-03,5.976
-1.5872e-03,5.976
-1.5870e-03,6.1752
-1.5869e-03,6.1752
-1.5867e-03,6.1752
-1.5866e-03,5.976
-1.5864e-03,6.1752
-1.5862e-03,6.1752
-1.5861e-03,5.976
-1.5859e-03,6.1752
-1.5858e-03,6.3744
-1.5856e-03,6.1752
-1.5854e-03,5.976
-1.5853e-03,6.1752
-1.5851e-03,6.1752
-1.5850e-03,6.1752
-1.5848e-03,6.1752
-1.5846e-03,5.976
-1.5845e-03,5.976
-1.5843e-03,6.1752
-1.5842e-03,6.1752
-1.5840e-03,6.1752
-1.5838e-03,6.1752
-1.5837e-03,6.1752
-1.5835e-03,6.1752
-1.5834e-03,6.1752
-1.5832e-03,5.976
-1.5830e-03,5.976
-1.5829e-03,6.1752
-1.5827e-03,6.1752
-1.5826e-03,6.1752
-1.5824e-03,6.1752
-1.5822e-03,6.1752
-1.5821e-03,6.1752
-1.5819e-03,6.1752
-1.5818e-03,6.1752
-1.5816e-03,6.1752
-1.5814e-03,5.976
-1.5813e-03,6.1752
-1.5811e-03,6.1752
-1.5810e-03,6.1752
-1.5808e-03,6.1752
-1.5806e-03,6.1752
-1.5805e-03,6.1752
-1.5803e-03,6.1752
-1.5802e-03,6.1752
-1.5800e-03,6.3744
-1.5798e-03,6.3744
-1.5797e-03,6.1752
-1.5795e-03,6.1752
-1.5794e-03,6.1752
-1.5792e-03,6.1752
-1.5790e-03,6.1752
-1.5789e-03,6.1752
-1.5787e-03,6.1752
-1.5786e-03,5.976
-1.5784e-03,6.3744
-1.5782e-03,6.3744
-1.5781e-03,6.1752
-1.5779e-03,5.976
-1.5778e-03,6.1752
-1.5776e-03,6.3744
-1.5774e-03,6.1752
-1.5773e-03,6.1752
-1.5771e-03,5.976
-1.5770e-03,6.1752
-1.5768e-03,6.1752
-1.5766e-03,6.3744
-1.5765e-03,6.1752
-1.5763e-03,6.1752
-1.5762e-03,6.1752
-1.5760e-03,6.3744
-1.5758e-03,6.1752
-1.5757e-03,5.976
-1.5755e-03,6.1752
-1.5754e-03,6.1752
-1.5752e-03,6.1752
-1.5750e-03,6.1752
-1.5749e-03,6.1752
-1.5747e-03,6.1752
-1.5746e-03,6.1752
-1.5744e-03,6.1752
-1.5742e-03,6.1752
-1.5741e-03,6.1752
-1.5739e-03,6.1752
-1.5738e-03,6.1752
-1.5736e-03,6.1752
-1.5734e-03,6.1752
-1.5733e-03,6.1752
-1.5731e-03,6.1752
-1.5730e-03,6.1752
-1.5728e-03,6.3744
-1.5726e-03,6.5736
-1.5725e-03,6.3744
-1.5723e-03,6.1752
-1.5722e-03,6.1752
-1.5720e-03,6.1752
-1.5718e-03,6.1752
-1.5717e-03,6.1752
-1.5715e-03,6.1752
-1.5714e-03,6.1752
-1.5712e-03,6.1752
-1.5710e-03,6.1752
-1.5709e-03,6.3744
-1.5707e-03,6.3744
-1.5706e-03,6.1752
-1.5704e-03,6.1752
-1.5702e-03,6.3744
-1.5701e-03,6.3744
-1.5699e-03,6.1752
-1.5698e-03,6.1752
-1.5696e-03,6.1752
-1.5694e-03,6.3744
-1.5693e-03,6.3744
-1.5691e-03,6.3744
-1.5690e-03,6.1752
-1.5688e-03,6.3744
-1.5686e-03,6.3744
-1.5685e-03,6.3744
-1.5683e-03,6.1752
-1.5682e-03,6.1752
-1.5680e-03,6.1752
-1.5678e-03,6.1752
-1.5677e-03,6.1752
-1.5675e-03,6.1752
-1.5674e-03,6.1752
-1.5672e-03,6.3744
-1.5670e-03,6.3744
-1.5669e-03,6.3744
-1.5667e-03,6.3744
-1.5666e-03,6.3744
-1.5664e-03,6.1752
-1.5662e-03,6.3744
-1.5661e-03,6.1752
-1.5659e-03,6.1752
-1.5658e-03,6.1752
-1.5656e-03,6.3744
-1.5654e-03,6.3744
-1.5653e-03,6.3744
-1.5651e-03,6.1752
-1.5650e-03,6.1752
-1.5648e-03,6.1752
-1.5646e-03,6.3744
-1.5645e-03,6.3744
-1.5643e-03,6.3744
-1.5642e-03,6.1752
-1.5640e-03,6.1752
-1.5638e-03,6.1752
-1.5637e-03,6.1752
-1.5635e-03,6.3744
-1.5634e-03,6.5736
-1.5632e-03,6.3744
-1.5630e-03,6.1752
-1.5629e-03,6.3744
-1.5627e-03,6.3744
-1.5626e-03,6.3744
-1.5624e-03,6.1752
-1.5622e-03,6.1752
-1.5621e-03,6.3744
-1.5619e-03,6.3744
-1.5618e-03,6.3744
-1.5616e-03,6.1752
-1.5614e-03,6.1752
-1.5613e-03,6.3744
-1.5611e-03,6.5736
-1.5610e-03,6.3744
-1.5608e-03,6.3744
-1.5606e-03,6.1752
-1.5605e-03,6.3744
-1.5603e-03,6.3744
-1.5602e-03,6.3744
-1.5600e-03,6.3744
-1.5598e-03,6.3744
-1.5597e-03,6.5736
-1.5595e-03,6.5736
-1.5594e-03,6.5736
-1.5592e-03,6.3744
-1.5590e-03,6.3744
-1.5589e-03,6.3744
-1.5587e-03,6.3744
-1.5586e-03,6.3744
-1.5584e-03,6.3744
-1.5582e-03,6.3744
-1.5581e-03,6.3744
-1.5579e-03,6.3744
-1.5578e-03,6.5736
-1.5576e-03,6.5736
-1.5574e-03,6.5736
-1.5573e-03,6.3744
-1.5571e-03,6.3744
-1.5570e-03,6.3744
-1.5568e-03,6.3744
-1.5566e-03,6.3744
-1.5565e-03,6.3744
-1.5563e-03,6.3744
-1.5562e-03,6.1752
-1.5560e-03,6.5736
-1.5558e-03,6.5736
-1.5557e-03,6.3744
-1.5555e-03,6.3744
-1.5554e-03,6.3744
-1.5552e-03,6.5736
-1.5550e-03,6.3744
-1.5549e-03,6.1752
-1.5547e-03,6.1752
-1.5546e-03,6.3744
-1.5544e-03,6.5736
-1.5542e-03,6.3744
-1.5541e-03,6.3744
-1.5539e-03,6.5736
-1.5538e-03,6.5736
-1.5536e-03,6.5736
-1.5534e-03,6.5736
-1.5533e-03,6.1752
-1.5531e-03,6.3744
-1.5530e-03,6.3744
-1.5528e-03,6.5736
-1.5526e-03,6.5736
-1.5525e-03,6.3744
-1.5523e-03,6.5736
-1.5522e-03,6.5736
-1.5520e-03,6.5736
-1.5518e-03,6.5736
-1.5517e-03,6.5736
-1.5515e-03,6.3744
-1.5514e-03,6.3744
-1.5512e-03,6.5736
-1.5510e-03,6.3744
-1.5509e-03,6.3744
-1.5507e-03,6.5736
-1.5506e-03,6.3744
-1.5504e-03,6.5736
-1.5502e-03,6.7728
-1.5501e-03,6.5736
-1.5499e-03,6.3744
-1.5498e-03,6.3744
-1.5496e-03,6.3744
-1.5494e-03,6.5736
-1.5493e-03,6.5736
-1.5491e-03,6.3744
-1.5490e-03,6.5736
-1.5488e-03,6.5736
-1.5486e-03,6.5736
-1.5485e-03,6.7728
-1.5483e-03,6.7728
-1.5482e-03,6.3744
-1.5480e-03,6.5736
-1.5478e-03,6.5736
-1.5477e-03,6.5736
-1.5475e-03,6.5736
-1.5474e-03,6.3744
-1.5472e-03,6.3744
-1.5470e-03,6.5736
-1.5469e-03,6.5736
-1.5467e-03,6.5736
-1.5466e-03,6.5736
-1.5464e-03,6.5736
-1.5462e-03,6.5736
-1.5461e-03,6.5736
-1.5459e-03,6.5736
-1.5458e-03,6.5736
-1.5456e-03,6.5736
-1.5454e-03,6.5736
-1.5453e-03,6.5736
-1.5451e-03,6.5736
-1.5450e-03,6.5736
-1.5448e-03,6.5736
-1.5446e-03,6.5736
-1.5445e-03,6.5736
-1.5443e-03,6.5736
-1.5442e-03,6.5736
-1.5440e-03,6.5736
-1.5438e-03,6.5736
-1.5437e-03,6.5736
-1.5435e-03,6.5736
-1.5434e-03,6.5736
-1.5432e-03,6.5736
-1.5430e-03,6.5736
-1.5429e-03,6.5736
-1.5427e-03,6.5736
-1.5426e-03,6.3744
-1.5424e-03,6.5736
-1.5422e-03,6.5736
-1.5421e-03,6.5736
-1.5419e-03,6.5736
-1.5418e-03,6.5736
-1.5416e-03,6.5736
-1.5414e-03,6.5736
-1.5413e-03,6.3744
-1.5411e-03,6.7728
-1.5410e-03,6.972
-1.5408e-03,6.5736
-1.5406e-03,6.5736
-1.5405e-03,6.5736
-1.5403e-03,6.7728
-1.5402e-03,6.7728
-1.5400e-03,6.5736
-1.5398e-03,6.5736
-1.5397e-03,6.5736
-1.5395e-03,6.7728
-1.5394e-03,6.7728
-1.5392e-03,6.5736
-1.5390e-03,6.5736
-1.5389e-03,6.7728
-1.5387e-03,6.7728
-1.5386e-03,6.7728
-1.5384e-03,6.5736
-1.5382e-03,6.5736
-1.5381e-03,6.5736
-1.5379e-03,6.5736
-1.5378e-03,6.5736
-1.5376e-03,6.5736
-1.5374e-03,6.7728
-1.5373e-03,6.7728
-1.5371e-03,6.7728
-1.5370e-03,6.7728
-1.5368e-03,6.7728
-1.5366e-03,6.7728
-1.5365e-03,6.7728
-1.5363e-03,6.5736
-1.5362e-03,6.5736
-1.5360e-03,6.5736
-1.5358e-03,6.5736
-1.5357e-03,6.7728
-1.5355e-03,6.7728
-1.5354e-03,6.7728
-1.5352e-03,6.972
-1.5350e-03,6.972
-1.5349e-03,6.7728
-1.5347e-03,6.7728
-1.5346e-03,6.5736
-1.5344e-03,6.5736
-1.5342e-03,6.5736
-1.5341e-03,6.5736
-1.5339e-03,6.7728
-1.5338e-03,6.5736
-1.5336e-03,6.972
-1.5334e-03,6.972
-1.5333e-03,6.7728
-1.5331e-03,6.5736
-1.5330e-03,6.7728
-1.5328e-03,6.972
-1.5326e-03,6.7728
-1.5325e-03,6.5736
-1.5323e-03,6.5736
-1.5322e-03,6.7728
-1.5320e-03,6.7728
-1.5318e-03,6.7728
-1.5317e-03,6.7728
-1.5315e-03,6.7728
-1.5314e-03,6.972
-1.5312e-03,6.7728
-1.5310e-03,6.7728
-1.5309e-03,6.5736
-1.5307e-03,6.7728
-1.5306e-03,6.7728
-1.5304e-03,6.7728
-1.5302e-03,6.7728
-1.5301e-03,6.7728
-1.5299e-03,6.7728
-1.5298e-03,6.7728
-1.5296e-03,6.7728
-1.5294e-03,6.7728
-1.5293e-03,6.7728
-1.5291e-03,6.7728
-1.5290e-03,6.7728
-1.5288e-03,6.7728
-1.5286e-03,6.7728
-1.5285e-03,6.7728
-1.5283e-03,6.7728
-1.5282e-03,6.972
-1.5280e-03,6.972
-1.5278e-03,6.972
-1.5277e-03,6.972
-1.5275e-03,6.7728
-1.5274e-03,6.5736
-1.5272e-03,6.7728
-1.5270e-03,6.7728
-1.5269e-03,6.7728
-1.5267e-03,6.7728
-1.5266e-03,6.7728
-1.5264e-03,6.7728
-1.5262e-03,6.7728
-1.5261e-03,7.1712
-1.5259e-03,6.972
-1.5258e-03,6.7728
-1.5256e-03,6.7728
-1.5254e-03,6.972
-1.5253e-03,6.972
-1.5251e-03,6.7728
-1.5250e-03,6.7728
-1.5248e-03,6.7728
-1.5246e-03,6.7728
-1.5245e-03,6.972
-1.5243e-03,6.972
-1.5242e-03,6.7728
-1.5240e-03,6.7728
-1.5238e-03,6.972
-1.5237e-03,6.972
-1.5235e-03,6.7728
-1.5234e-03,6.7728
-1.5232e-03,6.7728
-1.5230e-03,6.7728
-1.5229e-03,6.7728
-1.5227e-03,6.7728
-1.5226e-03,6.7728
-1.5224e-03,6.972
-1.5222e-03,6.972
-1.5221e-03,6.972
-1.5219e-03,6.972
-1.5218e-03,6.7728
-1.5216e-03,6.7728
-1.5214e-03,6.7728
-1.5213e-03,6.7728
-1.5211e-03,6.7728
-1.5210e-03,6.7728
-1.5208e-03,6.7728
-1.5206e-03,6.972
-1.5205e-03,6.972
-1.5203e-03,6.972
-1.5202e-03,6.7728
-1.5200e-03,6.7728
-1.5198e-03,6.972
-1.5197e-03,6.972
-1.5195e-03,6.972
-1.5194e-03,6.7728
-1.5192e-03,6.7728
-1.5190e-03,6.7728
-1.5189e-03,6.7728
-1.5187e-03,6.972
-1.5186e-03,7.1712
-1.5184e-03,6.972
-1.5182e-03,6.7728
-1.5181e-03,6.972
-1.5179e-03,6.972
-1.5178e-03,6.972
-1.5176e-03,6.7728
-1.5174e-03,6.7728
-1.5173e-03,6.7728
-1.5171e-03,6.972
-1.5170e-03,6.972
-1.5168e-03,6.972
-1.5166e-03,6.972
-1.5165e-03,6.972
-1.5163e-03,6.972
-1.5162e-03,6.972
-1.5160e-03,6.972
-1.5158e-03,6.7728
-1.5157e-03,6.7728
-1.5155e-03,6.972
-1.5154e-03,6.972
-1.5152e-03,6.972
-1.5150e-03,6.972
-1.5149e-03,6.972
-1.5147e-03,6.972
-1.5146e-03,7.1712
-1.5144e-03,6.972
-1.5142e-03,6.972
-1.5141e-03,6.7728
-1.5139e-03,6.972
-1.5138e-03,6.972
-1.5136e-03,6.972
-1.5134e-03,6.972
-1.5133e-03,6.972
-1.5131e-03,6.972
-1.5130e-03,7.1712
-1.5128e-03,7.1712
-1.5126e-03,7.1712
-1.5125e-03,6.972
-1.5123e-03,6.972
-1.5122e-03,6.972
-1.5120e-03,6.7728
-1.5118e-03,6.7728
-1.5117e-03,6.7728
-1.5115e-03,6.972
-1.5114e-03,6.7728
-1.5112e-03,7.1712
-1.5110e-03,7.1712
-1.5109e-03,6.972
-1.5107e-03,6.972
-1.5106e-03,6.972
-1.5104e-03,7.1712
-1.5102e-03,6.972
-1.5101e-03,6.972
-1.5099e-03,6.7728
-1.5098e-03,6.972
-1.5096e-03,6.972
-1.5094e-03,7.1712
-1.5093e-03,6.972
-1.5091e-03,6.972
-1.5090e-03,6.972
-1.5088e-03,7.1712
-1.5086e-03,6.972
-1.5085e-03,6.972
-1.5083e-03,6.972
-1.5082e-03,6.972
-1.5080e-03,6.972
-1.5078e-03,6.972
-1.5077e-03,6.972
-1.5075e-03,6.972
-1.5074e-03,7.1712
-1.5072e-03,7.1712
-1.5070e-03,7.1712
-1.5069e-03,6.972
-1.5067e-03,6.972
-1.5066e-03,6.972
-1.5064e-03,6.972
-1.5062e-03,6.972
-1.5061e-03,6.972
-1.5059e-03,6.972
-1.5058e-03,6.972
-1.5056e-03,6.972
-1.5054e-03,7.1712
-1.5053e-03,7.1712
-1.5051e-03,6.972
-1.5050e-03,6.7728
-1.5048e-03,6.972
-1.5046e-03,6.972
-1.5045e-03,6.972
-1.5043e-03,6.972
-1.5042e-03,6.972
-1.5040e-03,6.972
-1.5038e-03,6.7728
-1.5037e-03,7.1712
-1.5035e-03,7.1712
-1.5034e-03,6.972
-1.5032e-03,6.972
-1.5030e-03,7.1712
-1.5029e-03,7.1712
-1.5027e-03,6.972
-1.5026e-03,6.7728
-1.5024e-03,6.7728
-1.5022e-03,6.972
-1.5021e-03,7.1712
-1.5019e-03,6.972
-1.5018e-03,6.972
-1.5016e-03,6.972
-1.5014e-03,7.1712
-1.5013e-03,7.1712
-1.5011e-03,6.972
-1.5010e-03,6.972
-1.5008e-03,6.972
-1.5006e-03,6.972
-1.5005e-03,6.972
-1.5003e-03,6.972
-1.5002e-03,6.972
-1.5000e-03,7.1712
-1.4998e-03,7.1712
-1.4997e-03,7.1712
-1.4995e-03,6.972
-1.4994e-03,6.972
-1.4992e-03,6.972
-1.4990e-03,6.972
-1.4989e-03,6.972
-1.4987e-03,6.972
-1.4986e-03,6.972
-1.4984e-03,7.1712
-1.4982e-03,7.1712
-1.4981e-03,7.1712
-1.4979e-03,6.972
-1.4978e-03,6.7728
-1.4976e-03,6.972
-1.4974e-03,6.972
-1.4973e-03,6.972
-1.4971e-03,7.1712
-1.4970e-03,6.972
-1.4968e-03,6.972
-1.4966e-03,6.972
-1.4965e-03,6.7728
-1.4963e-03,7.1712
-1.4962e-03,7.1712
-1.4960e-03,7.1712
-1.4958e-03,6.972
-1.4957e-03,6.972
-1.4955e-03,7.1712
-1.4954e-03,7.1712
-1.4952e-03,6.972
-1.4950e-03,6.972
-1.4949e-03,6.972
-1.4947e-03,7.1712
-1.4946e-03,7.1712
-1.4944e-03,6.972
-1.4942e-03,6.972
-1.4941e-03,7.1712
-1.4939e-03,7.1712
-1.4938e-03,7.1712
-1.4936e-03,6.972
-1.4934e-03,6.972
-1.4933e-03,6.972
-1.4931e-03,6.972
-1.4930e-03,6.972
-1.4928e-03,6.972
-1.4926e-03,6.972
-1.4925e-03,6.972
-1.4923e-03,7.1712
-1.4922e-03,7.1712
-1.4920e-03,7.1712
-1.4918e-03,6.972
-1.4917e-03,6.972
-1.4915e-03,6.972
-1.4914e-03,6.972
-1.4912e-03,6.972
-1.4910e-03,6.972
-1.4909e-03,7.1712
-1.4907e-03,7.1712
-1.4906e-03,7.1712
-1.4904e-03,7.1712
-1.4902e-03,7.1712
-1.4901e-03,7.1712
-1.4899e-03,7.1712
-1.4898e-03,6.972
-1.4896e-03,6.972
-1.4894e-03,6.972
-1.4893e-03,6.972
-1.4891e-03,6.972
-1.4890e-03,6.7728
-1.4888e-03,7.1712
-1.4886e-03,7.1712
-1.4885e-03,6.972
-1.4883e-03,6.972
-1.4882e-03,7.1712
-1.4880e-03,7.1712
-1.4878e-03,7.1712
-1.4877e-03,6.972
-1.4875e-03,6.7728
-1.4874e-03,6.972
-1.4872e-03,7.1712
-1.4870e-03,7.1712
-1.4869e-03,6.972
-1.4867e-03,6.972
-1.4866e-03,7.1712
-1.4864e-03,7.1712
-1.4862e-03,6.972
-1.4861e-03,6.972
-1.4859e-03,6.972
-1.4858e-03,6.972
-1.4856e-03,6.972
-1.4854e-03,6.972
-1.4853e-03,6.972
-1.4851e-03,6.972
-1.4850e-03,7.1712
-1.4848e-03,7.1712
-1.4846e-03,7.1712
-1.4845e-03,6.972
-1.4843e-03,6.972
-1.4842e-03,6.972
-1.4840e-03,6.972
-1.4838e-03,6.972
-1.4837e-03,6.972
-1.4835e-03,6.972
-1.4834e-03,6.972
-1.4832e-03,6.972
-1.4830e-03,7.1712
-1.4829e-03,7.1712
-1.4827e-03,6.972
-1.4826e-03,6.7728
-1.4824e-03,6.972
-1.4822e-03,6.972
-1.4821e-03,6.972
-1.4819e-03,6.7728
-1.4818e-03,6.972
-1.4816e-03,6.972
-1.4814e-03,6.972
-1.4813e-03,7.3704
-1.4811e-03,7.1712
-1.4810e-03,6.972
-1.4808e-03,6.972
-1.4806e-03,7.1712
-1.4805e-03,7.1712
-1.4803e-03,6.972
-1.4802e-03,6.7728
-1.4800e-03,6.972
-1.4798e-03,6.972
-1.4797e-03,7.1712
-1.4795e-03,6.972
-1.4794e-03,6.972
-1.4792e-03,6.972
-1.4790e-03,7.1712
-1.4789e-03,7.1712
-1.4787e-03,6.972
-1.4786e-03,6.972
-1.4784e-03,6.972
-1.4782e-03,6.972
-1.4781e-03,6.972
-1.4779e-03,6.972
-1.4778e-03,6.972
-1.4776e-03,6.972
-1.4774e-03,6.972
-1.4773e-03,6.972
-1.4771e-03,6.972
-1.4770e-03,6.972
-1.4768e-03,6.972
-1.4766e-03,6.972
-1.4765e-03,6.972
-1.4763e-03,6.972
-1.4762e-03,6.972
-1.4760e-03,6.972
-1.4758e-03,7.1712
-1.4757e-03,7.1712
-1.4755e-03,7.1712
-1.4754e-03,6.7728
-1.4752e-03,6.7728
-1.4750e-03,6.972
-1.4749e-03,6.972
-1.4747e-03,6.972
-1.4746e-03,6.7728
-1.4744e-03,6.7728
-1.4742e-03,6.7728
-1.4741e-03,6.7728
-1.4739e-03,6.972
-1.4738e-03,7.1712
-1.4736e-03,6.972
-1.4734e-03,6.972
-1.4733e-03,6.972
-1.4731e-03,6.972
-1.4730e-03,7.1712
-1.4728e-03,6.7728
-1.4726e-03,6.7728
-1.4725e-03,6.7728
-1.4723e-03,7.1712
-1.4722e-03,6.972
-1.4720e-03,6.7728
-1.4718e-03,6.7728
-1.4717e-03,6.972
-1.4715e-03,6.972
-1.4714e-03,6.972
-1.4712e-03,6.972
-1.4710e-03,6.7728
-1.4709e-03,6.7728
-1.4707e-03,6.972
-1.4706e-03,6.972
-1.4704e-03,6.972
-1.4702e-03,6.972
-1.4701e-03,6.972
-1.4699e-03,6.972
-1.4698e-03,6.972
-1.4696e-03,6.972
-1.4694e-03,6.972
-1.4693e-03,6.7728
-1.4691e-03,6.972
-1.4690e-03,6.7728
-1.4688e-03,6.7728
-1.4686e-03,6.972
-1.4685e-03,6.972
-1.4683e-03,6.972
-1.4682e-03,6.972
-1.4680e-03,6.972
-1.4678e-03,6.972
-1.4677e-03,6.972
-1.4675e-03,6.972
-1.4674e-03,6.972
-1.4672e-03,6.7728
-1.4670e-03,6.7728
-1.4669e-03,6.7728
-1.4667e-03,6.7728
-1.4666e-03,6.7728
-1.4664e-03,6.972
-1.4662e-03,7.1712
-1.4661e-03,6.972
-1.4659e-03,6.7728
-1.4658e-03,6.7728
-1.4656e-03,6.972
-1.4654e-03,6.7728
-1.4653e-03,6.7728
-1.4651e-03,6.5736
-1.4650e-03,6.7728
-1.4648e-03,6.972
-1.4646e-03,6.972
-1.4645e-03,6.7728
-1.4643e-03,6.7728
-1.4642e-03,6.972
-1.4640e-03,6.972
-1.4638e-03,6.972
-1.4637e-03,6.7728
-1.4635e-03,6.7728
-1.4634e-03,6.7728
-1.4632e-03,6.7728
-1.4630e-03,6.7728
-1.4629e-03,6.7728
-1.4627e-03,6.7728
-1.4626e-03,6.972
-1.4624e-03,6.972
-1.4622e-03,6.7728
-1.4621e-03,6.7728
-1.4619e-03,6.7728
-1.4618e-03,6.7728
-1.4616e-03,6.7728
-1.4614e-03,6.7728
-1.4613e-03,6.7728
-1.4611e-03,6.7728
-1.4610e-03,6.7728
-1.4608e-03,6.7728
-1.4606e-03,6.972
-1.4605e-03,6.972
-1.4603e-03,6.972
-1.4602e-03,6.7728
-1.4600e-03,6.7728
-1.4598e-03,6.7728
-1.4597e-03,6.7728
-1.4595e-03,6.7728
-1.4594e-03,6.7728
-1.4592e-03,6.7728
-1.4590e-03,6.5736
-1.4589e-03,6.972
-1.4587e-03,6.972
-1.4586e-03,6.7728
-1.4584e-03,6.7728
-1.4582e-03,6.7728
-1.4581e-03,6.972
-1.4579e-03,6.7728
-1.4578e-03,6.5736
-1.4576e-03,6.5736
-1.4574e-03,6.7728
-1.4573e-03,6.7728
-1.4571e-03,6.7728
-1.4570e-03,6.7728
-1.4568e-03,6.7728
-1.4566e-03,6.972
-1.4565e-03,6.7728
-1.4563e-03,6.7728
-1.4562e-03,6.7728
-1.4560e-03,6.7728
-1.4558e-03,6.7728
-1.4557e-03,6.7728
-1.4555e-03,6.7728
-1.4554e-03,6.7728
-1.4552e-03,6.7728
-1.4550e-03,6.7728
-1.4549e-03,6.7728
-1.4547e-03,6.7728
-1.4546e-03,6.7728
-1.4544e-03,6.5736
-1.4542e-03,6.7728
-1.4541e-03,6.5736
-1.4539e-03,6.5736
-1.4538e-03,6.5736
-1.4536e-03,6.7728
-1.4534e-03,6.7728
-1.4533e-03,6.7728
-1.4531e-03,6.972
-1.4530e-03,6.5736
-1.4528e-03,6.5736
-1.4526e-03,6.5736
-1.4525e-03,6.5736
-1.4523e-03,6.7728
-1.4522e-03,6.5736
-1.4520e-03,6.5736
-1.4518e-03,6.7728
-1.4517e-03,6.5736
-1.4515e-03,6.7728
-1.4514e-03,6.972
-1.4512e-03,6.7728
-1.4510e-03,6.5736
-1.4509e-03,6.5736
-1.4507e-03,6.7728
-1.4506e-03,6.7728
-1.4504e-03,6.7728
-1.4502e-03,6.5736
-1.4501e-03,6.5736
-1.4499e-03,6.7728
-1.4498e-03,6.7728
-1.4496e-03,6.5736
-1.4494e-03,6.5736
-1.4493e-03,6.5736
-1.4491e-03,6.7728
-1.4490e-03,6.7728
-1.4488e-03,6.5736
-1.4486e-03,6.5736
-1.4485e-03,6.5736
-1.4483e-03,6.5736
-1.4482e-03,6.5736
-1.4480e-03,6.5736
-1.4478e-03,6.5736
-1.4477e-03,6.7728
-1.4475e-03,6.7728
-1.4474e-03,6.7728
-1.4472e-03,6.5736
-1.4470e-03,6.5736
-1.4469e-03,6.5736
-1.4467e-03,6.5736
-1.4466e-03,6.5736
-1.4464e-03,6.5736
-1.4462e-03,6.5736
-1.4461e-03,6.5736
-1.4459e-03,6.5736
-1.4458e-03,6.5736
-1.4456e-03,6.5736
-1.4454e-03,6.5736
-1.4453e-03,6.5736
-1.4451e-03,6.5736
-1.4450e-03,6.5736
-1.4448e-03,6.5736
-1.4446e-03,6.5736
-1.4445e-03,6.5736
-1.4443e-03,6.3744
-1.4442e-03,6.3744
-1.4440e-03,6.5736
-1.4438e-03,6.7728
-1.4437e-03,6.5736
-1.4435e-03,6.5736
-1.4434e-03,6.5736
-1.4432e-03,6.7728
-1.4430e-03,6.5736
-1.4429e-03,6.5736
-1.4427e-03,6.3744
-1.4426e-03,6.5736
-1.4424e-03,6.5736
-1.4422e-03,6.5736
-1.4421e-03,6.5736
-1.4419e-03,6.5736
-1.4418e-03,6.5736
-1.4416e-03,6.7728
-1.4414e-03,6.5736
-1.4413e-03,6.5736
-1.4411e-03,6.5736
-1.4410e-03,6.3744
-1.4408e-03,6.5736
-1.4406e-03,6.5736
-1.4405e-03,6.3744
-1.4403e-03,6.5736
-1.4402e-03,6.5736
-1.4400e-03,6.5736
-1.4398e-03,6.5736
-1.4397e-03,6.5736
-1.4395e-03,6.5736
-1.4394e-03,6.5736
-1.4392e-03,6.3744
-1.4390e-03,6.3744
-1.4389e-03,6.3744
-1.4387e-03,6.5736
-1.4386e-03,6.5736
-1.4384e-03,6.5736
-1.4382e-03,6.5736
-1.4381e-03,6.5736
-1.4379e-03,6.5736
-1.4378e-03,6.5736
-1.4376e-03,6.3744
-1.4374e-03,6.5736
-1.4373e-03,6.3744
-1.4371e-03,6.3744
-1.4370e-03,6.5736
-1.4368e-03,6.3744
-1.4366e-03,6.1752
-1.4365e-03,6.7728
-1.4363e-03,6.5736
-1.4362e-03,6.5736
-1.4360e-03,6.3744
-1.4358e-03,6.5736
-1.4357e-03,6.5736
-1.4355e-03,6.3744
-1.4354e-03,6.3744
-1.4352e-03,6.3744
-1.4350e-03,6.5736
-1.4349e-03,6.5736
-1.4347e-03,6.5736
-1.4346e-03,6.3744
-1.4344e-03,6.3744
-1.4342e-03,6.5736
-1.4341e-03,6.5736
-1.4339e-03,6.3744
-1.4338e-03,6.3744
-1.4336e-03,6.3744
-1.4334e-03,6.3744
-1.4333e-03,6.3744
-1.4331e-03,6.3744
-1.4330e-03,6.3744
-1.4328e-03,6.3744
-1.4326e-03,6.3744
-1.4325e-03,6.5736
-1.4323e-03,6.5736
-1.4322e-03,6.5736
-1.4320e-03,6.3744
