expt2025/半導体レーザ/data/3-2_2_10kHz.CSV

Model,TBS1052C
Firmware Version,v2015-08-04-prequal4ch70_v1.3

Point Format,Y
Horizontal Units,S
Horizontal Scale,0.0001
Sample Interval,8e-08
Filter Frequency,2e+08
Record Length,20000
Gating,0.0% to 100.0%
Probe Attenuation,10
Vertical Units,V
Vertical Offset,0
Vertical Scale,4.98
Label,
TIME,CH1
-8.0000e-04,5.7768
-7.9992e-04,5.976
-7.9984e-04,5.5776
-7.9976e-04,5.976
-7.9968e-04,5.5776
-7.9960e-04,5.7768
-7.9952e-04,5.7768
-7.9944e-04,5.5776
-7.9936e-04,5.7768
-7.9928e-04,5.7768
-7.9920e-04,5.7768
-7.9912e-04,5.5776
-7.9904e-04,5.5776
-7.9896e-04,5.5776
-7.9888e-04,5.5776
-7.9880e-04,5.5776
-7.9872e-04,5.5776
-7.9864e-04,5.5776
-7.9856e-04,5.5776
-7.9848e-04,5.5776
-7.9840e-04,5.7768
-7.9832e-04,5.976
-7.9824e-04,5.976
-7.9816e-04,5.976
-7.9808e-04,5.7768
-7.9800e-04,5.5776
-7.9792e-04,5.7768
-7.9784e-04,5.5776
-7.9776e-04,5.5776
-7.9768e-04,5.7768
-7.9760e-04,5.7768
-7.9752e-04,5.7768
-7.9744e-04,5.7768
-7.9736e-04,5.7768
-7.9728e-04,5.5776
-7.9720e-04,5.5776
-7.9712e-04,5.5776
-7.9704e-04,5.5776
-7.9696e-04,5.5776
-7.9688e-04,5.5776
-7.9680e-04,5.7768
-7.9672e-04,5.7768
-7.9664e-04,5.7768
-7.9656e-04,5.7768
-7.9648e-04,5.7768
-7.9640e-04,5.5776
-7.9632e-04,5.5776
-7.9624e-04,5.5776
-7.9616e-04,5.5776
-7.9608e-04,5.7768
-7.9600e-04,5.7768
-7.9592e-04,5.7768
-7.9584e-04,5.7768
-7.9576e-04,5.7768
-7.9568e-04,5.5776
-7.9560e-04,5.7768
-7.9552e-04,5.5776
-7.9544e-04,5.5776
-7.9536e-04,5.5776
-7.9528e-04,5.5776
-7.9520e-04,5.5776
-7.9512e-04,5.5776
-7.9504e-04,5.7768
-7.9496e-04,5.5776
-7.9488e-04,5.7768
-7.9480e-04,5.5776
-7.9472e-04,5.7768
-7.9464e-04,5.7768
-7.9456e-04,5.7768
-7.9448e-04,5.7768
-7.9440e-04,5.7768
-7.9432e-04,5.7768
-7.9424e-04,5.7768
-7.9416e-04,5.7768
-7.9408e-04,5.7768
-7.9400e-04,5.7768
-7.9392e-04,5.7768
-7.9384e-04,5.5776
-7.9376e-04,5.5776
-7.9368e-04,5.5776
-7.9360e-04,5.5776
-7.9352e-04,5.5776
-7.9344e-04,5.5776
-7.9336e-04,5.5776
-7.9328e-04,5.5776
-7.9320e-04,5.5776
-7.9312e-04,5.5776
-7.9304e-04,5.5776
-7.9296e-04,5.5776
-7.9288e-04,5.7768
-7.9280e-04,5.7768
-7.9272e-04,5.7768
-7.9264e-04,5.976
-7.9256e-04,5.7768
-7.9248e-04,5.976
-7.9240e-04,5.7768
-7.9232e-04,5.7768
-7.9224e-04,5.7768
-7.9216e-04,5.5776
-7.9208e-04,5.7768
-7.9200e-04,5.5776
-7.9192e-04,5.7768
-7.9184e-04,5.5776
-7.9176e-04,5.7768
-7.9168e-04,5.5776
-7.9160e-04,5.5776
-7.9152e-04,5.5776
-7.9144e-04,5.5776
-7.9136e-04,5.7768
-7.9128e-04,5.7768
-7.9120e-04,5.5776
-7.9112e-04,5.5776
-7.9104e-04,5.5776
-7.9096e-04,5.976
-7.9088e-04,5.976
-7.9080e-04,5.976
-7.9072e-04,5.976
-7.9064e-04,5.7768
-7.9056e-04,5.7768
-7.9048e-04,5.7768
-7.9040e-04,5.5776
-7.9032e-04,5.7768
-7.9024e-04,5.7768
-7.9016e-04,5.976
-7.9008e-04,5.976
-7.9000e-04,5.976
-7.8992e-04,5.7768
-7.8984e-04,5.7768
-7.8976e-04,5.5776
-7.8968e-04,5.5776
-7.8960e-04,5.5776
-7.8952e-04,5.5776
-7.8944e-04,5.7768
-7.8936e-04,5.7768
-7.8928e-04,5.7768
-7.8920e-04,5.7768
-7.8912e-04,5.7768
-7.8904e-04,5.7768
-7.8896e-04,5.7768
-7.8888e-04,5.7768
-7.8880e-04,5.7768
-7.8872e-04,5.7768
-7.8864e-04,5.7768
-7.8856e-04,5.7768
-7.8848e-04,5.976
-7.8840e-04,5.7768
-7.8832e-04,5.7768
-7.8824e-04,5.7768
-7.8816e-04,5.7768
-7.8808e-04,5.7768
-7.8800e-04,5.5776
-7.8792e-04,5.5776
-7.8784e-04,5.7768
-7.8776e-04,5.7768
-7.8768e-04,5.7768
-7.8760e-04,5.7768
-7.8752e-04,5.7768
-7.8744e-04,5.7768
-7.8736e-04,5.7768
-7.8728e-04,5.7768
-7.8720e-04,5.976
-7.8712e-04,5.976
-7.8704e-04,5.7768
-7.8696e-04,5.976
-7.8688e-04,5.976
-7.8680e-04,5.976
-7.8672e-04,5.7768
-7.8664e-04,5.7768
-7.8656e-04,5.7768
-7.8648e-04,5.7768
-7.8640e-04,5.7768
-7.8632e-04,5.7768
-7.8624e-04,5.7768
-7.8616e-04,5.7768
-7.8608e-04,5.7768
-7.8600e-04,5.7768
-7.8592e-04,5.7768
-7.8584e-04,5.7768
-7.8576e-04,5.7768
-7.8568e-04,5.7768
-7.8560e-04,5.7768
-7.8552e-04,5.7768
-7.8544e-04,5.976
-7.8536e-04,5.976
-7.8528e-04,5.976
-7.8520e-04,6.1752
-7.8512e-04,5.976
-7.8504e-04,5.976
-7.8496e-04,5.976
-7.8488e-04,5.7768
-7.8480e-04,5.976
-7.8472e-04,5.7768
-7.8464e-04,5.7768
-7.8456e-04,5.976
-7.8448e-04,5.976
-7.8440e-04,5.976
-7.8432e-04,5.7768
-7.8424e-04,5.7768
-7.8416e-04,5.7768
-7.8408e-04,5.7768
-7.8400e-04,5.7768
-7.8392e-04,5.7768
-7.8384e-04,5.7768
-7.8376e-04,5.976
-7.8368e-04,5.5776
-7.8360e-04,5.976
-7.8352e-04,6.1752
-7.8344e-04,6.1752
-7.8336e-04,6.1752
-7.8328e-04,6.1752
-7.8320e-04,5.976
-7.8312e-04,5.976
-7.8304e-04,5.976
-7.8296e-04,5.976
-7.8288e-04,5.976
-7.8280e-04,5.976
-7.8272e-04,6.1752
-7.8264e-04,5.976
-7.8256e-04,5.976
-7.8248e-04,5.976
-7.8240e-04,5.7768
-7.8232e-04,5.7768
-7.8224e-04,5.7768
-7.8216e-04,5.7768
-7.8208e-04,5.976
-7.8200e-04,5.976
-7.8192e-04,5.976
-7.8184e-04,5.976
-7.8176e-04,6.1752
-7.8168e-04,6.1752
-7.8160e-04,5.976
-7.8152e-04,5.976
-7.8144e-04,5.976
-7.8136e-04,5.976
-7.8128e-04,6.1752
-7.8120e-04,6.1752
-7.8112e-04,6.1752
-7.8104e-04,6.1752
-7.8096e-04,5.976
-7.8088e-04,5.976
-7.8080e-04,5.976
-7.8072e-04,5.976
-7.8064e-04,5.976
-7.8056e-04,5.976
-7.8048e-04,5.976
-7.8040e-04,5.976
-7.8032e-04,5.976
-7.8024e-04,5.976
-7.8016e-04,5.976
-7.8008e-04,5.976
-7.8000e-04,5.976
-7.7992e-04,5.976
-7.7984e-04,6.1752
-7.7976e-04,6.1752
-7.7968e-04,6.1752
-7.7960e-04,6.1752
-7.7952e-04,6.1752
-7.7944e-04,6.1752
-7.7936e-04,6.1752
-7.7928e-04,6.1752
-7.7920e-04,6.1752
-7.7912e-04,5.976
-7.7904e-04,5.976
-7.7896e-04,6.1752
-7.7888e-04,5.976
-7.7880e-04,6.1752
-7.7872e-04,5.976
-7.7864e-04,5.976
-7.7856e-04,6.1752
-7.7848e-04,5.976
-7.7840e-04,5.976
-7.7832e-04,6.1752
-7.7824e-04,6.1752
-7.7816e-04,6.1752
-7.7808e-04,6.1752
-7.7800e-04,6.1752
-7.7792e-04,6.3744
-7.7784e-04,6.1752
-7.7776e-04,6.3744
-7.7768e-04,6.5736
-7.7760e-04,5.976
-7.7752e-04,6.3744
-7.7744e-04,5.976
-7.7736e-04,6.1752
-7.7728e-04,6.1752
-7.7720e-04,6.1752
-7.7712e-04,6.1752
-7.7704e-04,6.1752
-7.7696e-04,6.1752
-7.7688e-04,6.1752
-7.7680e-04,6.1752
-7.7672e-04,6.1752
-7.7664e-04,6.1752
-7.7656e-04,6.1752
-7.7648e-04,6.1752
-7.7640e-04,6.1752
-7.7632e-04,6.1752
-7.7624e-04,5.976
-7.7616e-04,6.3744
-7.7608e-04,6.3744
-7.7600e-04,6.5736
-7.7592e-04,6.5736
-7.7584e-04,6.3744
-7.7576e-04,6.3744
-7.7568e-04,6.1752
-7.7560e-04,6.1752
-7.7552e-04,6.1752
-7.7544e-04,6.3744
-7.7536e-04,6.3744
-7.7528e-04,6.5736
-7.7520e-04,6.3744
-7.7512e-04,6.3744
-7.7504e-04,6.3744
-7.7496e-04,6.1752
-7.7488e-04,6.1752
-7.7480e-04,6.1752
-7.7472e-04,6.1752
-7.7464e-04,6.3744
-7.7456e-04,6.3744
-7.7448e-04,6.3744
-7.7440e-04,6.3744
-7.7432e-04,6.5736
-7.7424e-04,6.3744
-7.7416e-04,6.3744
-7.7408e-04,6.3744
-7.7400e-04,6.3744
-7.7392e-04,6.3744
-7.7384e-04,6.3744
-7.7376e-04,6.5736
-7.7368e-04,6.5736
-7.7360e-04,6.3744
-7.7352e-04,6.3744
-7.7344e-04,6.5736
-7.7336e-04,6.3744
-7.7328e-04,6.3744
-7.7320e-04,6.3744
-7.7312e-04,6.3744
-7.7304e-04,6.3744
-7.7296e-04,6.3744
-7.7288e-04,6.3744
-7.7280e-04,6.3744
-7.7272e-04,6.3744
-7.7264e-04,6.3744
-7.7256e-04,6.3744
-7.7248e-04,6.5736
-7.7240e-04,6.5736
-7.7232e-04,6.5736
-7.7224e-04,6.5736
-7.7216e-04,6.5736
-7.7208e-04,6.5736
-7.7200e-04,6.5736
-7.7192e-04,6.5736
-7.7184e-04,6.5736
-7.7176e-04,6.5736
-7.7168e-04,6.5736
-7.7160e-04,6.3744
-7.7152e-04,6.3744
-7.7144e-04,6.5736
-7.7136e-04,6.5736
-7.7128e-04,6.5736
-7.7120e-04,6.3744
-7.7112e-04,6.3744
-7.7104e-04,6.3744
-7.7096e-04,6.3744
-7.7088e-04,6.5736
-7.7080e-04,6.5736
-7.7072e-04,6.5736
-7.7064e-04,6.5736
-7.7056e-04,6.5736
-7.7048e-04,6.7728
-7.7040e-04,6.7728
-7.7032e-04,6.5736
-7.7024e-04,6.972
-7.7016e-04,6.5736
-7.7008e-04,6.5736
-7.7000e-04,6.5736
-7.6992e-04,6.3744
-7.6984e-04,6.5736
-7.6976e-04,6.5736
-7.6968e-04,6.5736
-7.6960e-04,6.5736
-7.6952e-04,6.5736
-7.6944e-04,6.5736
-7.6936e-04,6.5736
-7.6928e-04,6.5736
-7.6920e-04,6.5736
-7.6912e-04,6.5736
-7.6904e-04,6.5736
-7.6896e-04,6.5736
-7.6888e-04,6.5736
-7.6880e-04,6.5736
-7.6872e-04,6.7728
-7.6864e-04,6.972
-7.6856e-04,6.972
-7.6848e-04,6.972
-7.6840e-04,6.7728
-7.6832e-04,6.5736
-7.6824e-04,6.5736
-7.6816e-04,6.5736
-7.6808e-04,6.5736
-7.6800e-04,6.7728
-7.6792e-04,6.7728
-7.6784e-04,6.972
-7.6776e-04,6.7728
-7.6768e-04,6.7728
-7.6760e-04,6.7728
-7.6752e-04,6.5736
-7.6744e-04,6.5736
-7.6736e-04,6.5736
-7.6728e-04,6.7728
-7.6720e-04,6.7728
-7.6712e-04,6.7728
-7.6704e-04,6.7728
-7.6696e-04,6.972
-7.6688e-04,6.7728
-7.6680e-04,6.7728
-7.6672e-04,6.7728
-7.6664e-04,6.7728
-7.6656e-04,6.7728
-7.6648e-04,6.972
-7.6640e-04,6.972
-7.6632e-04,6.972
-7.6624e-04,6.7728
-7.6616e-04,6.7728
-7.6608e-04,6.7728
-7.6600e-04,6.7728
-7.6592e-04,6.5736
-7.6584e-04,6.7728
-7.6576e-04,6.7728
-7.6568e-04,6.7728
-7.6560e-04,6.7728
-7.6552e-04,6.7728
-7.6544e-04,6.972
-7.6536e-04,6.7728
-7.6528e-04,6.7728
-7.6520e-04,6.7728
-7.6512e-04,6.972
-7.6504e-04,6.7728
-7.6496e-04,6.972
-7.6488e-04,6.972
-7.6480e-04,6.972
-7.6472e-04,6.972
-7.6464e-04,6.972
-7.6456e-04,6.972
-7.6448e-04,6.972
-7.6440e-04,6.972
-7.6432e-04,6.972
-7.6424e-04,6.7728
-7.6416e-04,6.972
-7.6408e-04,6.7728
-7.6400e-04,6.972
-7.6392e-04,6.7728
-7.6384e-04,6.972
-7.6376e-04,6.7728
-7.6368e-04,6.7728
-7.6360e-04,6.7728
-7.6352e-04,6.7728
-7.6344e-04,6.7728
-7.6336e-04,6.972
-7.6328e-04,6.972
-7.6320e-04,6.972
-7.6312e-04,6.972
-7.6304e-04,7.1712
-7.6296e-04,7.1712
-7.6288e-04,6.972
-7.6280e-04,7.1712
-7.6272e-04,7.1712
-7.6264e-04,6.972
-7.6256e-04,7.1712
-7.6248e-04,6.7728
-7.6240e-04,6.972
-7.6232e-04,6.972
-7.6224e-04,6.972
-7.6216e-04,6.972
-7.6208e-04,6.972
-7.6200e-04,6.972
-7.6192e-04,6.972
-7.6184e-04,6.972
-7.6176e-04,6.972
-7.6168e-04,6.972
-7.6160e-04,6.972
-7.6152e-04,6.972
-7.6144e-04,6.7728
-7.6136e-04,6.972
-7.6128e-04,7.1712
-7.6120e-04,7.3704
-7.6112e-04,7.3704
-7.6104e-04,7.1712
-7.6096e-04,7.1712
-7.6088e-04,7.1712
-7.6080e-04,6.972
-7.6072e-04,6.972
-7.6064e-04,7.1712
-7.6056e-04,7.1712
-7.6048e-04,7.1712
-7.6040e-04,7.1712
-7.6032e-04,7.1712
-7.6024e-04,7.1712
-7.6016e-04,7.1712
-7.6008e-04,6.972
-7.6000e-04,6.972
-7.5992e-04,6.972
-7.5984e-04,6.972
-7.5976e-04,7.1712
-7.5968e-04,7.1712
-7.5960e-04,7.1712
-7.5952e-04,7.1712
-7.5944e-04,7.1712
-7.5936e-04,7.1712
-7.5928e-04,7.1712
-7.5920e-04,7.1712
-7.5912e-04,7.1712
-7.5904e-04,7.1712
-7.5896e-04,7.1712
-7.5888e-04,7.3704
-7.5880e-04,7.1712
-7.5872e-04,7.1712
-7.5864e-04,7.1712
-7.5856e-04,7.1712
-7.5848e-04,7.1712
-7.5840e-04,7.1712
-7.5832e-04,7.1712
-7.5824e-04,7.1712
-7.5816e-04,7.1712
-7.5808e-04,7.1712
-7.5800e-04,7.1712
-7.5792e-04,7.1712
-7.5784e-04,7.1712
-7.5776e-04,7.1712
-7.5768e-04,7.1712
-7.5760e-04,7.1712
-7.5752e-04,7.1712
-7.5744e-04,7.3704
-7.5736e-04,7.3704
-7.5728e-04,7.3704
-7.5720e-04,7.3704
-7.5712e-04,7.3704
-7.5704e-04,7.3704
-7.5696e-04,7.1712
-7.5688e-04,7.3704
-7.5680e-04,7.1712
-7.5672e-04,7.1712
-7.5664e-04,7.1712
-7.5656e-04,7.1712
-7.5648e-04,7.1712
-7.5640e-04,7.1712
-7.5632e-04,7.1712
-7.5624e-04,7.1712
-7.5616e-04,7.1712
-7.5608e-04,7.1712
-7.5600e-04,7.1712
-7.5592e-04,7.3704
-7.5584e-04,7.3704
-7.5576e-04,7.3704
-7.5568e-04,7.3704
-7.5560e-04,7.3704
-7.5552e-04,7.3704
-7.5544e-04,7.5696
-7.5536e-04,7.3704
-7.5528e-04,7.5696
-7.5520e-04,7.1712
-7.5512e-04,7.3704
-7.5504e-04,7.1712
-7.5496e-04,7.3704
-7.5488e-04,7.3704
-7.5480e-04,7.1712
-7.5472e-04,7.3704
-7.5464e-04,7.1712
-7.5456e-04,7.1712
-7.5448e-04,7.1712
-7.5440e-04,7.1712
-7.5432e-04,7.1712
-7.5424e-04,7.1712
-7.5416e-04,7.3704
-7.5408e-04,7.1712
-7.5400e-04,7.1712
-7.5392e-04,7.3704
-7.5384e-04,7.5696
-7.5376e-04,7.7688
-7.5368e-04,7.5696
-7.5360e-04,7.3704
-7.5352e-04,7.3704
-7.5344e-04,7.3704
-7.5336e-04,7.3704
-7.5328e-04,7.1712
-7.5320e-04,7.3704
-7.5312e-04,7.3704
-7.5304e-04,7.5696
-7.5296e-04,7.5696
-7.5288e-04,7.3704
-7.5280e-04,7.3704
-7.5272e-04,7.1712
-7.5264e-04,7.1712
-7.5256e-04,7.1712
-7.5248e-04,7.1712
-7.5240e-04,7.3704
-7.5232e-04,7.3704
-7.5224e-04,7.3704
-7.5216e-04,7.5696
-7.5208e-04,7.3704
-7.5200e-04,7.3704
-7.5192e-04,7.3704
-7.5184e-04,7.3704
-7.5176e-04,7.3704
-7.5168e-04,7.3704
-7.5160e-04,7.3704
-7.5152e-04,7.5696
-7.5144e-04,7.5696
-7.5136e-04,7.5696
-7.5128e-04,7.3704
-7.5120e-04,7.3704
-7.5112e-04,7.3704
-7.5104e-04,7.3704
-7.5096e-04,7.3704
-7.5088e-04,7.3704
-7.5080e-04,7.3704
-7.5072e-04,7.3704
-7.5064e-04,7.3704
-7.5056e-04,7.5696
-7.5048e-04,7.3704
-7.5040e-04,7.3704
-7.5032e-04,7.3704
-7.5024e-04,7.3704
-7.5016e-04,7.3704
-7.5008e-04,7.5696
-7.5000e-04,7.3704
-7.4992e-04,7.5696
-7.4984e-04,7.5696
-7.4976e-04,7.5696
-7.4968e-04,7.5696
-7.4960e-04,7.5696
-7.4952e-04,7.5696
-7.4944e-04,7.3704
-7.4936e-04,7.3704
-7.4928e-04,7.3704
-7.4920e-04,7.3704
-7.4912e-04,7.3704
-7.4904e-04,7.3704
-7.4896e-04,7.3704
-7.4888e-04,7.3704
-7.4880e-04,7.3704
-7.4872e-04,7.3704
-7.4864e-04,7.3704
-7.4856e-04,7.3704
-7.4848e-04,7.5696
-7.4840e-04,7.5696
-7.4832e-04,7.5696
-7.4824e-04,7.5696
-7.4816e-04,7.5696
-7.4808e-04,7.3704
-7.4800e-04,7.7688
-7.4792e-04,7.3704
-7.4784e-04,7.5696
-7.4776e-04,7.3704
-7.4768e-04,7.3704
-7.4760e-04,7.3704
-7.4752e-04,7.3704
-7.4744e-04,7.3704
-7.4736e-04,7.3704
-7.4728e-04,7.3704
-7.4720e-04,7.3704
-7.4712e-04,7.3704
-7.4704e-04,7.3704
-7.4696e-04,7.1712
-7.4688e-04,7.3704
-7.4680e-04,7.3704
-7.4672e-04,7.3704
-7.4664e-04,7.3704
-7.4656e-04,7.1712
-7.4648e-04,7.5696
-7.4640e-04,7.7688
-7.4632e-04,7.7688
-7.4624e-04,7.7688
-7.4616e-04,7.5696
-7.4608e-04,7.3704
-7.4600e-04,7.3704
-7.4592e-04,7.3704
-7.4584e-04,7.3704
-7.4576e-04,7.5696
-7.4568e-04,7.5696
-7.4560e-04,7.5696
-7.4552e-04,7.5696
-7.4544e-04,7.5696
-7.4536e-04,7.3704
-7.4528e-04,7.3704
-7.4520e-04,7.3704
-7.4512e-04,7.3704
-7.4504e-04,7.3704
-7.4496e-04,7.3704
-7.4488e-04,7.5696
-7.4480e-04,7.5696
-7.4472e-04,7.5696
-7.4464e-04,7.5696
-7.4456e-04,7.3704
-7.4448e-04,7.3704
-7.4440e-04,7.3704
-7.4432e-04,7.5696
-7.4424e-04,7.5696
-7.4416e-04,7.5696
-7.4408e-04,7.5696
-7.4400e-04,7.5696
-7.4392e-04,7.5696
-7.4384e-04,7.5696
-7.4376e-04,7.3704
-7.4368e-04,7.3704
-7.4360e-04,7.3704
-7.4352e-04,7.3704
-7.4344e-04,7.3704
-7.4336e-04,7.3704
-7.4328e-04,7.3704
-7.4320e-04,7.3704
-7.4312e-04,7.3704
-7.4304e-04,7.3704
-7.4296e-04,7.5696
-7.4288e-04,7.3704
-7.4280e-04,7.3704
-7.4272e-04,7.5696
-7.4264e-04,7.5696
-7.4256e-04,7.5696
-7.4248e-04,7.5696
-7.4240e-04,7.5696
-7.4232e-04,7.5696
-7.4224e-04,7.5696
-7.4216e-04,7.3704
-7.4208e-04,7.5696
-7.4200e-04,7.3704
-7.4192e-04,7.3704
-7.4184e-04,7.3704
-7.4176e-04,7.3704
-7.4168e-04,7.3704
-7.4160e-04,7.3704
-7.4152e-04,7.3704
-7.4144e-04,7.3704
-7.4136e-04,7.3704
-7.4128e-04,7.3704
-7.4120e-04,7.3704
-7.4112e-04,7.3704
-7.4104e-04,7.5696
-7.4096e-04,7.3704
-7.4088e-04,7.5696
-7.4080e-04,7.3704
-7.4072e-04,7.7688
-7.4064e-04,7.3704
-7.4056e-04,7.7688
-7.4048e-04,7.3704
-7.4040e-04,7.3704
-7.4032e-04,7.3704
-7.4024e-04,7.1712
-7.4016e-04,7.3704
-7.4008e-04,7.3704
-7.4000e-04,7.5696
-7.3992e-04,7.3704
-7.3984e-04,7.3704
-7.3976e-04,7.3704
-7.3968e-04,7.3704
-7.3960e-04,7.3704
-7.3952e-04,7.3704
-7.3944e-04,7.3704
-7.3936e-04,7.3704
-7.3928e-04,7.3704
-7.3920e-04,7.1712
-7.3912e-04,7.1712
-7.3904e-04,7.5696
-7.3896e-04,7.7688
-7.3888e-04,7.7688
-7.3880e-04,7.5696
-7.3872e-04,7.3704
-7.3864e-04,7.3704
-7.3856e-04,7.3704
-7.3848e-04,7.3704
-7.3840e-04,7.3704
-7.3832e-04,7.3704
-7.3824e-04,7.5696
-7.3816e-04,7.5696
-7.3808e-04,7.3704
-7.3800e-04,7.3704
-7.3792e-04,7.3704
-7.3784e-04,7.1712
-7.3776e-04,7.1712
-7.3768e-04,7.1712
-7.3760e-04,7.3704
-7.3752e-04,7.3704
-7.3744e-04,7.3704
-7.3736e-04,7.3704
-7.3728e-04,7.3704
-7.3720e-04,7.3704
-7.3712e-04,7.3704
-7.3704e-04,7.3704
-7.3696e-04,7.3704
-7.3688e-04,7.3704
-7.3680e-04,7.3704
-7.3672e-04,7.3704
-7.3664e-04,7.3704
-7.3656e-04,7.3704
-7.3648e-04,7.3704
-7.3640e-04,7.3704
-7.3632e-04,7.3704
-7.3624e-04,7.1712
-7.3616e-04,7.1712
-7.3608e-04,7.1712
-7.3600e-04,7.1712
-7.3592e-04,7.1712
-7.3584e-04,7.3704
-7.3576e-04,7.3704
-7.3568e-04,7.3704
-7.3560e-04,7.3704
-7.3552e-04,7.3704
-7.3544e-04,7.3704
-7.3536e-04,7.3704
-7.3528e-04,7.3704
-7.3520e-04,7.3704
-7.3512e-04,7.3704
-7.3504e-04,7.3704
-7.3496e-04,7.3704
-7.3488e-04,7.3704
-7.3480e-04,7.3704
-7.3472e-04,7.1712
-7.3464e-04,7.1712
-7.3456e-04,7.3704
-7.3448e-04,7.1712
-7.3440e-04,7.1712
-7.3432e-04,7.1712
-7.3424e-04,7.1712
-7.3416e-04,7.1712
-7.3408e-04,7.1712
-7.3400e-04,7.1712
-7.3392e-04,7.1712
-7.3384e-04,7.1712
-7.3376e-04,7.1712
-7.3368e-04,7.1712
-7.3360e-04,7.1712
-7.3352e-04,7.1712
-7.3344e-04,7.1712
-7.3336e-04,7.3704
-7.3328e-04,7.3704
-7.3320e-04,7.3704
-7.3312e-04,7.3704
-7.3304e-04,7.3704
-7.3296e-04,7.1712
-7.3288e-04,7.3704
-7.3280e-04,7.1712
-7.3272e-04,7.1712
-7.3264e-04,7.1712
-7.3256e-04,7.1712
-7.3248e-04,7.1712
-7.3240e-04,7.1712
-7.3232e-04,7.1712
-7.3224e-04,6.972
-7.3216e-04,6.972
-7.3208e-04,7.1712
-7.3200e-04,7.1712
-7.3192e-04,7.1712
-7.3184e-04,6.972
-7.3176e-04,6.972
-7.3168e-04,7.1712
-7.3160e-04,7.3704
-7.3152e-04,7.3704
-7.3144e-04,7.3704
-7.3136e-04,7.3704
-7.3128e-04,7.1712
-7.3120e-04,7.1712
-7.3112e-04,7.1712
-7.3104e-04,7.1712
-7.3096e-04,7.1712
-7.3088e-04,7.1712
-7.3080e-04,7.1712
-7.3072e-04,7.1712
-7.3064e-04,7.1712
-7.3056e-04,7.1712
-7.3048e-04,6.972
-7.3040e-04,6.972
-7.3032e-04,6.972
-7.3024e-04,6.972
-7.3016e-04,6.972
-7.3008e-04,7.1712
-7.3000e-04,7.1712
-7.2992e-04,7.1712
-7.2984e-04,7.1712
-7.2976e-04,7.1712
-7.2968e-04,7.1712
-7.2960e-04,6.972
-7.2952e-04,7.1712
-7.2944e-04,7.1712
-7.2936e-04,7.1712
-7.2928e-04,7.1712
-7.2920e-04,7.1712
-7.2912e-04,7.1712
-7.2904e-04,7.1712
-7.2896e-04,7.1712
-7.2888e-04,6.972
-7.2880e-04,6.972
-7.2872e-04,6.972
-7.2864e-04,6.972
-7.2856e-04,6.972
-7.2848e-04,6.972
-7.2840e-04,6.972
-7.2832e-04,6.972
-7.2824e-04,6.972
-7.2816e-04,6.972
-7.2808e-04,6.972
-7.2800e-04,6.972
-7.2792e-04,7.1712
-7.2784e-04,7.1712
-7.2776e-04,7.1712
-7.2768e-04,7.1712
-7.2760e-04,7.1712
-7.2752e-04,7.1712
-7.2744e-04,7.1712
-7.2736e-04,7.1712
-7.2728e-04,6.972
-7.2720e-04,6.972
-7.2712e-04,6.972
-7.2704e-04,6.972
-7.2696e-04,6.7728
-7.2688e-04,6.972
-7.2680e-04,6.7728
-7.2672e-04,6.972
-7.2664e-04,6.7728
-7.2656e-04,6.7728
-7.2648e-04,6.7728
-7.2640e-04,6.7728
-7.2632e-04,6.972
-7.2624e-04,6.972
-7.2616e-04,6.972
-7.2608e-04,6.972
-7.2600e-04,6.972
-7.2592e-04,6.972
-7.2584e-04,7.1712
-7.2576e-04,7.1712
-7.2568e-04,6.972
-7.2560e-04,7.1712
-7.2552e-04,6.7728
-7.2544e-04,6.972
-7.2536e-04,6.7728
-7.2528e-04,6.972
-7.2520e-04,6.972
-7.2512e-04,6.7728
-7.2504e-04,6.7728
-7.2496e-04,6.7728
-7.2488e-04,6.7728
-7.2480e-04,6.7728
-7.2472e-04,6.7728
-7.2464e-04,6.7728
-7.2456e-04,6.7728
-7.2448e-04,6.7728
-7.2440e-04,6.7728
-7.2432e-04,6.5736
-7.2424e-04,6.972
-7.2416e-04,6.972
-7.2408e-04,7.1712
-7.2400e-04,6.972
-7.2392e-04,6.972
-7.2384e-04,6.7728
-7.2376e-04,6.7728
-7.2368e-04,6.7728
-7.2360e-04,6.7728
-7.2352e-04,6.7728
-7.2344e-04,6.972
-7.2336e-04,6.972
-7.2328e-04,6.972
-7.2320e-04,6.7728
-7.2312e-04,6.5736
-7.2304e-04,6.5736
-7.2296e-04,6.5736
-7.2288e-04,6.5736
-7.2280e-04,6.5736
-7.2272e-04,6.7728
-7.2264e-04,6.7728
-7.2256e-04,6.7728
-7.2248e-04,6.7728
-7.2240e-04,6.7728
-7.2232e-04,6.7728
-7.2224e-04,6.7728
-7.2216e-04,6.7728
-7.2208e-04,6.7728
-7.2200e-04,6.5736
-7.2192e-04,6.7728
-7.2184e-04,6.7728
-7.2176e-04,6.7728
-7.2168e-04,6.7728
-7.2160e-04,6.5736
-7.2152e-04,6.5736
-7.2144e-04,6.5736
-7.2136e-04,6.5736
-7.2128e-04,6.5736
-7.2120e-04,6.5736
-7.2112e-04,6.5736
-7.2104e-04,6.5736
-7.2096e-04,6.5736
-7.2088e-04,6.5736
-7.2080e-04,6.5736
-7.2072e-04,6.5736
-7.2064e-04,6.5736
-7.2056e-04,6.5736
-7.2048e-04,6.5736
-7.2040e-04,6.5736
-7.2032e-04,6.7728
-7.2024e-04,6.7728
-7.2016e-04,6.7728
-7.2008e-04,6.5736
-7.2000e-04,6.5736
-7.1992e-04,6.5736
-7.1984e-04,6.5736
-7.1976e-04,6.5736
-7.1968e-04,6.5736
-7.1960e-04,6.5736
-7.1952e-04,6.5736
-7.1944e-04,6.5736
-7.1936e-04,6.5736
-7.1928e-04,6.5736
-7.1920e-04,6.5736
-7.1912e-04,6.3744
-7.1904e-04,6.3744
-7.1896e-04,6.5736
-7.1888e-04,6.5736
-7.1880e-04,6.5736
-7.1872e-04,6.5736
-7.1864e-04,6.5736
-7.1856e-04,6.5736
-7.1848e-04,6.7728
-7.1840e-04,6.5736
-7.1832e-04,6.7728
-7.1824e-04,6.3744
-7.1816e-04,6.5736
-7.1808e-04,6.3744
-7.1800e-04,6.5736
-7.1792e-04,6.5736
-7.1784e-04,6.3744
-7.1776e-04,6.5736
-7.1768e-04,6.3744
-7.1760e-04,6.5736
-7.1752e-04,6.3744
-7.1744e-04,6.3744
-7.1736e-04,6.3744
-7.1728e-04,6.3744
-7.1720e-04,6.3744
-7.1712e-04,6.3744
-7.1704e-04,6.3744
-7.1696e-04,6.3744
-7.1688e-04,6.1752
-7.1680e-04,6.5736
-7.1672e-04,6.5736
-7.1664e-04,6.7728
-7.1656e-04,6.7728
-7.1648e-04,6.5736
