expt2025/半導体レーザ/data/3-3_7_100kHz.CSV

Model,TBS1052C
Firmware Version,v2015-08-04-prequal4ch70_v1.3

Point Format,Y
Horizontal Units,S
Horizontal Scale,4e-06
Sample Interval,4e-09
Filter Frequency,2e+08
Record Length,20000
Gating,0.0% to 100.0%
Probe Attenuation,10
Vertical Units,V
Vertical Offset,0
Vertical Scale,4.98
Label,
TIME,CH1
-4.0000e-05,9.5616
-3.9996e-05,9.5616
-3.9992e-05,9.5616
-3.9988e-05,9.5616
-3.9984e-05,9.5616
-3.9980e-05,9.5616
-3.9976e-05,9.5616
-3.9972e-05,9.5616
-3.9968e-05,9.5616
-3.9964e-05,9.5616
-3.9960e-05,9.5616
-3.9956e-05,9.5616
-3.9952e-05,9.5616
-3.9948e-05,9.5616
-3.9944e-05,9.5616
-3.9940e-05,9.5616
-3.9936e-05,9.5616
-3.9932e-05,9.5616
-3.9928e-05,9.5616
-3.9924e-05,9.5616
-3.9920e-05,9.5616
-3.9916e-05,9.5616
-3.9912e-05,9.5616
-3.9908e-05,9.3624
-3.9904e-05,8.7648
-3.9900e-05,7.968
-3.9896e-05,7.1712
-3.9892e-05,6.1752
-3.9888e-05,5.3784
-3.9884e-05,4.7808
-3.9880e-05,4.3824
-3.9876e-05,3.984
-3.9872e-05,3.5856
-3.9868e-05,3.3864
-3.9864e-05,3.1872
-3.9860e-05,2.988
-3.9856e-05,2.988
-3.9852e-05,2.7888
-3.9848e-05,2.7888
-3.9844e-05,2.7888
-3.9840e-05,2.7888
-3.9836e-05,2.7888
-3.9832e-05,2.7888
-3.9828e-05,2.7888
-3.9824e-05,2.988
-3.9820e-05,2.988
-3.9816e-05,2.988
-3.9812e-05,3.1872
-3.9808e-05,3.1872
-3.9804e-05,3.1872
-3.9800e-05,3.1872
-3.9796e-05,3.1872
-3.9792e-05,3.3864
-3.9788e-05,3.3864
-3.9784e-05,3.3864
-3.9780e-05,3.5856
-3.9776e-05,3.5856
-3.9772e-05,3.5856
-3.9768e-05,3.7848
-3.9764e-05,3.7848
-3.9760e-05,3.7848
-3.9756e-05,3.984
-3.9752e-05,3.984
-3.9748e-05,3.984
-3.9744e-05,3.984
-3.9740e-05,3.984
-3.9736e-05,3.984
-3.9732e-05,4.1832
-3.9728e-05,4.1832
-3.9724e-05,4.1832
-3.9720e-05,4.1832
-3.9716e-05,4.1832
-3.9712e-05,4.1832
-3.9708e-05,4.1832
-3.9704e-05,4.1832
-3.9700e-05,4.1832
-3.9696e-05,4.1832
-3.9692e-05,3.984
-3.9688e-05,3.984
-3.9684e-05,3.984
-3.9680e-05,3.984
-3.9676e-05,4.1832
-3.9672e-05,4.1832
-3.9668e-05,4.1832
-3.9664e-05,4.1832
-3.9660e-05,4.1832
-3.9656e-05,4.1832
-3.9652e-05,4.1832
-3.9648e-05,4.1832
-3.9644e-05,4.1832
-3.9640e-05,4.1832
-3.9636e-05,4.1832
-3.9632e-05,4.1832
-3.9628e-05,4.1832
-3.9624e-05,4.1832
-3.9620e-05,4.1832
-3.9616e-05,4.1832
-3.9612e-05,4.1832
-3.9608e-05,4.1832
-3.9604e-05,4.1832
-3.9600e-05,4.1832
-3.9596e-05,4.1832
-3.9592e-05,4.1832
-3.9588e-05,4.1832
-3.9584e-05,4.1832
-3.9580e-05,4.1832
-3.9576e-05,4.1832
-3.9572e-05,4.1832
-3.9568e-05,4.1832
-3.9564e-05,4.1832
-3.9560e-05,4.1832
-3.9556e-05,3.984
-3.9552e-05,3.984
-3.9548e-05,3.984
-3.9544e-05,3.984
-3.9540e-05,3.984
-3.9536e-05,3.984
-3.9532e-05,3.984
-3.9528e-05,3.7848
-3.9524e-05,3.7848
-3.9520e-05,3.7848
-3.9516e-05,3.7848
-3.9512e-05,3.7848
-3.9508e-05,3.7848
-3.9504e-05,3.7848
-3.9500e-05,3.7848
-3.9496e-05,3.7848
-3.9492e-05,3.7848
-3.9488e-05,3.7848
-3.9484e-05,3.7848
-3.9480e-05,3.7848
-3.9476e-05,3.7848
-3.9472e-05,3.7848
-3.9468e-05,3.7848
-3.9464e-05,3.7848
-3.9460e-05,3.7848
-3.9456e-05,3.7848
-3.9452e-05,3.7848
-3.9448e-05,3.7848
-3.9444e-05,3.7848
-3.9440e-05,3.984
-3.9436e-05,3.984
-3.9432e-05,3.984
-3.9428e-05,3.984
-3.9424e-05,3.984
-3.9420e-05,3.7848
-3.9416e-05,3.7848
-3.9412e-05,3.7848
-3.9408e-05,3.7848
-3.9404e-05,3.7848
-3.9400e-05,3.7848
-3.9396e-05,3.7848
-3.9392e-05,3.7848
-3.9388e-05,3.5856
-3.9384e-05,3.5856
-3.9380e-05,3.5856
-3.9376e-05,3.5856
-3.9372e-05,3.5856
-3.9368e-05,3.5856
-3.9364e-05,3.5856
-3.9360e-05,3.5856
-3.9356e-05,3.5856
-3.9352e-05,3.5856
-3.9348e-05,3.5856
-3.9344e-05,3.5856
-3.9340e-05,3.5856
-3.9336e-05,3.5856
-3.9332e-05,3.5856
-3.9328e-05,3.5856
-3.9324e-05,3.5856
-3.9320e-05,3.5856
-3.9316e-05,3.7848
-3.9312e-05,3.7848
-3.9308e-05,3.7848
-3.9304e-05,3.7848
-3.9300e-05,3.984
-3.9296e-05,3.984
-3.9292e-05,3.984
-3.9288e-05,3.984
-3.9284e-05,3.984
-3.9280e-05,3.7848
-3.9276e-05,3.7848
-3.9272e-05,3.7848
-3.9268e-05,3.7848
-3.9264e-05,3.7848
-3.9260e-05,3.5856
-3.9256e-05,3.5856
-3.9252e-05,3.5856
-3.9248e-05,3.5856
-3.9244e-05,3.5856
-3.9240e-05,3.5856
-3.9236e-05,3.5856
-3.9232e-05,3.5856
-3.9228e-05,3.5856
-3.9224e-05,3.5856
-3.9220e-05,3.5856
-3.9216e-05,3.5856
-3.9212e-05,3.5856
-3.9208e-05,3.5856
-3.9204e-05,3.5856
-3.9200e-05,3.7848
-3.9196e-05,3.7848
-3.9192e-05,3.7848
-3.9188e-05,3.7848
-3.9184e-05,3.7848
-3.9180e-05,3.7848
-3.9176e-05,3.984
-3.9172e-05,3.984
-3.9168e-05,3.984
-3.9164e-05,3.984
-3.9160e-05,3.984
-3.9156e-05,3.984
-3.9152e-05,3.984
-3.9148e-05,3.984
-3.9144e-05,3.984
-3.9140e-05,3.984
-3.9136e-05,3.984
-3.9132e-05,3.984
-3.9128e-05,3.984
-3.9124e-05,3.984
-3.9120e-05,3.984
-3.9116e-05,3.984
-3.9112e-05,3.7848
-3.9108e-05,3.7848
-3.9104e-05,3.7848
-3.9100e-05,3.7848
-3.9096e-05,3.7848
-3.9092e-05,3.7848
-3.9088e-05,3.7848
-3.9084e-05,3.7848
-3.9080e-05,3.7848
-3.9076e-05,3.7848
-3.9072e-05,3.7848
-3.9068e-05,3.7848
-3.9064e-05,3.7848
-3.9060e-05,3.984
-3.9056e-05,3.984
-3.9052e-05,3.984
-3.9048e-05,3.984
-3.9044e-05,3.984
-3.9040e-05,3.984
-3.9036e-05,3.984
-3.9032e-05,3.984
-3.9028e-05,3.984
-3.9024e-05,3.984
-3.9020e-05,3.984
-3.9016e-05,4.1832
-3.9012e-05,4.1832
-3.9008e-05,4.1832
-3.9004e-05,4.1832
-3.9000e-05,4.1832
-3.8996e-05,4.1832
-3.8992e-05,4.1832
-3.8988e-05,4.1832
-3.8984e-05,3.984
-3.8980e-05,3.984
-3.8976e-05,3.984
-3.8972e-05,4.1832
-3.8968e-05,4.1832
-3.8964e-05,4.1832
-3.8960e-05,4.1832
-3.8956e-05,4.1832
-3.8952e-05,4.5816
-3.8948e-05,5.1792
-3.8944e-05,6.1752
-3.8940e-05,6.972
-3.8936e-05,7.968
-3.8932e-05,8.5656
-3.8928e-05,9.1632
-3.8924e-05,9.5616
-3.8920e-05,9.96
-3.8916e-05,10.1592
-3.8912e-05,10.3584
-3.8908e-05,10.5576
-3.8904e-05,10.7568
-3.8900e-05,10.7568
-3.8896e-05,10.7568
-3.8892e-05,10.956
-3.8888e-05,10.956
-3.8884e-05,10.956
-3.8880e-05,10.956
-3.8876e-05,10.956
-3.8872e-05,10.7568
-3.8868e-05,10.7568
-3.8864e-05,10.7568
-3.8860e-05,10.7568
-3.8856e-05,10.5576
-3.8852e-05,10.5576
-3.8848e-05,10.3584
-3.8844e-05,10.3584
-3.8840e-05,10.3584
-3.8836e-05,10.1592
-3.8832e-05,10.1592
-3.8828e-05,10.1592
-3.8824e-05,9.96
-3.8820e-05,9.96
-3.8816e-05,9.7608
-3.8812e-05,9.7608
-3.8808e-05,9.7608
-3.8804e-05,9.5616
-3.8800e-05,9.5616
-3.8796e-05,9.1632
-3.8792e-05,8.5656
-3.8788e-05,7.968
-3.8784e-05,6.972
-3.8780e-05,5.976
-3.8776e-05,5.3784
-3.8772e-05,4.7808
-3.8768e-05,4.1832
-3.8764e-05,3.7848
-3.8760e-05,3.5856
-3.8756e-05,3.1872
-3.8752e-05,2.988
-3.8748e-05,2.988
-3.8744e-05,2.7888
-3.8740e-05,2.7888
-3.8736e-05,2.5896
-3.8732e-05,2.5896
-3.8728e-05,2.5896
-3.8724e-05,2.7888
-3.8720e-05,2.7888
-3.8716e-05,2.7888
-3.8712e-05,2.7888
-3.8708e-05,2.7888
-3.8704e-05,2.7888
-3.8700e-05,2.7888
-3.8696e-05,2.7888
-3.8692e-05,2.988
-3.8688e-05,2.988
-3.8684e-05,2.988
-3.8680e-05,2.988
-3.8676e-05,2.988
-3.8672e-05,3.1872
-3.8668e-05,3.1872
-3.8664e-05,3.1872
-3.8660e-05,3.3864
-3.8656e-05,3.3864
-3.8652e-05,3.3864
-3.8648e-05,3.3864
-3.8644e-05,3.5856
-3.8640e-05,3.5856
-3.8636e-05,3.984
-3.8632e-05,4.5816
-3.8628e-05,5.3784
-3.8624e-05,6.3744
-3.8620e-05,7.1712
-3.8616e-05,7.968
-3.8612e-05,8.5656
-3.8608e-05,9.1632
-3.8604e-05,9.5616
-3.8600e-05,9.7608
-3.8596e-05,10.1592
-3.8592e-05,10.3584
-3.8588e-05,10.3584
-3.8584e-05,10.5576
-3.8580e-05,10.5576
-3.8576e-05,10.5576
-3.8572e-05,10.5576
-3.8568e-05,10.5576
-3.8564e-05,10.5576
-3.8560e-05,10.5576
-3.8556e-05,10.5576
-3.8552e-05,10.5576
-3.8548e-05,10.5576
-3.8544e-05,10.3584
-3.8540e-05,10.3584
-3.8536e-05,10.3584
-3.8532e-05,10.1592
-3.8528e-05,10.1592
-3.8524e-05,9.96
-3.8520e-05,9.96
-3.8516e-05,9.96
-3.8512e-05,9.7608
-3.8508e-05,9.7608
-3.8504e-05,9.7608
-3.8500e-05,9.7608
-3.8496e-05,9.5616
-3.8492e-05,9.5616
-3.8488e-05,9.5616
-3.8484e-05,9.3624
-3.8480e-05,9.3624
-3.8476e-05,8.7648
-3.8472e-05,7.968
-3.8468e-05,7.1712
-3.8464e-05,6.3744
-3.8460e-05,5.3784
-3.8456e-05,4.5816
-3.8452e-05,3.984
-3.8448e-05,3.5856
-3.8444e-05,3.1872
-3.8440e-05,2.988
-3.8436e-05,2.7888
-3.8432e-05,2.5896
-3.8428e-05,2.3904
-3.8424e-05,2.3904
-3.8420e-05,2.3904
-3.8416e-05,2.1912
-3.8412e-05,2.1912
-3.8408e-05,2.1912
-3.8404e-05,2.1912
-3.8400e-05,2.1912
-3.8396e-05,2.1912
-3.8392e-05,2.1912
-3.8388e-05,2.1912
-3.8384e-05,2.1912
-3.8380e-05,2.1912
-3.8376e-05,2.3904
-3.8372e-05,2.3904
-3.8368e-05,2.5896
-3.8364e-05,2.5896
-3.8360e-05,2.5896
-3.8356e-05,2.5896
-3.8352e-05,2.5896
-3.8348e-05,2.7888
-3.8344e-05,2.7888
-3.8340e-05,2.7888
-3.8336e-05,2.7888
-3.8332e-05,2.988
-3.8328e-05,2.988
-3.8324e-05,2.988
-3.8320e-05,3.3864
-3.8316e-05,3.7848
-3.8312e-05,4.5816
-3.8308e-05,5.3784
-3.8304e-05,6.3744
-3.8300e-05,7.1712
-3.8296e-05,7.7688
-3.8292e-05,8.3664
-3.8288e-05,8.7648
-3.8284e-05,9.1632
-3.8280e-05,9.3624
-3.8276e-05,9.5616
-3.8272e-05,9.7608
-3.8268e-05,9.7608
-3.8264e-05,9.7608
-3.8260e-05,9.96
-3.8256e-05,9.96
-3.8252e-05,9.96
-3.8248e-05,9.96
-3.8244e-05,9.96
-3.8240e-05,9.7608
-3.8236e-05,9.7608
-3.8232e-05,9.7608
-3.8228e-05,9.7608
-3.8224e-05,9.7608
-3.8220e-05,9.5616
-3.8216e-05,9.5616
-3.8212e-05,9.3624
-3.8208e-05,9.3624
-3.8204e-05,9.3624
-3.8200e-05,9.1632
-3.8196e-05,9.1632
-3.8192e-05,8.964
-3.8188e-05,8.964
-3.8184e-05,8.964
-3.8180e-05,8.964
-3.8176e-05,8.964
-3.8172e-05,8.7648
-3.8168e-05,8.7648
-3.8164e-05,8.5656
-3.8160e-05,8.1672
-3.8156e-05,7.7688
-3.8152e-05,6.7728
-3.8148e-05,5.976
-3.8144e-05,4.98
-3.8140e-05,4.1832
-3.8136e-05,3.5856
-3.8132e-05,3.1872
-3.8128e-05,2.7888
-3.8124e-05,2.3904
-3.8120e-05,2.1912
-3.8116e-05,1.992
-3.8112e-05,1.992
-3.8108e-05,1.7928
-3.8104e-05,1.7928
-3.8100e-05,1.5936
-3.8096e-05,1.5936
-3.8092e-05,1.5936
-3.8088e-05,1.5936
-3.8084e-05,1.5936
-3.8080e-05,1.5936
-3.8076e-05,1.5936
-3.8072e-05,1.5936
-3.8068e-05,1.5936
-3.8064e-05,1.7928
-3.8060e-05,1.7928
-3.8056e-05,1.7928
-3.8052e-05,1.7928
-3.8048e-05,1.992
-3.8044e-05,1.992
-3.8040e-05,1.992
-3.8036e-05,2.1912
-3.8032e-05,2.1912
-3.8028e-05,2.1912
-3.8024e-05,2.1912
-3.8020e-05,2.3904
-3.8016e-05,2.3904
-3.8012e-05,2.5896
-3.8008e-05,2.5896
-3.8004e-05,2.5896
-3.8000e-05,2.7888
-3.7996e-05,2.7888
-3.7992e-05,2.7888
-3.7988e-05,2.7888
-3.7984e-05,2.7888
-3.7980e-05,2.7888
-3.7976e-05,2.7888
-3.7972e-05,2.988
-3.7968e-05,2.988
-3.7964e-05,2.988
-3.7960e-05,2.988
-3.7956e-05,2.988
-3.7952e-05,2.988
-3.7948e-05,2.988
-3.7944e-05,3.1872
-3.7940e-05,3.1872
-3.7936e-05,3.1872
-3.7932e-05,3.1872
-3.7928e-05,3.1872
-3.7924e-05,3.1872
-3.7920e-05,3.1872
-3.7916e-05,3.1872
-3.7912e-05,3.3864
-3.7908e-05,3.3864
-3.7904e-05,3.3864
-3.7900e-05,3.3864
-3.7896e-05,3.3864
-3.7892e-05,3.3864
-3.7888e-05,3.3864
-3.7884e-05,3.3864
-3.7880e-05,3.3864
-3.7876e-05,3.3864
-3.7872e-05,3.3864
-3.7868e-05,3.3864
-3.7864e-05,3.3864
-3.7860e-05,3.3864
-3.7856e-05,3.3864
-3.7852e-05,3.5856
-3.7848e-05,3.5856
-3.7844e-05,3.7848
-3.7840e-05,4.1832
-3.7836e-05,4.98
-3.7832e-05,5.976
-3.7828e-05,6.7728
-3.7824e-05,7.5696
-3.7820e-05,8.1672
-3.7816e-05,8.5656
-3.7812e-05,8.964
-3.7808e-05,9.3624
-3.7804e-05,9.5616
-3.7800e-05,9.7608
-3.7796e-05,9.96
-3.7792e-05,9.96
-3.7788e-05,9.96
-3.7784e-05,10.1592
-3.7780e-05,10.1592
-3.7776e-05,10.1592
-3.7772e-05,10.1592
-3.7768e-05,10.1592
-3.7764e-05,10.1592
-3.7760e-05,9.96
-3.7756e-05,9.96
-3.7752e-05,9.96
-3.7748e-05,9.96
-3.7744e-05,9.7608
-3.7740e-05,9.7608
-3.7736e-05,9.5616
-3.7732e-05,9.5616
-3.7728e-05,9.3624
-3.7724e-05,9.3624
-3.7720e-05,9.1632
-3.7716e-05,9.1632
-3.7712e-05,9.1632
-3.7708e-05,9.1632
-3.7704e-05,8.964
-3.7700e-05,8.964
-3.7696e-05,8.964
-3.7692e-05,8.7648
-3.7688e-05,8.7648
-3.7684e-05,8.7648
-3.7680e-05,8.7648
-3.7676e-05,8.5656
-3.7672e-05,8.5656
-3.7668e-05,8.5656
-3.7664e-05,8.5656
-3.7660e-05,8.5656
-3.7656e-05,8.5656
-3.7652e-05,8.5656
-3.7648e-05,8.5656
-3.7644e-05,8.3664
-3.7640e-05,8.3664
-3.7636e-05,8.3664
-3.7632e-05,8.3664
-3.7628e-05,8.3664
-3.7624e-05,8.3664
-3.7620e-05,8.3664
-3.7616e-05,8.3664
-3.7612e-05,8.3664
-3.7608e-05,8.3664
-3.7604e-05,8.3664
-3.7600e-05,8.3664
-3.7596e-05,8.3664
-3.7592e-05,8.3664
-3.7588e-05,8.1672
-3.7584e-05,8.1672
-3.7580e-05,8.3664
-3.7576e-05,8.3664
-3.7572e-05,8.3664
-3.7568e-05,8.3664
-3.7564e-05,8.3664
-3.7560e-05,8.3664
-3.7556e-05,8.3664
-3.7552e-05,8.3664
-3.7548e-05,8.3664
-3.7544e-05,8.3664
-3.7540e-05,8.3664
-3.7536e-05,8.3664
-3.7532e-05,8.3664
-3.7528e-05,8.1672
-3.7524e-05,7.968
-3.7520e-05,7.3704
-3.7516e-05,6.3744
-3.7512e-05,5.5776
-3.7508e-05,4.5816
-3.7504e-05,3.984
-3.7500e-05,3.3864
-3.7496e-05,2.988
-3.7492e-05,2.7888
-3.7488e-05,2.5896
-3.7484e-05,2.3904
-3.7480e-05,2.1912
-3.7476e-05,2.1912
-3.7472e-05,2.1912
-3.7468e-05,2.1912
-3.7464e-05,1.992
-3.7460e-05,1.992
-3.7456e-05,1.992
-3.7452e-05,1.992
-3.7448e-05,1.992
-3.7444e-05,2.1912
-3.7440e-05,2.1912
-3.7436e-05,2.3904
-3.7432e-05,2.3904
-3.7428e-05,2.3904
-3.7424e-05,2.5896
-3.7420e-05,2.5896
-3.7416e-05,2.7888
-3.7412e-05,2.7888
-3.7408e-05,2.7888
-3.7404e-05,2.988
-3.7400e-05,2.988
-3.7396e-05,3.1872
-3.7392e-05,3.1872
-3.7388e-05,3.1872
-3.7384e-05,3.3864
-3.7380e-05,3.3864
-3.7376e-05,3.3864
-3.7372e-05,3.3864
-3.7368e-05,3.5856
-3.7364e-05,3.5856
-3.7360e-05,3.5856
-3.7356e-05,3.5856
-3.7352e-05,3.5856
-3.7348e-05,3.7848
-3.7344e-05,3.7848
-3.7340e-05,3.7848
-3.7336e-05,3.7848
-3.7332e-05,3.7848
-3.7328e-05,3.7848
-3.7324e-05,3.7848
-3.7320e-05,3.7848
-3.7316e-05,3.7848
-3.7312e-05,3.984
-3.7308e-05,3.984
-3.7304e-05,3.984
-3.7300e-05,3.984
-3.7296e-05,3.984
-3.7292e-05,3.984
-3.7288e-05,3.984
-3.7284e-05,3.984
-3.7280e-05,3.984
-3.7276e-05,3.984
-3.7272e-05,3.984
-3.7268e-05,3.984
-3.7264e-05,3.984
-3.7260e-05,3.984
-3.7256e-05,3.984
-3.7252e-05,3.984
-3.7248e-05,3.984
-3.7244e-05,4.1832
-3.7240e-05,3.984
-3.7236e-05,3.984
-3.7232e-05,3.984
-3.7228e-05,3.984
-3.7224e-05,3.984
-3.7220e-05,3.984
-3.7216e-05,4.1832
-3.7212e-05,4.1832
-3.7208e-05,4.3824
-3.7204e-05,4.7808
-3.7200e-05,5.5776
-3.7196e-05,6.3744
-3.7192e-05,7.3704
-3.7188e-05,8.1672
-3.7184e-05,8.7648
-3.7180e-05,9.1632
-3.7176e-05,9.5616
-3.7172e-05,9.96
-3.7168e-05,10.1592
-3.7164e-05,10.3584
-3.7160e-05,10.3584
-3.7156e-05,10.5576
-3.7152e-05,10.5576
-3.7148e-05,10.5576
-3.7144e-05,10.5576
-3.7140e-05,10.5576
-3.7136e-05,10.5576
-3.7132e-05,10.5576
-3.7128e-05,10.5576
-3.7124e-05,10.5576
-3.7120e-05,10.3584
-3.7116e-05,10.3584
-3.7112e-05,10.3584
-3.7108e-05,10.1592
-3.7104e-05,10.1592
-3.7100e-05,10.1592
-3.7096e-05,9.96
-3.7092e-05,9.96
-3.7088e-05,9.96
-3.7084e-05,9.7608
-3.7080e-05,9.7608
-3.7076e-05,9.5616
-3.7072e-05,9.5616
-3.7068e-05,9.5616
-3.7064e-05,9.3624
-3.7060e-05,9.3624
-3.7056e-05,9.3624
-3.7052e-05,9.1632
-3.7048e-05,8.7648
-3.7044e-05,7.968
-3.7040e-05,7.1712
-3.7036e-05,6.3744
-3.7032e-05,5.5776
-3.7028e-05,4.7808
-3.7024e-05,4.1832
-3.7020e-05,3.5856
-3.7016e-05,3.1872
-3.7012e-05,2.988
-3.7008e-05,2.7888
-3.7004e-05,2.5896
-3.7000e-05,2.3904
-3.6996e-05,2.3904
-3.6992e-05,2.1912
-3.6988e-05,2.1912
-3.6984e-05,2.1912
-3.6980e-05,2.1912
-3.6976e-05,2.1912
-3.6972e-05,2.1912
-3.6968e-05,2.3904
-3.6964e-05,2.3904
-3.6960e-05,2.3904
-3.6956e-05,2.3904
-3.6952e-05,2.5896
-3.6948e-05,2.5896
-3.6944e-05,2.5896
-3.6940e-05,2.5896
-3.6936e-05,2.7888
-3.6932e-05,2.7888
-3.6928e-05,2.7888
-3.6924e-05,2.988
-3.6920e-05,2.988
-3.6916e-05,2.988
-3.6912e-05,3.1872
-3.6908e-05,3.1872
-3.6904e-05,3.1872
-3.6900e-05,3.3864
-3.6896e-05,3.3864
-3.6892e-05,3.3864
-3.6888e-05,3.3864
-3.6884e-05,3.3864
-3.6880e-05,3.5856
-3.6876e-05,3.5856
-3.6872e-05,3.5856
-3.6868e-05,3.5856
-3.6864e-05,3.5856
-3.6860e-05,3.5856
-3.6856e-05,3.7848
-3.6852e-05,3.7848
-3.6848e-05,3.5856
-3.6844e-05,3.5856
-3.6840e-05,3.7848
-3.6836e-05,3.7848
-3.6832e-05,3.7848
-3.6828e-05,3.7848
-3.6824e-05,3.7848
-3.6820e-05,3.7848
-3.6816e-05,3.7848
-3.6812e-05,3.7848
-3.6808e-05,3.7848
-3.6804e-05,3.7848
-3.6800e-05,3.984
-3.6796e-05,3.984
-3.6792e-05,3.984
-3.6788e-05,3.984
-3.6784e-05,3.984
-3.6780e-05,3.984
-3.6776e-05,3.984
-3.6772e-05,3.984
-3.6768e-05,3.984
-3.6764e-05,3.984
-3.6760e-05,3.984
-3.6756e-05,3.984
-3.6752e-05,3.984
-3.6748e-05,3.984
-3.6744e-05,3.984
-3.6740e-05,3.984
-3.6736e-05,3.984
-3.6732e-05,3.984
-3.6728e-05,3.984
-3.6724e-05,3.984
-3.6720e-05,3.984
-3.6716e-05,3.984
-3.6712e-05,3.984
-3.6708e-05,3.984
-3.6704e-05,3.984
-3.6700e-05,3.984
-3.6696e-05,3.984
-3.6692e-05,3.984
-3.6688e-05,3.984
-3.6684e-05,3.984
-3.6680e-05,3.984
-3.6676e-05,3.984
-3.6672e-05,3.984
-3.6668e-05,3.984
-3.6664e-05,3.984
-3.6660e-05,3.984
-3.6656e-05,3.984
-3.6652e-05,3.984
-3.6648e-05,3.984
-3.6644e-05,3.7848
-3.6640e-05,3.7848
-3.6636e-05,3.7848
-3.6632e-05,3.984
-3.6628e-05,3.984
-3.6624e-05,3.984
-3.6620e-05,3.984
-3.6616e-05,3.984
-3.6612e-05,3.984
-3.6608e-05,3.984
-3.6604e-05,3.984
-3.6600e-05,3.984
-3.6596e-05,3.7848
-3.6592e-05,3.7848
-3.6588e-05,3.7848
-3.6584e-05,3.7848
-3.6580e-05,3.984
-3.6576e-05,3.984
-3.6572e-05,4.1832
-3.6568e-05,4.98
-3.6564e-05,5.7768
-3.6560e-05,6.5736
-3.6556e-05,7.5696
-3.6552e-05,8.1672
-3.6548e-05,8.7648
-3.6544e-05,9.3624
-3.6540e-05,9.5616
-3.6536e-05,9.96
-3.6532e-05,10.1592
-3.6528e-05,10.3584
-3.6524e-05,10.3584
-3.6520e-05,10.5576
-3.6516e-05,10.5576
-3.6512e-05,10.5576
-3.6508e-05,10.5576
-3.6504e-05,10.5576
-3.6500e-05,10.5576
-3.6496e-05,10.5576
-3.6492e-05,10.5576
-3.6488e-05,10.5576
-3.6484e-05,10.5576
-3.6480e-05,10.3584
-3.6476e-05,10.3584
-3.6472e-05,10.3584
-3.6468e-05,10.1592
-3.6464e-05,10.1592
-3.6460e-05,10.1592
-3.6456e-05,10.1592
-3.6452e-05,9.96
-3.6448e-05,9.96
-3.6444e-05,9.7608
-3.6440e-05,9.7608
-3.6436e-05,9.7608
-3.6432e-05,9.5616
-3.6428e-05,9.5616
-3.6424e-05,9.5616
-3.6420e-05,9.5616
-3.6416e-05,9.1632
-3.6412e-05,8.7648
-3.6408e-05,7.968
-3.6404e-05,7.1712
-3.6400e-05,6.3744
-3.6396e-05,5.3784
-3.6392e-05,4.7808
-3.6388e-05,4.1832
-3.6384e-05,3.7848
-3.6380e-05,3.5856
-3.6376e-05,3.1872
-3.6372e-05,2.988
-3.6368e-05,2.7888
-3.6364e-05,2.7888
-3.6360e-05,2.7888
-3.6356e-05,2.7888
-3.6352e-05,2.5896
-3.6348e-05,2.5896
-3.6344e-05,2.5896
-3.6340e-05,2.7888
-3.6336e-05,2.7888
-3.6332e-05,2.7888
-3.6328e-05,2.7888
-3.6324e-05,2.7888
-3.6320e-05,2.7888
-3.6316e-05,2.988
-3.6312e-05,2.988
-3.6308e-05,2.988
-3.6304e-05,3.1872
-3.6300e-05,3.1872
-3.6296e-05,3.3864
-3.6292e-05,3.3864
-3.6288e-05,3.3864
-3.6284e-05,3.5856
-3.6280e-05,3.5856
-3.6276e-05,3.5856
-3.6272e-05,3.7848
-3.6268e-05,3.7848
-3.6264e-05,3.7848
-3.6260e-05,3.984
-3.6256e-05,3.984
-3.6252e-05,3.984
-3.6248e-05,3.984
-3.6244e-05,4.1832
-3.6240e-05,4.1832
-3.6236e-05,4.1832
-3.6232e-05,4.1832
-3.6228e-05,4.1832
-3.6224e-05,4.1832
-3.6220e-05,4.1832
-3.6216e-05,4.1832
-3.6212e-05,4.3824
-3.6208e-05,4.3824
-3.6204e-05,4.3824
-3.6200e-05,4.3824
-3.6196e-05,4.3824
-3.6192e-05,4.3824
-3.6188e-05,4.3824
-3.6184e-05,4.3824
-3.6180e-05,4.3824
-3.6176e-05,4.5816
-3.6172e-05,4.3824
-3.6168e-05,4.3824
-3.6164e-05,4.3824
-3.6160e-05,4.5816
-3.6156e-05,4.5816
-3.6152e-05,4.5816
-3.6148e-05,4.5816
-3.6144e-05,4.5816
-3.6140e-05,4.5816
-3.6136e-05,4.5816
-3.6132e-05,4.5816
-3.6128e-05,4.5816
-3.6124e-05,4.5816
-3.6120e-05,4.5816
-3.6116e-05,4.5816
-3.6112e-05,4.5816
-3.6108e-05,4.5816
-3.6104e-05,4.5816
-3.6100e-05,4.5816
-3.6096e-05,4.7808
-3.6092e-05,5.3784
-3.6088e-05,6.1752
-3.6084e-05,7.1712
-3.6080e-05,7.968
-3.6076e-05,8.7648
-3.6072e-05,9.3624
-3.6068e-05,9.7608
-3.6064e-05,10.1592
-3.6060e-05,10.3584
-3.6056e-05,10.5576
-3.6052e-05,10.7568
-3.6048e-05,10.956
-3.6044e-05,10.956
-3.6040e-05,10.956
-3.6036e-05,11.1552
-3.6032e-05,11.1552
-3.6028e-05,10.956
-3.6024e-05,10.956
-3.6020e-05,10.956
-3.6016e-05,10.956
-3.6012e-05,10.956
-3.6008e-05,10.7568
-3.6004e-05,10.7568
-3.6000e-05,10.7568
-3.5996e-05,10.5576
-3.5992e-05,10.5576
-3.5988e-05,10.3584
-3.5984e-05,10.3584
-3.5980e-05,10.3584
-3.5976e-05,10.1592
-3.5972e-05,10.1592
-3.5968e-05,9.96
-3.5964e-05,9.96
-3.5960e-05,9.96
-3.5956e-05,9.7608
-3.5952e-05,9.7608
-3.5948e-05,9.7608
-3.5944e-05,9.5616
-3.5940e-05,9.3624
-3.5936e-05,8.964
-3.5932e-05,8.1672
-3.5928e-05,7.1712
-3.5924e-05,6.3744
-3.5920e-05,5.5776
-3.5916e-05,4.7808
-3.5912e-05,4.1832
-3.5908e-05,3.7848
-3.5904e-05,3.3864
-3.5900e-05,3.1872
-3.5896e-05,2.988
-3.5892e-05,2.7888
-3.5888e-05,2.7888
-3.5884e-05,2.5896
-3.5880e-05,2.5896
-3.5876e-05,2.5896
-3.5872e-05,2.5896
-3.5868e-05,2.5896
-3.5864e-05,2.5896
-3.5860e-05,2.5896
-3.5856e-05,2.5896
-3.5852e-05,2.5896
-3.5848e-05,2.7888
-3.5844e-05,2.7888
-3.5840e-05,2.7888
-3.5836e-05,2.7888
-3.5832e-05,2.988
-3.5828e-05,2.988
-3.5824e-05,2.988
-3.5820e-05,3.1872
