expt2025/アナログ・デジタル変換器/data/data_square_10Hz.csv

#Digilent WaveForms Oscilloscope Acquisition
#Device Name: Discovery2
#Serial Number: SN:210321B03262
#Date Time: 2025-06-19 10:49:45.590
#Sample rate: 16000Hz
#Samples: 8192
#Trigger: Source: Channel 1 Type: Edge Condition: Rising Level: -2 mV Hyst.: Auto HoldOff: 0 s
#Channel 1: Range: 10 mV/div Offset: 22 mV Sample Mode: Average
#Channel 2: Range: 500 mV/div Offset: 0 V Sample Mode: Average
#Wavegen Channel 1: Running
#Mode: Simple
#Type: Square
#Frequency: 10 Hz
#Period: 100 ms
#Amplitude: 10 mV
#Offset: -10 mV
#Symmetry: 50 %
#Phase: 0
#Power Supplies: ON
#Positive Supply: ON
#Voltage: 3.3 V
#Negative Supply: ON
#Voltage: -3.3 V

Time (s),Channel 1 (V),Channel 2 (V)
-0.1718125,-0.002023222021323803,0.01466612156904033
-0.17175,-0.002360084393531491,0.0139944730253155
-0.1716875,-0.002023222021323956,0.01365864875345347
-0.171625,-0.001686359649115963,0.01298700020972865
-0.1715625,-0.002023222021323803,0.01265117593786601
-0.1715,-0.002023222021323803,0.01197952739414165
-0.1714375,-0.002023222021323803,0.01130787885041698
-0.171375,-0.002360084393531491,0.0109720545785548
-0.1713125,-0.002023222021323803,0.01063623030669231
-0.17125,-0.002360084393531491,0.009964581762967488
-0.1711875,-0.002023222021323956,0.00962875749110546
-0.171125,-0.002360084393531644,0.009292933219242972
-0.1710625,-0.002023222021323803,0.008957108947380485
-0.171,-0.002023222021323803,0.008621284675518303
-0.1709375,-0.002023222021323803,0.008285460403655968
-0.170875,-0.002023222021323803,0.007613811859931604
-0.1708125,-0.002360084393531644,0.007277987588068965
-0.17075,-0.002360084393531491,0.006942163316206324
-0.1706875,-0.002023222021323956,0.006270514772482266
-0.170625,-0.002360084393531644,0.006270514772481961
-0.1705625,-0.002360084393531644,0.005598866228757139
-0.1705,-0.002360084393531644,0.005263041956894957
-0.1704375,-0.002023222021323803,0.004927217685032622
-0.170375,-0.002023222021323803,0.004591393413170441
-0.1703125,-0.002360084393531644,0.004255569141307953
-0.17025,-0.002023222021323956,0.003919744869445314
-0.1701875,-0.002360084393531491,0.003248096325721254
-0.170125,-0.002023222021323803,0.003248096325720949
-0.1700625,-0.002023222021323803,0.002576447781996128
-0.17,-0.002023222021323803,0.002240623510133946
-0.1699375,-0.002360084393531644,0.001568974966409276
-0.169875,-0.002023222021323956,0.001233150694547094
-0.1698125,-0.002360084393531644,0.0008973264226846073
-0.16975,-0.002360084393531644,0.0005615021508219672
-0.1696875,-0.002360084393531644,-0.0001101463929020912
-0.169625,-0.002360084393531644,-0.0001101463929023966
-0.1695625,-0.002023222021323956,-0.0004459706647648839
-0.1695,-0.002360084393531644,-0.0007817949366270658
-0.1694375,-0.002360084393531644,-0.0011176192084894
-0.169375,-0.002360084393531644,-0.001453443480351582
-0.1693125,-0.002696946765739484,-0.001789267752214069
-0.16925,-0.002360084393531644,-0.002125092024076404
-0.1691875,-0.002360084393531644,-0.002125092024076404
-0.169125,-0.002360084393531644,-0.002460916295938739
-0.1690625,-0.002360084393531491,-0.00313256483966356
-0.169,-0.002023222021323803,-0.003468389111525742
-0.1689375,-0.001686359649115963,-0.003804213383388077
-0.168875,-0.00202322202132365,-0.004140037655250259
-0.1688125,-0.002023222021323803,-0.004811686198975081
-0.16875,-0.002023222021323956,-0.005483334742699903
-0.1686875,-0.002360084393531491,-0.005819159014561932
-0.168625,-0.002360084393531644,-0.005819159014562085
-0.1685625,-0.002360084393531644,-0.006154983286424572
-0.1685,-0.002360084393531644,-0.006490807558286754
-0.1684375,-0.002023222021323803,-0.006826631830149088
-0.168375,-0.002360084393531491,-0.00716245610201127
-0.1683125,-0.002023222021323803,-0.007162456102011423
-0.16825,-0.002360084393531491,-0.007498280373873911
-0.1681875,-0.002023222021323956,-0.007834104645735938
-0.168125,-0.002360084393531644,-0.008169928917598428
-0.1680625,-0.002360084393531644,-0.00816992891759858
-0.168,-0.002360084393531644,-0.008505753189460761
-0.1679375,-0.002360084393531644,-0.008841577461323096
-0.167875,-0.002023222021323956,-0.009177401733185278
-0.1678125,-0.002023222021323803,-0.009513226005047766
-0.16775,-0.002023222021323803,-0.009849050276910406
-0.1676875,-0.002023222021323803,-0.01052069882063446
-0.167625,-0.002023222021323803,-0.0108565230924971
-0.1675625,-0.002360084393531644,-0.01119234736435959
-0.1675,-0.002360084393531644,-0.01152817163622177
-0.1674375,-0.002696946765739484,-0.01152817163622177
-0.167375,-0.002360084393531797,-0.01152817163622177
-0.1673125,-0.002360084393531644,-0.01186399590808411
-0.16725,-0.002360084393531644,-0.01186399590808426
-0.1671875,-0.002360084393531644,-0.01219982017994629
-0.167125,-0.002360084393531644,-0.01253564445180878
-0.1670625,-0.002360084393531491,-0.01287146872367111
-0.167,-0.002023222021323803,-0.01287146872367111
-0.1669375,-0.002023222021323803,-0.01354311726739578
-0.166875,-0.002360084393531491,-0.01354311726739578
-0.1668125,-0.002360084393531644,-0.01387894153925811
-0.16675,-0.002360084393531644,-0.0142147658111206
-0.1666875,-0.002360084393531644,-0.01455059008298263
-0.166625,-0.002023222021323803,-0.01455059008298278
-0.1665625,-0.002360084393531491,-0.01488641435484542
-0.1665,-0.002023222021323803,-0.01555806289856979
-0.1664375,-0.002023222021323803,-0.01589388717043212
-0.166375,-0.002023222021323803,-0.01589388717043212
-0.1663125,-0.002023222021323803,-0.01656553571415679
-0.16625,-0.002360084393531644,-0.01690135998601913
-0.1661875,-0.002360084393531644,-0.01690135998601913
-0.166125,-0.002360084393531644,-0.01723718425788146
-0.1660625,-0.002023222021323803,-0.01723718425788161
-0.166,-0.002023222021323803,-0.0175730085297438
-0.1659375,-0.002360084393531644,-0.01790883280160613
-0.165875,-0.002360084393531644,-0.01824465707346831
-0.1658125,-0.002023222021323803,-0.01824465707346846
-0.16575,-0.002023222021323803,-0.0185804813453308
-0.1656875,-0.002023222021323803,-0.01891630561719313
-0.165625,-0.002360084393531644,-0.01925212988905547
-0.1655625,-0.002360084393531644,-0.0195879541609178
-0.1655,-0.002360084393531644,-0.0195879541609178
-0.1654375,-0.002360084393531644,-0.01992377843278014
-0.165375,-0.002023222021323803,-0.02025960270464247
-0.1653125,-0.002360084393531644,-0.02025960270464247
-0.16525,-0.002023222021323803,-0.02059542697650481
-0.1651875,-0.002023222021323803,-0.02059542697650481
-0.165125,-0.002360084393531644,-0.02093125124836714
-0.1650625,-0.002023222021323803,-0.02126707552022948
-0.165,-0.002023222021323803,-0.02193872406395414
-0.1649375,-0.002360084393531644,-0.02193872406395414
-0.164875,-0.002023222021323803,-0.02227454833581648
-0.1648125,-0.001686359649115963,-0.02261037260767881
-0.16475,-0.002023222021323803,-0.02294619687954115
-0.1646875,-0.002023222021323803,-0.02328202115140348
-0.164625,-0.002023222021323803,-0.02395366969512815
-0.1645625,-0.002360084393531644,-0.02395366969512815
-0.1645,-0.002360084393531644,-0.02428949396699049
-0.1644375,-0.002360084393531644,-0.02462531823885282
-0.164375,-0.002360084393531644,-0.02462531823885282
-0.1643125,-0.002360084393531644,-0.02462531823885282
-0.16425,-0.002360084393531644,-0.02496114251071516
-0.1641875,-0.002360084393531644,-0.02496114251071516
-0.164125,-0.002360084393531644,-0.02496114251071516
-0.1640625,-0.002023222021323803,-0.02529696678257749
-0.164,-0.002360084393531644,-0.02529696678257749
-0.1639375,-0.002360084393531644,-0.02563279105443983
-0.163875,-0.002360084393531644,-0.02563279105443983
-0.1638125,-0.002023222021323803,-0.02596861532630216
-0.16375,-0.002360084393531644,-0.0263044395981645
-0.1636875,-0.002360084393531644,-0.0263044395981645
-0.163625,-0.002360084393531644,-0.0263044395981645
-0.1635625,-0.002360084393531644,-0.0263044395981645
-0.1635,-0.002360084393531644,-0.02664026387002683
-0.1634375,-0.002360084393531644,-0.02664026387002683
-0.163375,-0.002360084393531644,-0.02664026387002683
-0.1633125,-0.002360084393531644,-0.02664026387002683
-0.16325,-0.002023222021323803,-0.02697608814188916
-0.1631875,-0.002360084393531644,-0.0273119124137515
-0.163125,-0.002360084393531644,-0.0273119124137515
-0.1630625,-0.002023222021323803,-0.02764773668561383
-0.163,-0.002023222021323803,-0.02798356095747617
-0.1629375,-0.002360084393531644,-0.02798356095747617
-0.162875,-0.002023222021323803,-0.0283193852293385
-0.1628125,-0.002023222021323803,-0.02865520950120084
-0.16275,-0.002023222021323803,-0.02865520950120084
-0.1626875,-0.002023222021323803,-0.02899103377306317
-0.162625,-0.002023222021323803,-0.02932685804492551
-0.1625625,-0.002023222021323803,-0.02932685804492551
-0.1625,-0.002023222021323803,-0.02966268231678784
-0.1624375,-0.002023222021323803,-0.02999850658865017
-0.162375,-0.002360084393531644,-0.02999850658865017
-0.1623125,-0.002023222021323803,-0.03033433086051251
-0.16225,-0.002360084393531644,-0.03033433086051251
-0.1621875,-0.002023222021323803,-0.03067015513237484
-0.162125,-0.002360084393531644,-0.03067015513237484
-0.1620625,-0.002023222021323803,-0.03067015513237484
-0.162,-0.002023222021323803,-0.03100597940423718
-0.1619375,-0.002023222021323803,-0.03134180367609951
-0.161875,-0.002023222021323803,-0.03134180367609951
-0.1618125,-0.002023222021323803,-0.03201345221982418
-0.16175,-0.002023222021323803,-0.03201345221982418
-0.1616875,-0.002023222021323803,-0.03234927649168652
-0.161625,-0.002023222021323803,-0.03234927649168652
-0.1615625,-0.002360084393531644,-0.03268510076354885
-0.1615,-0.002360084393531644,-0.03268510076354885
-0.1614375,-0.002023222021323803,-0.03268510076354885
-0.161375,-0.002360084393531644,-0.03302092503541119
-0.1613125,-0.002023222021323803,-0.03302092503541119
-0.16125,-0.002023222021323803,-0.03335674930727352
-0.1611875,-0.002696946765739484,-0.03335674930727352
-0.161125,-0.002360084393531644,-0.03335674930727352
-0.1610625,-0.002023222021323803,-0.03335674930727352
-0.161,-0.002023222021323803,-0.03369257357913585
-0.1609375,-0.002023222021323803,-0.03369257357913585
-0.160875,-0.002023222021323803,-0.03402839785099819
-0.1608125,-0.002023222021323803,-0.03436422212286053
-0.16075,-0.002023222021323803,-0.03436422212286053
-0.1606875,-0.002360084393531644,-0.03470004639472286
-0.160625,-0.002360084393531644,-0.03470004639472286
-0.1605625,-0.002360084393531644,-0.03470004639472286
-0.1605,-0.002023222021323803,-0.03470004639472286
-0.1604375,-0.002023222021323803,-0.03470004639472286
-0.160375,-0.002023222021323803,-0.03503587066658519
-0.1603125,-0.002023222021323803,-0.03537169493844753
-0.16025,-0.002360084393531644,-0.03537169493844753
-0.1601875,-0.002360084393531644,-0.03537169493844753
-0.160125,-0.002023222021323803,-0.03570751921030987
-0.1600625,-0.002023222021323803,-0.0360433434821722
-0.16,-0.002023222021323803,-0.0360433434821722
-0.1599375,-0.002023222021323803,-0.0360433434821722
-0.159875,-0.001686359649115963,-0.03637916775403453
-0.1598125,-0.002023222021323803,-0.03637916775403453
-0.15975,-0.002023222021323803,-0.03671499202589687
-0.1596875,-0.002360084393531644,-0.03671499202589687
-0.159625,-0.002360084393531644,-0.03671499202589687
-0.1595625,-0.002023222021323803,-0.03671499202589687
-0.1595,-0.002023222021323803,-0.0370508162977592
-0.1594375,-0.002360084393531644,-0.03738664056962154
-0.159375,-0.002023222021323803,-0.03738664056962154
-0.1593125,-0.002023222021323803,-0.03772246484148387
-0.15925,-0.002023222021323803,-0.0380582891133462
-0.1591875,-0.002360084393531644,-0.0380582891133462
-0.159125,-0.002360084393531644,-0.0380582891133462
-0.1590625,-0.002023222021323803,-0.03839411338520854
-0.159,-0.002023222021323803,-0.03839411338520854
-0.1589375,-0.002023222021323803,-0.03839411338520854
-0.158875,-0.002023222021323803,-0.03872993765707088
-0.1588125,-0.002023222021323803,-0.03906576192893321
-0.15875,-0.002360084393531644,-0.03906576192893321
-0.1586875,-0.002023222021323803,-0.03940158620079554
-0.158625,-0.002360084393531644,-0.03940158620079554
-0.1585625,-0.002023222021323803,-0.03940158620079554
-0.1585,-0.002023222021323803,-0.03973741047265788
-0.1584375,-0.002023222021323803,-0.03973741047265788
-0.158375,-0.002360084393531644,-0.03973741047265788
-0.1583125,-0.002360084393531644,-0.03973741047265788
-0.15825,-0.002023222021323803,-0.03973741047265788
-0.1581875,-0.002023222021323803,-0.04007323474452022
-0.158125,-0.002023222021323803,-0.04040905901638255
-0.1580625,-0.002360084393531644,-0.04040905901638255
-0.158,-0.002023222021323803,-0.04040905901638255
-0.1579375,-0.002023222021323803,-0.04040905901638255
-0.157875,-0.002023222021323803,-0.04074488328824488
-0.1578125,-0.002023222021323803,-0.04074488328824488
-0.15775,-0.002023222021323803,-0.04108070756010722
-0.1576875,-0.002360084393531644,-0.04108070756010722
-0.157625,-0.002360084393531644,-0.04108070756010722
-0.1575625,-0.002023222021323803,-0.04108070756010722
-0.1575,-0.002360084393531644,-0.04141653183196955
-0.1574375,-0.002023222021323803,-0.04141653183196955
-0.157375,-0.002023222021323803,-0.04141653183196955
-0.1573125,-0.002023222021323803,-0.04141653183196955
-0.15725,-0.002360084393531644,-0.04141653183196955
-0.1571875,-0.002023222021323803,-0.04175235610383188
-0.157125,-0.001686359649115963,-0.04208818037569422
-0.1570625,-0.002023222021323803,-0.04242400464755656
-0.157,-0.002023222021323803,-0.04242400464755656
-0.1569375,-0.002360084393531644,-0.04242400464755656
-0.156875,-0.002023222021323803,-0.04242400464755656
-0.1568125,-0.002023222021323803,-0.04242400464755656
-0.15675,-0.002023222021323803,-0.04242400464755656
-0.1566875,-0.002023222021323803,-0.04242400464755656
-0.156625,-0.002023222021323803,-0.04275982891941889
-0.1565625,-0.002023222021323803,-0.04275982891941889
-0.1565,-0.002360084393531644,-0.04309565319128122
-0.1564375,-0.002360084393531644,-0.04309565319128122
-0.156375,-0.002023222021323803,-0.04309565319128122
-0.1563125,-0.002023222021323803,-0.04343147746314356
-0.15625,-0.002360084393531644,-0.04343147746314356
-0.1561875,-0.002360084393531644,-0.04343147746314356
-0.156125,-0.002360084393531644,-0.04343147746314356
-0.1560625,-0.002360084393531644,-0.04343147746314356
-0.156,-0.002023222021323803,-0.04343147746314356
-0.1559375,-0.002023222021323803,-0.04343147746314356
-0.155875,-0.002023222021323803,-0.04376730173500589
-0.1558125,-0.002023222021323803,-0.04410312600686823
-0.15575,-0.002360084393531644,-0.04410312600686823
-0.1556875,-0.002023222021323803,-0.04410312600686823
-0.155625,-0.002023222021323803,-0.04443895027873056
-0.1555625,-0.002360084393531644,-0.04443895027873056
-0.1555,-0.002023222021323803,-0.04443895027873056
-0.1554375,-0.002360084393531644,-0.04443895027873056
-0.155375,-0.002360084393531644,-0.0447747745505929
-0.1553125,-0.002360084393531644,-0.0447747745505929
-0.15525,-0.002360084393531644,-0.0447747745505929
-0.1551875,-0.002360084393531644,-0.0447747745505929
-0.155125,-0.002023222021323803,-0.04511059882245523
-0.1550625,-0.002023222021323803,-0.04544642309431757
-0.155,-0.002023222021323803,-0.04544642309431757
-0.1549375,-0.002023222021323803,-0.0457822473661799
-0.154875,-0.002360084393531644,-0.0457822473661799
-0.1548125,-0.002360084393531644,-0.04611807163804223
-0.15475,-0.002023222021323803,-0.04611807163804223
-0.1546875,-0.002023222021323803,-0.04611807163804223
-0.154625,-0.002360084393531644,-0.04611807163804223
-0.1545625,-0.002360084393531644,-0.04611807163804223
-0.1545,-0.002023222021323803,-0.04645389590990457
-0.1544375,-0.002023222021323803,-0.04645389590990457
-0.154375,-0.002360084393531644,-0.04678972018176691
-0.1543125,-0.002360084393531644,-0.04678972018176691
-0.15425,-0.002360084393531644,-0.04712554445362924
-0.1541875,-0.002023222021323803,-0.04712554445362924
-0.154125,-0.002360084393531644,-0.04712554445362924
-0.1540625,-0.002360084393531644,-0.04712554445362924
-0.154,-0.002360084393531644,-0.04712554445362924
-0.1539375,-0.02156123960937854,-0.04074488328824488
-0.153875,-0.02189810198158638,-0.0273119124137515
-0.1538125,-0.02189810198158638,-0.01387894153925811
-0.15375,-0.02189810198158638,-0.0007817949366270658
-0.1536875,-0.02189810198158638,0.01231535166600398
-0.153625,-0.02189810198158638,0.02574832254049737
-0.1535625,-0.02189810198158638,0.03850964487126608
-0.1535,-0.02223496435379422,0.05160679147389713
-0.1534375,-0.02156123960937854,0.06436811380466585
-0.153375,-0.02156123960937854,0.07679361186357223
-0.1533125,-0.02189810198158638,0.08921910992247861
-0.15325,-0.02223496435379422,0.101644607981385
-0.1531875,-0.02189810198158638,0.1140701060402914
-0.153125,-0.02223496435379422,0.1261597798273354
-0.1530625,-0.02189810198158638,0.1385852778862418
-0.153,-0.02189810198158638,0.1503391274014235
-0.1529375,-0.02189810198158638,0.1624288011884675
-0.152875,-0.02189810198158638,0.1745184749755116
-0.1528125,-0.02189810198158638,0.1862723244906933
-0.15275,-0.02189810198158638,0.198026174005875
-0.1526875,-0.02189810198158638,0.2094441992491944
-0.152625,-0.02189810198158638,0.2211980487643761
-0.1525625,-0.02189810198158638,0.2326160740076955
-0.1525,-0.02189810198158638,0.2440340992510149
-0.1524375,-0.02189810198158638,0.2554521244943342
-0.152375,-0.02156123960937854,0.2665343254657913
-0.1523125,-0.02156123960937854,0.2776165264372483
-0.15225,-0.02189810198158638,0.2886987274087053
-0.1521875,-0.02189810198158638,0.2994451041083001
-0.152125,-0.02189810198158638,0.3101914808078948
-0.1520625,-0.02189810198158638,0.3212736817793518
-0.152,-0.02189810198158638,0.3316842342070841
-0.1519375,-0.02189810198158638,0.3424306109066789
-0.151875,-0.02189810198158638,0.3531769876062736
-0.1518125,-0.02223496435379422,0.363587540034006
-0.15175,-0.02223496435379422,0.3743339167336007
-0.1516875,-0.02189810198158638,0.384744469161333
-0.151625,-0.02189810198158638,0.3951550215890654
-0.1515625,-0.02223496435379422,0.4052297497449354
-0.1515,-0.02189810198158638,0.4153044779008055
-0.1514375,-0.02189810198158638,0.4253792060566755
-0.151375,-0.02223496435379422,0.4354539342125456
-0.1513125,-0.02223496435379422,0.4455286623684156
-0.15125,-0.02223496435379422,0.4552675662524233
-0.1511875,-0.02189810198158638,0.465006470136431
-0.151125,-0.02189810198158638,0.4750811982923011
-0.1510625,-0.02223496435379422,0.4844842779044464
-0.151,-0.02223496435379422,0.4942231817884541
-0.1509375,-0.02189810198158638,0.5039620856724618
-0.150875,-0.02189810198158638,0.5130293410127449
-0.1508125,-0.02189810198158638,0.5224324206248903
-0.15075,-0.02189810198158638,0.5318355002370356
-0.1506875,-0.02189810198158638,0.541238579849181
-0.150625,-0.02189810198158638,0.5499700109176017
-0.1505625,-0.02189810198158638,0.559373090529747
-0.1505,-0.02223496435379422,0.56844034587003
-0.1504375,-0.02156123960937854,0.5771717769384508
-0.150375,-0.02156123960937854,0.5862390322787338
-0.1503125,-0.02156123960937854,0.5949704633471545
-0.15025,-0.02189810198158638,0.6037018944155752
-0.1501875,-0.02223496435379422,0.6124333254839959
-0.150125,-0.02189810198158638,0.6211647565524165
-0.1500625,-0.02189810198158638,0.6295603633489749
-0.15,-0.02189810198158638,0.6379559701455333
-0.1499375,-0.02189810198158638,0.6466874012139541
-0.149875,-0.02156123960937854,0.6550830080105123
-0.1498125,-0.02189810198158638,0.6634786148070707
-0.14975,-0.02223496435379422,0.6718742216036291
-0.1496875,-0.02189810198158638,0.6802698284001875
-0.149625,-0.02189810198158638,0.6883296109248835
-0.1495625,-0.02189810198158638,0.6963893934495795
-0.1495,-0.02189810198158638,0.7044491759742756
-0.1494375,-0.02189810198158638,0.7125089584989716
-0.149375,-0.02223496435379422,0.7205687410236676
-0.1493125,-0.02156123960937854,0.7286285235483636
-0.14925,-0.02156123960937854,0.7363524818011974
-0.1491875,-0.02189810198158638,0.7440764400540311
-0.149125,-0.02189810198158638,0.7518003983068647
-0.1490625,-0.02189810198158638,0.7591885322878361
-0.149,-0.02189810198158638,0.7669124905406698
-0.1489375,-0.02189810198158638,0.7746364487935035
-0.148875,-0.02189810198158638,0.7820245827744748
